[
  [
    [
      138.4808941,
      -34.8317679
    ],
    [
      138.4862063,
      -34.8333132
    ],
    [
      138.4854688,
      -34.8351722
    ],
    [
      138.4881133,
      -34.8347687
    ],
    [
      138.488995,
      -34.834633
    ],
    [
      138.4898927,
      -34.8344972
    ],
    [
      138.490596,
      -34.8343891
    ],
    [
      138.4914971,
      -34.8342505
    ],
    [
      138.4915114,
      -34.8342483
    ],
    [
      138.4915668,
      -34.8342397
    ],
    [
      138.4917933,
      -34.8342074
    ],
    [
      138.4918559,
      -34.8341985
    ],
    [
      138.4917641,
      -34.8335982
    ],
    [
      138.4917521,
      -34.8322553
    ],
    [
      138.4914292,
      -34.8306921
    ],
    [
      138.4914088,
      -34.8303494
    ],
    [
      138.5046245,
      -34.8284943
    ],
    [
      138.5076995,
      -34.8281259
    ],
    [
      138.5077068,
      -34.8269699
    ],
    [
      138.5087052,
      -34.825322
    ],
    [
      138.5099081,
      -34.8235865
    ],
    [
      138.5067906,
      -34.8221552
    ],
    [
      138.5030774,
      -34.8226944
    ],
    [
      138.5007541,
      -34.8206695
    ],
    [
      138.4981577,
      -34.8226907
    ],
    [
      138.49824,
      -34.8227558
    ],
    [
      138.4973517,
      -34.8234495
    ],
    [
      138.4966543,
      -34.8228402
    ],
    [
      138.4967309,
      -34.822779
    ],
    [
      138.4946612,
      -34.8209705
    ],
    [
      138.4943337,
      -34.8212434
    ],
    [
      138.4941739,
      -34.820482
    ],
    [
      138.4917575,
      -34.8223373
    ],
    [
      138.4921971,
      -34.8215026
    ],
    [
      138.4866219,
      -34.8193677
    ],
    [
      138.4859407,
      -34.820843
    ],
    [
      138.4855276,
      -34.8216269
    ],
    [
      138.4851306,
      -34.8223007
    ],
    [
      138.484621,
      -34.8230273
    ],
    [
      138.4841116,
      -34.8238905
    ],
    [
      138.483807,
      -34.8243077
    ],
    [
      138.4820489,
      -34.8290336
    ],
    [
      138.4811986,
      -34.8312187
    ],
    [
      138.4808941,
      -34.8317679
    ]
  ]
]