[
  [
    [
      138.6732581,
      -34.7197018
    ],
    [
      138.673273,
      -34.7197747
    ],
    [
      138.6741104,
      -34.7238291
    ],
    [
      138.6751562,
      -34.7289081
    ],
    [
      138.6751784,
      -34.7290206
    ],
    [
      138.6755573,
      -34.730938
    ],
    [
      138.6755947,
      -34.7315194
    ],
    [
      138.6756129,
      -34.7324819
    ],
    [
      138.6756195,
      -34.7325841
    ],
    [
      138.675786,
      -34.735175
    ],
    [
      138.6758918,
      -34.7365083
    ],
    [
      138.6758986,
      -34.7365934
    ],
    [
      138.6761109,
      -34.7392668
    ],
    [
      138.6761923,
      -34.7414506
    ],
    [
      138.6774341,
      -34.7414374
    ],
    [
      138.677665,
      -34.7410967
    ],
    [
      138.6786881,
      -34.7394814
    ],
    [
      138.6790588,
      -34.7389345
    ],
    [
      138.6795392,
      -34.7381714
    ],
    [
      138.6807736,
      -34.7362269
    ],
    [
      138.6810044,
      -34.7358491
    ],
    [
      138.6815359,
      -34.7348203
    ],
    [
      138.6824293,
      -34.7335489
    ],
    [
      138.6828894,
      -34.7328331
    ],
    [
      138.6829836,
      -34.7326866
    ],
    [
      138.6834013,
      -34.7321726
    ],
    [
      138.6838854,
      -34.7315768
    ],
    [
      138.6864433,
      -34.7284316
    ],
    [
      138.6883796,
      -34.7254619
    ],
    [
      138.6893378,
      -34.7239621
    ],
    [
      138.6901914,
      -34.7225999
    ],
    [
      138.6922169,
      -34.7193929
    ],
    [
      138.694362,
      -34.7160417
    ],
    [
      138.6938975,
      -34.7161512
    ],
    [
      138.6917026,
      -34.7166819
    ],
    [
      138.6857919,
      -34.7181111
    ],
    [
      138.6850133,
      -34.7193429
    ],
    [
      138.6848961,
      -34.7192919
    ],
    [
      138.6845083,
      -34.7191251
    ],
    [
      138.6843762,
      -34.7190683
    ],
    [
      138.6842002,
      -34.7189926
    ],
    [
      138.684026,
      -34.7189177
    ],
    [
      138.6838164,
      -34.7188275
    ],
    [
      138.6836419,
      -34.7187525
    ],
    [
      138.6836135,
      -34.7187403
    ],
    [
      138.6834362,
      -34.7186641
    ],
    [
      138.6832405,
      -34.7185799
    ],
    [
      138.6830626,
      -34.7185034
    ],
    [
      138.6828673,
      -34.7184194
    ],
    [
      138.6826619,
      -34.718331
    ],
    [
      138.6824688,
      -34.718248
    ],
    [
      138.6822712,
      -34.718163
    ],
    [
      138.6820943,
      -34.7180869
    ],
    [
      138.6819172,
      -34.7180107
    ],
    [
      138.6817187,
      -34.7179253
    ],
    [
      138.68155,
      -34.7178528
    ],
    [
      138.6815143,
      -34.7178387
    ],
    [
      138.6813305,
      -34.7177587
    ],
    [
      138.68111,
      -34.7176629
    ],
    [
      138.6808409,
      -34.7176613
    ],
    [
      138.6805756,
      -34.7176595
    ],
    [
      138.6804936,
      -34.7176591
    ],
    [
      138.6799665,
      -34.7173959
    ],
    [
      138.6798001,
      -34.7173127
    ],
    [
      138.6797659,
      -34.7173504
    ],
    [
      138.6794796,
      -34.717625
    ],
    [
      138.6791838,
      -34.7178297
    ],
    [
      138.6790064,
      -34.7179525
    ],
    [
      138.6785762,
      -34.7181593
    ],
    [
      138.6780332,
      -34.7183524
    ],
    [
      138.6748706,
      -34.7193124
    ],
    [
      138.6739323,
      -34.7195882
    ],
    [
      138.6738971,
      -34.7195941
    ],
    [
      138.6732581,
      -34.7197018
    ]
  ]
]