[
  [
    [
      138.468792,
      -35.2470047
    ],
    [
      138.4695668,
      -35.2574883
    ],
    [
      138.469543,
      -35.2575815
    ],
    [
      138.4697329,
      -35.260196
    ],
    [
      138.4697893,
      -35.2606647
    ],
    [
      138.4699461,
      -35.2626971
    ],
    [
      138.4700238,
      -35.2638445
    ],
    [
      138.4701002,
      -35.2648381
    ],
    [
      138.4701442,
      -35.265396
    ],
    [
      138.4702036,
      -35.2661469
    ],
    [
      138.4703461,
      -35.2679706
    ],
    [
      138.4709923,
      -35.276779
    ],
    [
      138.4711042,
      -35.27831
    ],
    [
      138.471104,
      -35.278455
    ],
    [
      138.471346,
      -35.2816206
    ],
    [
      138.471724,
      -35.28648
    ],
    [
      138.4718063,
      -35.2876382
    ],
    [
      138.4721271,
      -35.2921541
    ],
    [
      138.4721246,
      -35.2921732
    ],
    [
      138.4720577,
      -35.292674
    ],
    [
      138.4720558,
      -35.2926886
    ],
    [
      138.472351,
      -35.2965939
    ],
    [
      138.4723548,
      -35.2966032
    ],
    [
      138.472504,
      -35.2969656
    ],
    [
      138.4726194,
      -35.29696
    ],
    [
      138.4981075,
      -35.2957133
    ],
    [
      138.4978168,
      -35.2918866
    ],
    [
      138.4973082,
      -35.2851899
    ],
    [
      138.4965044,
      -35.2746946
    ],
    [
      138.4965036,
      -35.2746833
    ],
    [
      138.4960507,
      -35.2685248
    ],
    [
      138.4958004,
      -35.2640107
    ],
    [
      138.4957596,
      -35.263427
    ],
    [
      138.4954411,
      -35.2588664
    ],
    [
      138.4950684,
      -35.25353
    ],
    [
      138.4950611,
      -35.2534329
    ],
    [
      138.4949611,
      -35.2521061
    ],
    [
      138.494668,
      -35.248233
    ],
    [
      138.4943522,
      -35.2440551
    ],
    [
      138.4943518,
      -35.2440499
    ],
    [
      138.4942743,
      -35.2430237
    ],
    [
      138.4938392,
      -35.2430372
    ],
    [
      138.4814907,
      -35.2436947
    ],
    [
      138.48167,
      -35.2462146
    ],
    [
      138.4816709,
      -35.2462996
    ],
    [
      138.468792,
      -35.2470047
    ]
  ]
]