[
  [
    [
      138.6258792,
      -34.9568789
    ],
    [
      138.6260003,
      -34.958396
    ],
    [
      138.6260233,
      -34.958685
    ],
    [
      138.626487,
      -34.9645872
    ],
    [
      138.643505,
      -34.9636832
    ],
    [
      138.6442476,
      -34.963643
    ],
    [
      138.6423873,
      -34.9613942
    ],
    [
      138.6391423,
      -34.9574501
    ],
    [
      138.6383161,
      -34.9564636
    ],
    [
      138.638144,
      -34.9562551
    ],
    [
      138.6381428,
      -34.9562537
    ],
    [
      138.6366592,
      -34.956326
    ],
    [
      138.6258792,
      -34.9568789
    ]
  ]
]