[
  [
    [
      138.7167768,
      -34.7950823
    ],
    [
      138.7168586,
      -34.796127
    ],
    [
      138.7175379,
      -34.8056303
    ],
    [
      138.7177205,
      -34.8056213
    ],
    [
      138.7311961,
      -34.8050028
    ],
    [
      138.7367313,
      -34.8046751
    ],
    [
      138.7444161,
      -34.8043145
    ],
    [
      138.7444531,
      -34.804221
    ],
    [
      138.7457385,
      -34.8009687
    ],
    [
      138.7400562,
      -34.7994337
    ],
    [
      138.7405016,
      -34.799126
    ],
    [
      138.7283357,
      -34.7943157
    ],
    [
      138.7229919,
      -34.7945753
    ],
    [
      138.7201548,
      -34.7951361
    ],
    [
      138.7191284,
      -34.7949686
    ],
    [
      138.7168925,
      -34.7950767
    ],
    [
      138.7167768,
      -34.7950823
    ]
  ]
]