[
  [
    [
      138.6590385,
      -34.99751
    ],
    [
      138.6600769,
      -34.997932
    ],
    [
      138.6652132,
      -35.0000194
    ],
    [
      138.6632573,
      -35.0020592
    ],
    [
      138.66398,
      -35.0026899
    ],
    [
      138.6652086,
      -35.0034183
    ],
    [
      138.6677193,
      -35.0046479
    ],
    [
      138.6683702,
      -35.0052426
    ],
    [
      138.6705615,
      -35.0060581
    ],
    [
      138.6748626,
      -35.0065247
    ],
    [
      138.676411,
      -35.0072211
    ],
    [
      138.6798211,
      -35.007753
    ],
    [
      138.6812558,
      -35.0074532
    ],
    [
      138.681403,
      -35.007459
    ],
    [
      138.6772569,
      -35.0133501
    ],
    [
      138.6794471,
      -35.0139018
    ],
    [
      138.6802543,
      -35.0132421
    ],
    [
      138.6808056,
      -35.0129633
    ],
    [
      138.6814369,
      -35.0128701
    ],
    [
      138.682007,
      -35.0128868
    ],
    [
      138.6833732,
      -35.0129318
    ],
    [
      138.6842738,
      -35.0127787
    ],
    [
      138.6847577,
      -35.0127133
    ],
    [
      138.6854158,
      -35.0127128
    ],
    [
      138.6858563,
      -35.0128387
    ],
    [
      138.6862706,
      -35.0130489
    ],
    [
      138.6866603,
      -35.0132317
    ],
    [
      138.6868085,
      -35.0132795
    ],
    [
      138.6870324,
      -35.0133588
    ],
    [
      138.6872062,
      -35.0134044
    ],
    [
      138.6876124,
      -35.0134622
    ],
    [
      138.6879714,
      -35.0134641
    ],
    [
      138.6883924,
      -35.0134091
    ],
    [
      138.6892941,
      -35.0131768
    ],
    [
      138.6900417,
      -35.013101
    ],
    [
      138.6906714,
      -35.0131456
    ],
    [
      138.6911658,
      -35.0131806
    ],
    [
      138.6927664,
      -35.0132253
    ],
    [
      138.6971111,
      -35.0134865
    ],
    [
      138.6977372,
      -35.0135142
    ],
    [
      138.6980676,
      -35.0134642
    ],
    [
      138.6981394,
      -35.0134609
    ],
    [
      138.6981828,
      -35.0134514
    ],
    [
      138.6982433,
      -35.013432
    ],
    [
      138.6983269,
      -35.0134136
    ],
    [
      138.698428,
      -35.0133863
    ],
    [
      138.6985083,
      -35.0133602
    ],
    [
      138.6985743,
      -35.0133395
    ],
    [
      138.6986327,
      -35.0133151
    ],
    [
      138.6986693,
      -35.0133015
    ],
    [
      138.6992178,
      -35.0131087
    ],
    [
      138.6996801,
      -35.012689
    ],
    [
      138.7000147,
      -35.0122473
    ],
    [
      138.7000712,
      -35.0117258
    ],
    [
      138.7004972,
      -35.0106718
    ],
    [
      138.7008558,
      -35.0101125
    ],
    [
      138.7013766,
      -35.0096992
    ],
    [
      138.7015747,
      -35.0093589
    ],
    [
      138.7021093,
      -35.0083313
    ],
    [
      138.7023513,
      -35.0078119
    ],
    [
      138.7024072,
      -35.0077606
    ],
    [
      138.7025559,
      -35.0064355
    ],
    [
      138.7033516,
      -35.0069127
    ],
    [
      138.7041373,
      -35.0060253
    ],
    [
      138.7045036,
      -35.0056991
    ],
    [
      138.7043833,
      -35.0044208
    ],
    [
      138.7047505,
      -35.004258
    ],
    [
      138.7046298,
      -35.0040648
    ],
    [
      138.7043587,
      -35.003813
    ],
    [
      138.7039021,
      -35.0028194
    ],
    [
      138.7037329,
      -35.002212
    ],
    [
      138.7034533,
      -35.0017022
    ],
    [
      138.703097,
      -35.001138
    ],
    [
      138.7031365,
      -35.0008407
    ],
    [
      138.703034,
      -35.0004096
    ],
    [
      138.7027754,
      -34.9998929
    ],
    [
      138.7026058,
      -34.9996426
    ],
    [
      138.7023345,
      -34.9992171
    ],
    [
      138.7021066,
      -34.9988095
    ],
    [
      138.7022156,
      -34.9985051
    ],
    [
      138.7023556,
      -34.9982532
    ],
    [
      138.7024771,
      -34.9979934
    ],
    [
      138.7017765,
      -34.9976317
    ],
    [
      138.7013211,
      -34.9970439
    ],
    [
      138.7006037,
      -34.9956225
    ],
    [
      138.6995156,
      -34.9948405
    ],
    [
      138.6978193,
      -34.9943184
    ],
    [
      138.697356,
      -34.9941758
    ],
    [
      138.696494,
      -34.9936834
    ],
    [
      138.6956576,
      -34.992882
    ],
    [
      138.6949496,
      -34.9909047
    ],
    [
      138.6947507,
      -34.989487
    ],
    [
      138.6944976,
      -34.9883038
    ],
    [
      138.6934625,
      -34.9860848
    ],
    [
      138.6914916,
      -34.9849083
    ],
    [
      138.6892279,
      -34.9843373
    ],
    [
      138.6886831,
      -34.9839294
    ],
    [
      138.688329,
      -34.9834731
    ],
    [
      138.6880037,
      -34.9829097
    ],
    [
      138.688013,
      -34.9824944
    ],
    [
      138.6878412,
      -34.9820067
    ],
    [
      138.6875945,
      -34.9816309
    ],
    [
      138.6873164,
      -34.981342
    ],
    [
      138.6864107,
      -34.9789593
    ],
    [
      138.686435,
      -34.9780957
    ],
    [
      138.6862697,
      -34.9771892
    ],
    [
      138.6861355,
      -34.9768724
    ],
    [
      138.6852433,
      -34.9761856
    ],
    [
      138.6852426,
      -34.9761851
    ],
    [
      138.6850584,
      -34.9760727
    ],
    [
      138.6828617,
      -34.9762142
    ],
    [
      138.6821079,
      -34.9761497
    ],
    [
      138.6818327,
      -34.9760862
    ],
    [
      138.6800929,
      -34.9757292
    ],
    [
      138.6778932,
      -34.9754472
    ],
    [
      138.675369,
      -34.974504
    ],
    [
      138.6749885,
      -34.9747446
    ],
    [
      138.6741656,
      -34.9742751
    ],
    [
      138.6739111,
      -34.9742276
    ],
    [
      138.6735434,
      -34.9742464
    ],
    [
      138.6732634,
      -34.9743937
    ],
    [
      138.6731182,
      -34.9747148
    ],
    [
      138.6728914,
      -34.9749235
    ],
    [
      138.6724506,
      -34.9756622
    ],
    [
      138.6712768,
      -34.9764949
    ],
    [
      138.6710152,
      -34.9763984
    ],
    [
      138.6709337,
      -34.9765638
    ],
    [
      138.6719679,
      -34.976873
    ],
    [
      138.6700506,
      -34.9782239
    ],
    [
      138.6699728,
      -34.9789984
    ],
    [
      138.6674253,
      -34.9807859
    ],
    [
      138.6670082,
      -34.9803714
    ],
    [
      138.6657423,
      -34.981269
    ],
    [
      138.66518,
      -34.981667
    ],
    [
      138.6608357,
      -34.9847479
    ],
    [
      138.6609792,
      -34.9864552
    ],
    [
      138.6610041,
      -34.9867511
    ],
    [
      138.661873,
      -34.9868963
    ],
    [
      138.6642178,
      -34.9872903
    ],
    [
      138.6649848,
      -34.9874852
    ],
    [
      138.6657061,
      -34.9876684
    ],
    [
      138.6658597,
      -34.9877548
    ],
    [
      138.6672576,
      -34.9885411
    ],
    [
      138.6674084,
      -34.9886823
    ],
    [
      138.668028,
      -34.9889104
    ],
    [
      138.6681584,
      -34.9888608
    ],
    [
      138.6710379,
      -34.9897949
    ],
    [
      138.6718261,
      -34.9900583
    ],
    [
      138.6699993,
      -34.9926675
    ],
    [
      138.6682965,
      -34.9969864
    ],
    [
      138.6634042,
      -34.9947374
    ],
    [
      138.6590385,
      -34.99751
    ]
  ]
]