[
  [
    [
      138.4903094,
      -35.1909964
    ],
    [
      138.4905997,
      -35.194766
    ],
    [
      138.4910881,
      -35.2011906
    ],
    [
      138.4912904,
      -35.2039304
    ],
    [
      138.491297,
      -35.2050678
    ],
    [
      138.4912972,
      -35.2051098
    ],
    [
      138.4912686,
      -35.2058931
    ],
    [
      138.4914761,
      -35.2063824
    ],
    [
      138.4917529,
      -35.2063965
    ],
    [
      138.496755,
      -35.2061163
    ],
    [
      138.4978506,
      -35.2060559
    ],
    [
      138.5022903,
      -35.2006863
    ],
    [
      138.5023622,
      -35.2005991
    ],
    [
      138.5027642,
      -35.2005678
    ],
    [
      138.5037586,
      -35.1996452
    ],
    [
      138.5033695,
      -35.1946357
    ],
    [
      138.501821,
      -35.1932448
    ],
    [
      138.5011468,
      -35.1923451
    ],
    [
      138.5003522,
      -35.1912251
    ],
    [
      138.4995648,
      -35.1906019
    ],
    [
      138.499038,
      -35.1902847
    ],
    [
      138.4967383,
      -35.1903733
    ],
    [
      138.4967324,
      -35.1903736
    ],
    [
      138.4948716,
      -35.1904851
    ],
    [
      138.494693,
      -35.1905025
    ],
    [
      138.4943402,
      -35.190549
    ],
    [
      138.4940037,
      -35.1905731
    ],
    [
      138.4927646,
      -35.1905936
    ],
    [
      138.4927551,
      -35.1905941
    ],
    [
      138.4903211,
      -35.1907149
    ],
    [
      138.4903094,
      -35.1909964
    ]
  ]
]