[
  [
    [
      138.5701558,
      -35.033617
    ],
    [
      138.5701572,
      -35.0336268
    ],
    [
      138.5702266,
      -35.0339185
    ],
    [
      138.5704382,
      -35.0341263
    ],
    [
      138.5716091,
      -35.0346476
    ],
    [
      138.5719967,
      -35.0347668
    ],
    [
      138.5722082,
      -35.034934
    ],
    [
      138.57226,
      -35.03512
    ],
    [
      138.5721026,
      -35.0353489
    ],
    [
      138.5715546,
      -35.0356051
    ],
    [
      138.5708486,
      -35.0357851
    ],
    [
      138.5706547,
      -35.0358922
    ],
    [
      138.5706061,
      -35.0360361
    ],
    [
      138.5706337,
      -35.0362464
    ],
    [
      138.5707077,
      -35.0363512
    ],
    [
      138.5710401,
      -35.0364725
    ],
    [
      138.5714707,
      -35.0365419
    ],
    [
      138.5716494,
      -35.0366412
    ],
    [
      138.5717304,
      -35.0367631
    ],
    [
      138.571722,
      -35.0369334
    ],
    [
      138.5716164,
      -35.0371367
    ],
    [
      138.5711011,
      -35.0376037
    ],
    [
      138.5710018,
      -35.0377697
    ],
    [
      138.5710139,
      -35.0378653
    ],
    [
      138.571229,
      -35.0380173
    ],
    [
      138.5721227,
      -35.038258
    ],
    [
      138.5727548,
      -35.0383686
    ],
    [
      138.5732611,
      -35.0383138
    ],
    [
      138.5739377,
      -35.0380055
    ],
    [
      138.5742245,
      -35.0376923
    ],
    [
      138.5745016,
      -35.0375855
    ],
    [
      138.5753011,
      -35.0377101
    ],
    [
      138.5763391,
      -35.0376718
    ],
    [
      138.5768953,
      -35.0378435
    ],
    [
      138.5772065,
      -35.0376594
    ],
    [
      138.5779703,
      -35.0369291
    ],
    [
      138.5783196,
      -35.0367434
    ],
    [
      138.5785202,
      -35.0367147
    ],
    [
      138.5788741,
      -35.0367774
    ],
    [
      138.5793969,
      -35.0369907
    ],
    [
      138.5799451,
      -35.0370085
    ],
    [
      138.5802152,
      -35.0370687
    ],
    [
      138.5804481,
      -35.0372794
    ],
    [
      138.5804961,
      -35.0377358
    ],
    [
      138.5807608,
      -35.0378551
    ],
    [
      138.5810444,
      -35.0378465
    ],
    [
      138.5812551,
      -35.0377816
    ],
    [
      138.5816761,
      -35.0373873
    ],
    [
      138.5818562,
      -35.0372895
    ],
    [
      138.5823276,
      -35.0371852
    ],
    [
      138.5833762,
      -35.0370444
    ],
    [
      138.5840187,
      -35.0368622
    ],
    [
      138.5842178,
      -35.0369052
    ],
    [
      138.5843306,
      -35.0369926
    ],
    [
      138.5844255,
      -35.0372027
    ],
    [
      138.5844248,
      -35.0374597
    ],
    [
      138.5845212,
      -35.0375707
    ],
    [
      138.5847887,
      -35.0376821
    ],
    [
      138.5851491,
      -35.0377547
    ],
    [
      138.5856865,
      -35.0377213
    ],
    [
      138.5862887,
      -35.0379885
    ],
    [
      138.5864329,
      -35.0377505
    ],
    [
      138.586676,
      -35.0375956
    ],
    [
      138.5871625,
      -35.0374308
    ],
    [
      138.5875764,
      -35.0373535
    ],
    [
      138.5882259,
      -35.0371519
    ],
    [
      138.5888284,
      -35.036849
    ],
    [
      138.5901093,
      -35.0359681
    ],
    [
      138.5902889,
      -35.0356688
    ],
    [
      138.5902696,
      -35.0353809
    ],
    [
      138.5903263,
      -35.0351493
    ],
    [
      138.5907401,
      -35.0348518
    ],
    [
      138.5908066,
      -35.0346615
    ],
    [
      138.5910333,
      -35.0345017
    ],
    [
      138.591333,
      -35.034494
    ],
    [
      138.5917022,
      -35.0343918
    ],
    [
      138.5925994,
      -35.0338803
    ],
    [
      138.5929632,
      -35.0337735
    ],
    [
      138.5933922,
      -35.033709
    ],
    [
      138.5938902,
      -35.0337554
    ],
    [
      138.5943079,
      -35.0336998
    ],
    [
      138.5951857,
      -35.0334662
    ],
    [
      138.5957908,
      -35.0333826
    ],
    [
      138.5958952,
      -35.0333682
    ],
    [
      138.5957083,
      -35.030689
    ],
    [
      138.5956817,
      -35.0303072
    ],
    [
      138.5955681,
      -35.0301565
    ],
    [
      138.5941241,
      -35.0284074
    ],
    [
      138.5939135,
      -35.0284349
    ],
    [
      138.5919871,
      -35.0284947
    ],
    [
      138.5915625,
      -35.0284429
    ],
    [
      138.5910959,
      -35.0283055
    ],
    [
      138.5892988,
      -35.0274786
    ],
    [
      138.5889318,
      -35.0272584
    ],
    [
      138.588486,
      -35.0268773
    ],
    [
      138.5880198,
      -35.0263135
    ],
    [
      138.5864231,
      -35.0242056
    ],
    [
      138.5838842,
      -35.0218447
    ],
    [
      138.5800625,
      -35.0190939
    ],
    [
      138.5791903,
      -35.0186114
    ],
    [
      138.5783999,
      -35.0183287
    ],
    [
      138.5774075,
      -35.0178896
    ],
    [
      138.5770605,
      -35.0176514
    ],
    [
      138.5766954,
      -35.0172339
    ],
    [
      138.577271,
      -35.0249222
    ],
    [
      138.5772756,
      -35.0250131
    ],
    [
      138.5771617,
      -35.0249503
    ],
    [
      138.5777872,
      -35.0332229
    ],
    [
      138.5741941,
      -35.0334086
    ],
    [
      138.5737486,
      -35.0334298
    ],
    [
      138.5707308,
      -35.0335856
    ],
    [
      138.5701558,
      -35.033617
    ]
  ]
]