[
  [
    [
      138.570321,
      -34.932056
    ],
    [
      138.570489,
      -34.9339679
    ],
    [
      138.5709785,
      -34.9408074
    ],
    [
      138.571074,
      -34.9411534
    ],
    [
      138.5711561,
      -34.942113
    ],
    [
      138.5769474,
      -34.9418219
    ],
    [
      138.5779994,
      -34.941768
    ],
    [
      138.5762701,
      -34.9317211
    ],
    [
      138.5747994,
      -34.9317893
    ],
    [
      138.5749588,
      -34.9315801
    ],
    [
      138.5706209,
      -34.931816
    ],
    [
      138.5703565,
      -34.9318658
    ],
    [
      138.570321,
      -34.932056
    ]
  ]
]