[
  [
    [
      138.523712,
      -34.9872409
    ],
    [
      138.5259961,
      -34.9904157
    ],
    [
      138.5267211,
      -34.9914378
    ],
    [
      138.5298068,
      -34.991275
    ],
    [
      138.5300681,
      -34.9911836
    ],
    [
      138.5308043,
      -34.9911488
    ],
    [
      138.530932,
      -34.99289
    ],
    [
      138.5300887,
      -34.9929337
    ],
    [
      138.5302675,
      -34.9952803
    ],
    [
      138.5303334,
      -34.9952776
    ],
    [
      138.5303642,
      -34.9957032
    ],
    [
      138.5297715,
      -34.9957317
    ],
    [
      138.5303509,
      -34.9965447
    ],
    [
      138.5304607,
      -34.9966989
    ],
    [
      138.538839,
      -34.9962433
    ],
    [
      138.5392868,
      -34.9960903
    ],
    [
      138.5393398,
      -34.9960722
    ],
    [
      138.5393179,
      -34.995827
    ],
    [
      138.5384872,
      -34.9858867
    ],
    [
      138.5377492,
      -34.9761924
    ],
    [
      138.5377829,
      -34.9759702
    ],
    [
      138.5364469,
      -34.9766501
    ],
    [
      138.5345543,
      -34.9776133
    ],
    [
      138.5326618,
      -34.9784513
    ],
    [
      138.5306085,
      -34.9790991
    ],
    [
      138.5291206,
      -34.9794065
    ],
    [
      138.5296548,
      -34.9869437
    ],
    [
      138.523712,
      -34.9872409
    ]
  ]
]