[
  [
    [
      138.5329788,
      -34.8610102
    ],
    [
      138.5330883,
      -34.8631294
    ],
    [
      138.5333462,
      -34.8630713
    ],
    [
      138.5342545,
      -34.8630292
    ],
    [
      138.5343322,
      -34.8641991
    ],
    [
      138.5342247,
      -34.8649051
    ],
    [
      138.5338817,
      -34.8656312
    ],
    [
      138.5334447,
      -34.8661351
    ],
    [
      138.5434849,
      -34.8722399
    ],
    [
      138.5483954,
      -34.8752256
    ],
    [
      138.5481985,
      -34.872388
    ],
    [
      138.5475102,
      -34.8624626
    ],
    [
      138.5474497,
      -34.86159
    ],
    [
      138.5407061,
      -34.8619081
    ],
    [
      138.5405598,
      -34.8597847
    ],
    [
      138.5385001,
      -34.8598747
    ],
    [
      138.534393,
      -34.8600541
    ],
    [
      138.5332963,
      -34.8604926
    ],
    [
      138.5330486,
      -34.8608212
    ],
    [
      138.5329788,
      -34.8610102
    ]
  ]
]