[
  [
    [
      138.4281386,
      -34.680827
    ],
    [
      138.4283345,
      -34.6808445
    ],
    [
      138.4287994,
      -34.6810375
    ],
    [
      138.4294583,
      -34.6815493
    ],
    [
      138.4301929,
      -34.6819337
    ],
    [
      138.4305312,
      -34.6821655
    ],
    [
      138.4307504,
      -34.6823922
    ],
    [
      138.4309924,
      -34.6828893
    ],
    [
      138.4312959,
      -34.6833422
    ],
    [
      138.4321425,
      -34.6842846
    ],
    [
      138.4324262,
      -34.6848509
    ],
    [
      138.4325887,
      -34.6850526
    ],
    [
      138.4329877,
      -34.685353
    ],
    [
      138.4332718,
      -34.6856409
    ],
    [
      138.4337418,
      -34.6858279
    ],
    [
      138.4341826,
      -34.6865988
    ],
    [
      138.4343898,
      -34.6867701
    ],
    [
      138.4345239,
      -34.6867495
    ],
    [
      138.4346214,
      -34.6867823
    ],
    [
      138.434871,
      -34.6869899
    ],
    [
      138.4350723,
      -34.6874066
    ],
    [
      138.4352226,
      -34.6874645
    ],
    [
      138.4353675,
      -34.6872196
    ],
    [
      138.4355233,
      -34.6872253
    ],
    [
      138.4356353,
      -34.6872997
    ],
    [
      138.4359739,
      -34.6877295
    ],
    [
      138.436097,
      -34.6877749
    ],
    [
      138.4362955,
      -34.6879766
    ],
    [
      138.4365274,
      -34.6880878
    ],
    [
      138.4367108,
      -34.6883759
    ],
    [
      138.4369765,
      -34.6886197
    ],
    [
      138.4371754,
      -34.6890781
    ],
    [
      138.4370968,
      -34.6893441
    ],
    [
      138.4372644,
      -34.6896811
    ],
    [
      138.4373033,
      -34.6899879
    ],
    [
      138.4377472,
      -34.6907263
    ],
    [
      138.437838,
      -34.691458
    ],
    [
      138.4379886,
      -34.6917105
    ],
    [
      138.4385171,
      -34.6919124
    ],
    [
      138.4389845,
      -34.6919594
    ],
    [
      138.4395184,
      -34.6921256
    ],
    [
      138.4397752,
      -34.6922942
    ],
    [
      138.4404562,
      -34.6929123
    ],
    [
      138.4407016,
      -34.6930037
    ],
    [
      138.4411187,
      -34.6930402
    ],
    [
      138.4414971,
      -34.6933478
    ],
    [
      138.4421054,
      -34.6935417
    ],
    [
      138.4422607,
      -34.6936662
    ],
    [
      138.4423817,
      -34.6938851
    ],
    [
      138.4425177,
      -34.6939747
    ],
    [
      138.4430257,
      -34.6939609
    ],
    [
      138.4434254,
      -34.6940851
    ],
    [
      138.4436892,
      -34.6941121
    ],
    [
      138.4441025,
      -34.694448
    ],
    [
      138.4441463,
      -34.6947392
    ],
    [
      138.4444233,
      -34.6950048
    ],
    [
      138.4452052,
      -34.6951865
    ],
    [
      138.4455454,
      -34.6952206
    ],
    [
      138.4458259,
      -34.6956974
    ],
    [
      138.4458661,
      -34.6960187
    ],
    [
      138.4460008,
      -34.696341
    ],
    [
      138.4461818,
      -34.6965467
    ],
    [
      138.4472594,
      -34.6971287
    ],
    [
      138.4474381,
      -34.6972803
    ],
    [
      138.4476219,
      -34.6974946
    ],
    [
      138.4478298,
      -34.6976412
    ],
    [
      138.4482342,
      -34.6981326
    ],
    [
      138.4482497,
      -34.6983994
    ],
    [
      138.4483804,
      -34.6984159
    ],
    [
      138.4486715,
      -34.6983559
    ],
    [
      138.4491848,
      -34.6985907
    ],
    [
      138.4492663,
      -34.698701
    ],
    [
      138.449277,
      -34.6990381
    ],
    [
      138.4491874,
      -34.6992511
    ],
    [
      138.4493265,
      -34.6994631
    ],
    [
      138.4491857,
      -34.6996212
    ],
    [
      138.449328,
      -34.699709
    ],
    [
      138.4496033,
      -34.7001852
    ],
    [
      138.4500602,
      -34.7004049
    ],
    [
      138.4500974,
      -34.7005604
    ],
    [
      138.450019,
      -34.700847
    ],
    [
      138.450224,
      -34.7009223
    ],
    [
      138.4503023,
      -34.7010745
    ],
    [
      138.4505252,
      -34.7012124
    ],
    [
      138.450903,
      -34.7015662
    ],
    [
      138.4517258,
      -34.7026181
    ],
    [
      138.4526508,
      -34.7032741
    ],
    [
      138.4529807,
      -34.7037684
    ],
    [
      138.4533849,
      -34.7040911
    ],
    [
      138.4537085,
      -34.7044402
    ],
    [
      138.4539705,
      -34.7048216
    ],
    [
      138.4541014,
      -34.7051978
    ],
    [
      138.4543107,
      -34.7054677
    ],
    [
      138.4548044,
      -34.7058372
    ],
    [
      138.4558247,
      -34.7062379
    ],
    [
      138.4560268,
      -34.7064418
    ],
    [
      138.4563216,
      -34.7065547
    ],
    [
      138.4567794,
      -34.7068728
    ],
    [
      138.4568921,
      -34.7070318
    ],
    [
      138.457254,
      -34.7073083
    ],
    [
      138.4579722,
      -34.707736
    ],
    [
      138.4582183,
      -34.7079412
    ],
    [
      138.4586625,
      -34.7084421
    ],
    [
      138.4589836,
      -34.7090228
    ],
    [
      138.4592129,
      -34.709296
    ],
    [
      138.4593167,
      -34.709843
    ],
    [
      138.4596011,
      -34.7102442
    ],
    [
      138.4596994,
      -34.7105544
    ],
    [
      138.459979,
      -34.7108606
    ],
    [
      138.460384,
      -34.7109597
    ],
    [
      138.4607644,
      -34.7111412
    ],
    [
      138.4612334,
      -34.7112528
    ],
    [
      138.4618255,
      -34.7112825
    ],
    [
      138.4620628,
      -34.7113755
    ],
    [
      138.4622969,
      -34.7115781
    ],
    [
      138.4631294,
      -34.7126429
    ],
    [
      138.4636679,
      -34.7130335
    ],
    [
      138.4642255,
      -34.7132684
    ],
    [
      138.4644093,
      -34.7133951
    ],
    [
      138.4647144,
      -34.7139638
    ],
    [
      138.4650164,
      -34.7142251
    ],
    [
      138.4652704,
      -34.7143649
    ],
    [
      138.4657562,
      -34.7143834
    ],
    [
      138.4661557,
      -34.7145141
    ],
    [
      138.4664673,
      -34.7146658
    ],
    [
      138.4667708,
      -34.7149152
    ],
    [
      138.4668907,
      -34.7151171
    ],
    [
      138.4669466,
      -34.715509
    ],
    [
      138.4673125,
      -34.7157649
    ],
    [
      138.4675729,
      -34.7161252
    ],
    [
      138.4678893,
      -34.7162479
    ],
    [
      138.4683479,
      -34.7163139
    ],
    [
      138.4686995,
      -34.716426
    ],
    [
      138.4688736,
      -34.7165633
    ],
    [
      138.4689344,
      -34.7166807
    ],
    [
      138.4689391,
      -34.7168469
    ],
    [
      138.4690862,
      -34.7169987
    ],
    [
      138.4696582,
      -34.7170409
    ],
    [
      138.4704604,
      -34.7174288
    ],
    [
      138.4706857,
      -34.7177125
    ],
    [
      138.4708407,
      -34.7182693
    ],
    [
      138.4712498,
      -34.7188274
    ],
    [
      138.4725234,
      -34.7196983
    ],
    [
      138.4734774,
      -34.7201205
    ],
    [
      138.4739345,
      -34.7208567
    ],
    [
      138.4743899,
      -34.7213014
    ],
    [
      138.4747175,
      -34.7215178
    ],
    [
      138.4752768,
      -34.7216444
    ],
    [
      138.4753983,
      -34.7217579
    ],
    [
      138.4754255,
      -34.722027
    ],
    [
      138.4757051,
      -34.7222302
    ],
    [
      138.4759909,
      -34.7223561
    ],
    [
      138.4768137,
      -34.7227185
    ],
    [
      138.4769931,
      -34.722928
    ],
    [
      138.4775517,
      -34.7232278
    ],
    [
      138.4782142,
      -34.7234204
    ],
    [
      138.4783668,
      -34.7235316
    ],
    [
      138.478392,
      -34.7236781
    ],
    [
      138.4783469,
      -34.7237523
    ],
    [
      138.4782442,
      -34.7237945
    ],
    [
      138.4779005,
      -34.7237989
    ],
    [
      138.4778518,
      -34.7239229
    ],
    [
      138.4779221,
      -34.7240196
    ],
    [
      138.4784268,
      -34.7242524
    ],
    [
      138.4785483,
      -34.7243491
    ],
    [
      138.478639,
      -34.7247265
    ],
    [
      138.4786378,
      -34.7250805
    ],
    [
      138.4787162,
      -34.7251939
    ],
    [
      138.4789244,
      -34.7252144
    ],
    [
      138.4790534,
      -34.7250366
    ],
    [
      138.4791789,
      -34.7249653
    ],
    [
      138.4793391,
      -34.7249669
    ],
    [
      138.4795557,
      -34.7250464
    ],
    [
      138.4797547,
      -34.7251883
    ],
    [
      138.4796728,
      -34.7255848
    ],
    [
      138.4797683,
      -34.7257653
    ],
    [
      138.4800864,
      -34.7259375
    ],
    [
      138.4807605,
      -34.7261413
    ],
    [
      138.4816767,
      -34.7261049
    ],
    [
      138.4817602,
      -34.7261716
    ],
    [
      138.4819277,
      -34.7266314
    ],
    [
      138.4822406,
      -34.7267937
    ],
    [
      138.4823881,
      -34.7270444
    ],
    [
      138.483047,
      -34.727211
    ],
    [
      138.4835449,
      -34.7274699
    ],
    [
      138.483917,
      -34.7273804
    ],
    [
      138.4842395,
      -34.7274717
    ],
    [
      138.4846482,
      -34.727279
    ],
    [
      138.4851046,
      -34.7272384
    ],
    [
      138.4850906,
      -34.7273215
    ],
    [
      138.4845149,
      -34.7277458
    ],
    [
      138.4839814,
      -34.7279253
    ],
    [
      138.4839439,
      -34.7280573
    ],
    [
      138.4842752,
      -34.7281925
    ],
    [
      138.4847739,
      -34.7282928
    ],
    [
      138.4850128,
      -34.7283907
    ],
    [
      138.4851303,
      -34.7284897
    ],
    [
      138.4851903,
      -34.728653
    ],
    [
      138.4850812,
      -34.728848
    ],
    [
      138.4850165,
      -34.728877
    ],
    [
      138.4851155,
      -34.7290707
    ],
    [
      138.4850777,
      -34.7291727
    ],
    [
      138.4853497,
      -34.7290878
    ],
    [
      138.4856301,
      -34.7285447
    ],
    [
      138.4857407,
      -34.7284435
    ],
    [
      138.485869,
      -34.7284293
    ],
    [
      138.4858833,
      -34.7284816
    ],
    [
      138.4857538,
      -34.7285768
    ],
    [
      138.4857285,
      -34.7287068
    ],
    [
      138.4860037,
      -34.7286942
    ],
    [
      138.4860557,
      -34.7290171
    ],
    [
      138.4865582,
      -34.7293635
    ],
    [
      138.486695,
      -34.7298145
    ],
    [
      138.4871502,
      -34.7300634
    ],
    [
      138.487575,
      -34.7304358
    ],
    [
      138.4876678,
      -34.7303611
    ],
    [
      138.4877098,
      -34.7304638
    ],
    [
      138.4881318,
      -34.7306711
    ],
    [
      138.4882542,
      -34.730859
    ],
    [
      138.488137,
      -34.7309564
    ],
    [
      138.4881522,
      -34.7310327
    ],
    [
      138.4882674,
      -34.7310587
    ],
    [
      138.4882722,
      -34.7311291
    ],
    [
      138.488423,
      -34.7311581
    ],
    [
      138.4884922,
      -34.7311105
    ],
    [
      138.4886462,
      -34.7311898
    ],
    [
      138.4887586,
      -34.7314519
    ],
    [
      138.4889426,
      -34.7316008
    ],
    [
      138.4891438,
      -34.7316688
    ],
    [
      138.4892874,
      -34.7317929
    ],
    [
      138.4893091,
      -34.7318827
    ],
    [
      138.489451,
      -34.7319458
    ],
    [
      138.4899263,
      -34.7323829
    ],
    [
      138.4896895,
      -34.7325668
    ],
    [
      138.4898436,
      -34.7330129
    ],
    [
      138.4900788,
      -34.733025
    ],
    [
      138.4903867,
      -34.7327358
    ],
    [
      138.4906038,
      -34.7327187
    ],
    [
      138.490674,
      -34.7327879
    ],
    [
      138.4908134,
      -34.7327912
    ],
    [
      138.4911381,
      -34.7330179
    ],
    [
      138.4912773,
      -34.7332516
    ],
    [
      138.4914357,
      -34.73331
    ],
    [
      138.491483,
      -34.7334015
    ],
    [
      138.4915826,
      -34.7333907
    ],
    [
      138.491799,
      -34.7334833
    ],
    [
      138.4920772,
      -34.7337276
    ],
    [
      138.4924418,
      -34.7337077
    ],
    [
      138.4926097,
      -34.7337583
    ],
    [
      138.4927276,
      -34.7338714
    ],
    [
      138.492832,
      -34.733878
    ],
    [
      138.4929988,
      -34.7339656
    ],
    [
      138.4931059,
      -34.7340918
    ],
    [
      138.4933021,
      -34.7341952
    ],
    [
      138.4933484,
      -34.7343974
    ],
    [
      138.4934636,
      -34.7344168
    ],
    [
      138.4936049,
      -34.7345395
    ],
    [
      138.4937049,
      -34.7345297
    ],
    [
      138.4938264,
      -34.7345812
    ],
    [
      138.4939836,
      -34.7347415
    ],
    [
      138.4942703,
      -34.7348321
    ],
    [
      138.49435,
      -34.734957
    ],
    [
      138.4945223,
      -34.7350345
    ],
    [
      138.4947705,
      -34.735049
    ],
    [
      138.4948721,
      -34.7351244
    ],
    [
      138.4953129,
      -34.7352288
    ],
    [
      138.4956726,
      -34.7354325
    ],
    [
      138.4958993,
      -34.7353834
    ],
    [
      138.4960022,
      -34.7354414
    ],
    [
      138.4960999,
      -34.7354221
    ],
    [
      138.4962463,
      -34.7355018
    ],
    [
      138.4964278,
      -34.7355324
    ],
    [
      138.4968044,
      -34.7354145
    ],
    [
      138.4968881,
      -34.7354269
    ],
    [
      138.4969647,
      -34.735484
    ],
    [
      138.4970345,
      -34.7357116
    ],
    [
      138.497214,
      -34.735788
    ],
    [
      138.4970423,
      -34.7360335
    ],
    [
      138.49702,
      -34.7362725
    ],
    [
      138.4971867,
      -34.736323
    ],
    [
      138.4973321,
      -34.7362699
    ],
    [
      138.4974865,
      -34.73637
    ],
    [
      138.4976887,
      -34.7363064
    ],
    [
      138.4977256,
      -34.7364379
    ],
    [
      138.4979975,
      -34.7365409
    ],
    [
      138.497976,
      -34.7366822
    ],
    [
      138.4981293,
      -34.7367318
    ],
    [
      138.4981735,
      -34.7367908
    ],
    [
      138.5169927,
      -34.7322901
    ],
    [
      138.522963,
      -34.7310878
    ],
    [
      138.537691,
      -34.727679
    ],
    [
      138.5359418,
      -34.7258847
    ],
    [
      138.5356982,
      -34.7247469
    ],
    [
      138.5369912,
      -34.7226272
    ],
    [
      138.5436271,
      -34.7210903
    ],
    [
      138.5422308,
      -34.7194308
    ],
    [
      138.5428925,
      -34.7192789
    ],
    [
      138.5429761,
      -34.7191421
    ],
    [
      138.5402309,
      -34.715818
    ],
    [
      138.5402287,
      -34.7158154
    ],
    [
      138.5399894,
      -34.7155646
    ],
    [
      138.5399872,
      -34.7155621
    ],
    [
      138.5354592,
      -34.709929
    ],
    [
      138.5320183,
      -34.6999299
    ],
    [
      138.5320175,
      -34.6999275
    ],
    [
      138.530378,
      -34.6949515
    ],
    [
      138.5286776,
      -34.6899325
    ],
    [
      138.5286759,
      -34.6899273
    ],
    [
      138.5286481,
      -34.689845
    ],
    [
      138.5408869,
      -34.6870125
    ],
    [
      138.5530311,
      -34.6842095
    ],
    [
      138.5540631,
      -34.6839562
    ],
    [
      138.552978,
      -34.6819464
    ],
    [
      138.5509939,
      -34.6791767
    ],
    [
      138.5492863,
      -34.6741484
    ],
    [
      138.5473994,
      -34.6684762
    ],
    [
      138.5456596,
      -34.6627302
    ],
    [
      138.543152,
      -34.654597
    ],
    [
      138.5399394,
      -34.6502079
    ],
    [
      138.5361367,
      -34.646427
    ],
    [
      138.5361343,
      -34.6464246
    ],
    [
      138.5338076,
      -34.6440273
    ],
    [
      138.5313951,
      -34.6394939
    ],
    [
      138.5310857,
      -34.6396755
    ],
    [
      138.5308338,
      -34.6399525
    ],
    [
      138.5304289,
      -34.6402116
    ],
    [
      138.5299318,
      -34.6408295
    ],
    [
      138.5297799,
      -34.6412218
    ],
    [
      138.5296422,
      -34.6413667
    ],
    [
      138.5294668,
      -34.641426
    ],
    [
      138.5292897,
      -34.6413541
    ],
    [
      138.5291236,
      -34.6412047
    ],
    [
      138.5285334,
      -34.640842
    ],
    [
      138.5279215,
      -34.6407922
    ],
    [
      138.5277089,
      -34.6406984
    ],
    [
      138.5271648,
      -34.6401146
    ],
    [
      138.5268144,
      -34.6400497
    ],
    [
      138.526352,
      -34.6398828
    ],
    [
      138.5263591,
      -34.639624
    ],
    [
      138.5267578,
      -34.6388178
    ],
    [
      138.5267441,
      -34.6384629
    ],
    [
      138.5265612,
      -34.6382762
    ],
    [
      138.5263686,
      -34.638274
    ],
    [
      138.5260443,
      -34.6381857
    ],
    [
      138.5258084,
      -34.6380822
    ],
    [
      138.5256498,
      -34.6379476
    ],
    [
      138.5257314,
      -34.637421
    ],
    [
      138.5257382,
      -34.6372355
    ],
    [
      138.5256861,
      -34.637139
    ],
    [
      138.5252403,
      -34.6369284
    ],
    [
      138.5249381,
      -34.6368665
    ],
    [
      138.5244363,
      -34.6366601
    ],
    [
      138.5242968,
      -34.636644
    ],
    [
      138.5241145,
      -34.6368057
    ],
    [
      138.5238335,
      -34.6373921
    ],
    [
      138.5236791,
      -34.6374615
    ],
    [
      138.5233102,
      -34.6374845
    ],
    [
      138.5229055,
      -34.6376381
    ],
    [
      138.5225106,
      -34.637718
    ],
    [
      138.522243,
      -34.6377053
    ],
    [
      138.5219858,
      -34.6375957
    ],
    [
      138.5214261,
      -34.6370507
    ],
    [
      138.5211506,
      -34.6369198
    ],
    [
      138.5207046,
      -34.636926
    ],
    [
      138.5201372,
      -34.6370983
    ],
    [
      138.5200011,
      -34.6372777
    ],
    [
      138.519952,
      -34.637483
    ],
    [
      138.5198789,
      -34.6375515
    ],
    [
      138.5196932,
      -34.6375988
    ],
    [
      138.5195422,
      -34.6377372
    ],
    [
      138.5195224,
      -34.6378277
    ],
    [
      138.5197295,
      -34.6381218
    ],
    [
      138.5197525,
      -34.6383122
    ],
    [
      138.5192734,
      -34.6389519
    ],
    [
      138.5189645,
      -34.6394709
    ],
    [
      138.5188119,
      -34.6396454
    ],
    [
      138.5186874,
      -34.6396945
    ],
    [
      138.5184685,
      -34.639635
    ],
    [
      138.5177499,
      -34.63905
    ],
    [
      138.5172076,
      -34.6387505
    ],
    [
      138.5169636,
      -34.6387087
    ],
    [
      138.5169088,
      -34.6387942
    ],
    [
      138.5167407,
      -34.6390853
    ],
    [
      138.516384,
      -34.6393724
    ],
    [
      138.5158106,
      -34.6395903
    ],
    [
      138.5155443,
      -34.6397446
    ],
    [
      138.5151403,
      -34.6398701
    ],
    [
      138.5147738,
      -34.64007
    ],
    [
      138.5146593,
      -34.6404938
    ],
    [
      138.5144459,
      -34.6408098
    ],
    [
      138.514221,
      -34.6412943
    ],
    [
      138.5139271,
      -34.6414871
    ],
    [
      138.513639,
      -34.6415143
    ],
    [
      138.5131034,
      -34.6413911
    ],
    [
      138.5127439,
      -34.6412357
    ],
    [
      138.5123943,
      -34.6409442
    ],
    [
      138.5122839,
      -34.6409022
    ],
    [
      138.5118542,
      -34.6408999
    ],
    [
      138.5110477,
      -34.6410484
    ],
    [
      138.5109226,
      -34.6410788
    ],
    [
      138.510712,
      -34.641234
    ],
    [
      138.5104851,
      -34.6417186
    ],
    [
      138.510202,
      -34.6420122
    ],
    [
      138.5100564,
      -34.6424189
    ],
    [
      138.5099303,
      -34.6425782
    ],
    [
      138.5097627,
      -34.6426827
    ],
    [
      138.5096686,
      -34.6427161
    ],
    [
      138.5095521,
      -34.6426943
    ],
    [
      138.5092124,
      -34.6424774
    ],
    [
      138.5089671,
      -34.6424689
    ],
    [
      138.508055,
      -34.6426712
    ],
    [
      138.5079984,
      -34.6427317
    ],
    [
      138.5079855,
      -34.6431084
    ],
    [
      138.5079248,
      -34.6432027
    ],
    [
      138.5077343,
      -34.6432846
    ],
    [
      138.507534,
      -34.6433065
    ],
    [
      138.5070695,
      -34.6435626
    ],
    [
      138.5070051,
      -34.6436375
    ],
    [
      138.5070255,
      -34.6437802
    ],
    [
      138.5073838,
      -34.6438939
    ],
    [
      138.5076199,
      -34.6441131
    ],
    [
      138.5076449,
      -34.6442624
    ],
    [
      138.5075656,
      -34.6444255
    ],
    [
      138.5073728,
      -34.6445137
    ],
    [
      138.5068801,
      -34.6445583
    ],
    [
      138.5066519,
      -34.6446535
    ],
    [
      138.5062695,
      -34.6448664
    ],
    [
      138.505719,
      -34.6453525
    ],
    [
      138.5054813,
      -34.6454017
    ],
    [
      138.5053899,
      -34.6452493
    ],
    [
      138.5055186,
      -34.6448489
    ],
    [
      138.5054974,
      -34.6447708
    ],
    [
      138.5053415,
      -34.644706
    ],
    [
      138.5052332,
      -34.6447342
    ],
    [
      138.505055,
      -34.6448464
    ],
    [
      138.504842,
      -34.6451419
    ],
    [
      138.504296,
      -34.6457104
    ],
    [
      138.503826,
      -34.6461053
    ],
    [
      138.5036312,
      -34.6463957
    ],
    [
      138.5033975,
      -34.6465013
    ],
    [
      138.5026174,
      -34.6464106
    ],
    [
      138.5017572,
      -34.6464573
    ],
    [
      138.5016189,
      -34.6464971
    ],
    [
      138.5010794,
      -34.646818
    ],
    [
      138.5006496,
      -34.6468726
    ],
    [
      138.5003109,
      -34.6471294
    ],
    [
      138.4997918,
      -34.6472752
    ],
    [
      138.498947,
      -34.6473021
    ],
    [
      138.4982992,
      -34.6470899
    ],
    [
      138.49778,
      -34.647024
    ],
    [
      138.4967181,
      -34.6471174
    ],
    [
      138.4959988,
      -34.6474654
    ],
    [
      138.4957712,
      -34.6474941
    ],
    [
      138.4954572,
      -34.6473946
    ],
    [
      138.4945458,
      -34.6467635
    ],
    [
      138.4943672,
      -34.6467561
    ],
    [
      138.4919452,
      -34.6474483
    ],
    [
      138.4917456,
      -34.6476122
    ],
    [
      138.4917392,
      -34.6479239
    ],
    [
      138.4920823,
      -34.6485677
    ],
    [
      138.4922053,
      -34.6493346
    ],
    [
      138.4920994,
      -34.6497656
    ],
    [
      138.492235,
      -34.6503469
    ],
    [
      138.4923505,
      -34.6512738
    ],
    [
      138.4920129,
      -34.6516342
    ],
    [
      138.4917195,
      -34.6521054
    ],
    [
      138.4914805,
      -34.6523162
    ],
    [
      138.4906869,
      -34.652718
    ],
    [
      138.489971,
      -34.6533375
    ],
    [
      138.4897875,
      -34.6537763
    ],
    [
      138.4898164,
      -34.6546461
    ],
    [
      138.4898719,
      -34.6548795
    ],
    [
      138.4902196,
      -34.6552225
    ],
    [
      138.4905445,
      -34.6560357
    ],
    [
      138.4905146,
      -34.6562012
    ],
    [
      138.4902681,
      -34.6565449
    ],
    [
      138.4899044,
      -34.6572354
    ],
    [
      138.4892912,
      -34.6575049
    ],
    [
      138.488776,
      -34.6581386
    ],
    [
      138.4886915,
      -34.6584618
    ],
    [
      138.4882153,
      -34.6591769
    ],
    [
      138.4878119,
      -34.6600047
    ],
    [
      138.4870178,
      -34.6606294
    ],
    [
      138.4868,
      -34.6609716
    ],
    [
      138.4867099,
      -34.6612064
    ],
    [
      138.486733,
      -34.6622648
    ],
    [
      138.4867623,
      -34.662582
    ],
    [
      138.4871114,
      -34.6631462
    ],
    [
      138.4871657,
      -34.663344
    ],
    [
      138.487073,
      -34.6636672
    ],
    [
      138.4870676,
      -34.6639418
    ],
    [
      138.4866403,
      -34.6650944
    ],
    [
      138.4859926,
      -34.6655514
    ],
    [
      138.4857239,
      -34.6655659
    ],
    [
      138.4850987,
      -34.6658357
    ],
    [
      138.4846944,
      -34.6660102
    ],
    [
      138.4840359,
      -34.6661797
    ],
    [
      138.4832824,
      -34.6662102
    ],
    [
      138.4825345,
      -34.6661046
    ],
    [
      138.4816059,
      -34.6658123
    ],
    [
      138.4809414,
      -34.6657559
    ],
    [
      138.4803509,
      -34.6656472
    ],
    [
      138.4800991,
      -34.6656345
    ],
    [
      138.4797335,
      -34.6657376
    ],
    [
      138.4794124,
      -34.665746
    ],
    [
      138.4785581,
      -34.6653132
    ],
    [
      138.4776291,
      -34.6649391
    ],
    [
      138.4767327,
      -34.66437
    ],
    [
      138.4762669,
      -34.6642267
    ],
    [
      138.4755202,
      -34.6642588
    ],
    [
      138.473881,
      -34.6645896
    ],
    [
      138.4731497,
      -34.6649765
    ],
    [
      138.4728494,
      -34.6653471
    ],
    [
      138.4727695,
      -34.6655121
    ],
    [
      138.4727386,
      -34.6659097
    ],
    [
      138.4725625,
      -34.6661832
    ],
    [
      138.4724354,
      -34.6665028
    ],
    [
      138.4723397,
      -34.6669768
    ],
    [
      138.4721538,
      -34.667203
    ],
    [
      138.4718195,
      -34.6674408
    ],
    [
      138.471432,
      -34.6676287
    ],
    [
      138.4701441,
      -34.6681307
    ],
    [
      138.4689909,
      -34.6687283
    ],
    [
      138.4685664,
      -34.6689907
    ],
    [
      138.4675751,
      -34.669807
    ],
    [
      138.4672519,
      -34.6701642
    ],
    [
      138.4670025,
      -34.6705982
    ],
    [
      138.4668454,
      -34.6710401
    ],
    [
      138.4668067,
      -34.6718223
    ],
    [
      138.4667919,
      -34.6718682
    ],
    [
      138.466747,
      -34.6720071
    ],
    [
      138.4659027,
      -34.6726363
    ],
    [
      138.4652934,
      -34.6729777
    ],
    [
      138.4648303,
      -34.6731162
    ],
    [
      138.4644285,
      -34.6733585
    ],
    [
      138.4640219,
      -34.6734517
    ],
    [
      138.463159,
      -34.6735249
    ],
    [
      138.4619963,
      -34.6735007
    ],
    [
      138.4609151,
      -34.6733941
    ],
    [
      138.4604629,
      -34.6734378
    ],
    [
      138.4600555,
      -34.6735973
    ],
    [
      138.4596797,
      -34.6738632
    ],
    [
      138.4595493,
      -34.6740032
    ],
    [
      138.4591811,
      -34.6743987
    ],
    [
      138.4589007,
      -34.674505
    ],
    [
      138.4584722,
      -34.6745867
    ],
    [
      138.4577142,
      -34.6746681
    ],
    [
      138.4562776,
      -34.6756189
    ],
    [
      138.4535779,
      -34.6763086
    ],
    [
      138.4525526,
      -34.6762835
    ],
    [
      138.4514741,
      -34.6761175
    ],
    [
      138.4509026,
      -34.6758846
    ],
    [
      138.4499478,
      -34.6753481
    ],
    [
      138.4492314,
      -34.6747754
    ],
    [
      138.4487276,
      -34.6745376
    ],
    [
      138.447081,
      -34.6740162
    ],
    [
      138.4464945,
      -34.6737525
    ],
    [
      138.4461637,
      -34.6734529
    ],
    [
      138.4456713,
      -34.6727375
    ],
    [
      138.4453331,
      -34.6714519
    ],
    [
      138.4450086,
      -34.6707467
    ],
    [
      138.4448487,
      -34.6705978
    ],
    [
      138.4444972,
      -34.6704043
    ],
    [
      138.4440179,
      -34.6703271
    ],
    [
      138.4431735,
      -34.6703301
    ],
    [
      138.4426046,
      -34.6702685
    ],
    [
      138.4418774,
      -34.6701193
    ],
    [
      138.4403811,
      -34.6696349
    ],
    [
      138.439824,
      -34.6694958
    ],
    [
      138.4391846,
      -34.6695397
    ],
    [
      138.438722,
      -34.6697169
    ],
    [
      138.438174,
      -34.6701727
    ],
    [
      138.4367744,
      -34.6715399
    ],
    [
      138.4281386,
      -34.680827
    ]
  ]
]