[
  [
    [
      138.4766444,
      -34.7839941
    ],
    [
      138.4767847,
      -34.7840292
    ],
    [
      138.4770936,
      -34.784116
    ],
    [
      138.4775266,
      -34.7843164
    ],
    [
      138.4782067,
      -34.7847783
    ],
    [
      138.479359,
      -34.7857348
    ],
    [
      138.4804342,
      -34.786774
    ],
    [
      138.4813633,
      -34.7876575
    ],
    [
      138.4822737,
      -34.7888269
    ],
    [
      138.4827975,
      -34.7895
    ],
    [
      138.4833336,
      -34.7902034
    ],
    [
      138.4843892,
      -34.7920697
    ],
    [
      138.4817034,
      -34.7956618
    ],
    [
      138.4816789,
      -34.7957213
    ],
    [
      138.4817104,
      -34.7957635
    ],
    [
      138.48244,
      -34.7959724
    ],
    [
      138.4830541,
      -34.796103
    ],
    [
      138.4834328,
      -34.7961364
    ],
    [
      138.4840478,
      -34.7968888
    ],
    [
      138.4916981,
      -34.7968799
    ],
    [
      138.4916286,
      -34.7962904
    ],
    [
      138.4992335,
      -34.7963286
    ],
    [
      138.4992481,
      -34.7943905
    ],
    [
      138.4987991,
      -34.7943909
    ],
    [
      138.4988096,
      -34.7935489
    ],
    [
      138.5014651,
      -34.7935357
    ],
    [
      138.501439,
      -34.7877823
    ],
    [
      138.5015223,
      -34.7850006
    ],
    [
      138.5013827,
      -34.7847584
    ],
    [
      138.5013585,
      -34.7843833
    ],
    [
      138.500261,
      -34.7827331
    ],
    [
      138.4998908,
      -34.7823619
    ],
    [
      138.4990345,
      -34.7816968
    ],
    [
      138.4981844,
      -34.7812155
    ],
    [
      138.4881049,
      -34.7764035
    ],
    [
      138.4874148,
      -34.7762019
    ],
    [
      138.4866963,
      -34.7761913
    ],
    [
      138.4861573,
      -34.7762911
    ],
    [
      138.4856616,
      -34.7764546
    ],
    [
      138.4848549,
      -34.776921
    ],
    [
      138.4832691,
      -34.7791837
    ],
    [
      138.4835568,
      -34.7812627
    ],
    [
      138.4830455,
      -34.7809839
    ],
    [
      138.4816652,
      -34.7804569
    ],
    [
      138.480812,
      -34.7800522
    ],
    [
      138.4806629,
      -34.7799814
    ],
    [
      138.4801854,
      -34.7806985
    ],
    [
      138.4792923,
      -34.781714
    ],
    [
      138.4783417,
      -34.7827103
    ],
    [
      138.4766444,
      -34.7839941
    ]
  ]
]