[
  [
    [
      138.5862887,
      -35.0379885
    ],
    [
      138.5863263,
      -35.0380052
    ],
    [
      138.5865223,
      -35.0381731
    ],
    [
      138.5865786,
      -35.0383414
    ],
    [
      138.5865976,
      -35.0387973
    ],
    [
      138.5867346,
      -35.0392954
    ],
    [
      138.5869198,
      -35.0394702
    ],
    [
      138.5873315,
      -35.0395982
    ],
    [
      138.5873894,
      -35.0396582
    ],
    [
      138.587258,
      -35.0403275
    ],
    [
      138.5872802,
      -35.0404407
    ],
    [
      138.5874232,
      -35.040594
    ],
    [
      138.5879293,
      -35.0408079
    ],
    [
      138.5887282,
      -35.0409667
    ],
    [
      138.588928,
      -35.0410541
    ],
    [
      138.5894086,
      -35.0414961
    ],
    [
      138.5895907,
      -35.041413
    ],
    [
      138.5900262,
      -35.0408996
    ],
    [
      138.5901673,
      -35.0409242
    ],
    [
      138.59033,
      -35.0411118
    ],
    [
      138.5904116,
      -35.041631
    ],
    [
      138.5905176,
      -35.0419253
    ],
    [
      138.5908554,
      -35.0424362
    ],
    [
      138.5910649,
      -35.0424585
    ],
    [
      138.5915481,
      -35.0422322
    ],
    [
      138.5919095,
      -35.0422796
    ],
    [
      138.5921172,
      -35.0424056
    ],
    [
      138.5924276,
      -35.0428835
    ],
    [
      138.5933193,
      -35.0434252
    ],
    [
      138.5942868,
      -35.0442783
    ],
    [
      138.5944024,
      -35.044328
    ],
    [
      138.5947423,
      -35.0443302
    ],
    [
      138.5948999,
      -35.0443797
    ],
    [
      138.5949591,
      -35.0447099
    ],
    [
      138.5949284,
      -35.0451689
    ],
    [
      138.594865,
      -35.0453427
    ],
    [
      138.5946764,
      -35.0455519
    ],
    [
      138.5947009,
      -35.0456684
    ],
    [
      138.5948801,
      -35.0457625
    ],
    [
      138.5951416,
      -35.0457919
    ],
    [
      138.5957433,
      -35.0457282
    ],
    [
      138.596283,
      -35.0456149
    ],
    [
      138.596643,
      -35.045732
    ],
    [
      138.5968363,
      -35.0459433
    ],
    [
      138.5971501,
      -35.0464456
    ],
    [
      138.5974883,
      -35.0472745
    ],
    [
      138.5983513,
      -35.0480477
    ],
    [
      138.5988162,
      -35.048875
    ],
    [
      138.5989941,
      -35.0494926
    ],
    [
      138.5992956,
      -35.0494808
    ],
    [
      138.5996146,
      -35.0493325
    ],
    [
      138.5997956,
      -35.0491513
    ],
    [
      138.5999068,
      -35.0488786
    ],
    [
      138.6000311,
      -35.0488134
    ],
    [
      138.600618,
      -35.0487889
    ],
    [
      138.6010971,
      -35.0488672
    ],
    [
      138.601495,
      -35.0490069
    ],
    [
      138.6020662,
      -35.0490777
    ],
    [
      138.6025082,
      -35.0489936
    ],
    [
      138.6027774,
      -35.048824
    ],
    [
      138.602966,
      -35.0485979
    ],
    [
      138.6033098,
      -35.0477981
    ],
    [
      138.6035133,
      -35.0476568
    ],
    [
      138.6036241,
      -35.0476427
    ],
    [
      138.6044236,
      -35.048121
    ],
    [
      138.6049298,
      -35.0482009
    ],
    [
      138.6054821,
      -35.0485105
    ],
    [
      138.6059919,
      -35.0492212
    ],
    [
      138.6061355,
      -35.0495981
    ],
    [
      138.6063638,
      -35.0498478
    ],
    [
      138.6068236,
      -35.0498343
    ],
    [
      138.6070808,
      -35.0496979
    ],
    [
      138.60751,
      -35.0493755
    ],
    [
      138.6077038,
      -35.0491224
    ],
    [
      138.6080186,
      -35.0490754
    ],
    [
      138.6084358,
      -35.0493929
    ],
    [
      138.608646,
      -35.0497783
    ],
    [
      138.6088003,
      -35.0499382
    ],
    [
      138.60954,
      -35.0505063
    ],
    [
      138.6098094,
      -35.050106
    ],
    [
      138.6100845,
      -35.0498428
    ],
    [
      138.6108261,
      -35.0494481
    ],
    [
      138.6113371,
      -35.0494429
    ],
    [
      138.6114435,
      -35.0492881
    ],
    [
      138.6114549,
      -35.0491612
    ],
    [
      138.6113307,
      -35.0489109
    ],
    [
      138.6109829,
      -35.0485423
    ],
    [
      138.6107114,
      -35.0484046
    ],
    [
      138.610623,
      -35.0480167
    ],
    [
      138.6106692,
      -35.0478546
    ],
    [
      138.6109439,
      -35.0477711
    ],
    [
      138.6115177,
      -35.0477948
    ],
    [
      138.6117626,
      -35.0476967
    ],
    [
      138.6119767,
      -35.047504
    ],
    [
      138.6122934,
      -35.0473104
    ],
    [
      138.6123969,
      -35.047057
    ],
    [
      138.6122338,
      -35.0468737
    ],
    [
      138.6122812,
      -35.0468053
    ],
    [
      138.6124216,
      -35.0467468
    ],
    [
      138.6126586,
      -35.0467074
    ],
    [
      138.6127625,
      -35.0467376
    ],
    [
      138.6129223,
      -35.0468785
    ],
    [
      138.6131804,
      -35.0472638
    ],
    [
      138.6132255,
      -35.0472384
    ],
    [
      138.6138039,
      -35.0473025
    ],
    [
      138.6141215,
      -35.0471807
    ],
    [
      138.6139077,
      -35.0446945
    ],
    [
      138.616888,
      -35.0420166
    ],
    [
      138.6165209,
      -35.0417248
    ],
    [
      138.6171009,
      -35.0412109
    ],
    [
      138.6175411,
      -35.0408362
    ],
    [
      138.6182725,
      -35.0404479
    ],
    [
      138.6187589,
      -35.0400284
    ],
    [
      138.6193648,
      -35.0400072
    ],
    [
      138.619324,
      -35.0389528
    ],
    [
      138.6205705,
      -35.0323395
    ],
    [
      138.6098444,
      -35.0328673
    ],
    [
      138.6099255,
      -35.0339483
    ],
    [
      138.6071134,
      -35.0340947
    ],
    [
      138.6068877,
      -35.0339351
    ],
    [
      138.6037367,
      -35.0340953
    ],
    [
      138.6038961,
      -35.0360368
    ],
    [
      138.6034141,
      -35.0361329
    ],
    [
      138.5961861,
      -35.0375335
    ],
    [
      138.5958952,
      -35.0333682
    ],
    [
      138.5957908,
      -35.0333826
    ],
    [
      138.5951857,
      -35.0334662
    ],
    [
      138.5943079,
      -35.0336998
    ],
    [
      138.5938902,
      -35.0337554
    ],
    [
      138.5933922,
      -35.033709
    ],
    [
      138.5929632,
      -35.0337735
    ],
    [
      138.5925994,
      -35.0338803
    ],
    [
      138.5917022,
      -35.0343918
    ],
    [
      138.591333,
      -35.034494
    ],
    [
      138.5910333,
      -35.0345017
    ],
    [
      138.5908066,
      -35.0346615
    ],
    [
      138.5907401,
      -35.0348518
    ],
    [
      138.5903263,
      -35.0351493
    ],
    [
      138.5902696,
      -35.0353809
    ],
    [
      138.5902889,
      -35.0356688
    ],
    [
      138.5901093,
      -35.0359681
    ],
    [
      138.5888284,
      -35.036849
    ],
    [
      138.5882259,
      -35.0371519
    ],
    [
      138.5875764,
      -35.0373535
    ],
    [
      138.5871625,
      -35.0374308
    ],
    [
      138.586676,
      -35.0375956
    ],
    [
      138.5864329,
      -35.0377505
    ],
    [
      138.5862887,
      -35.0379885
    ]
  ]
]