[
  [
    [
      138.658971,
      -34.9705394
    ],
    [
      138.6589748,
      -34.9705434
    ],
    [
      138.659287,
      -34.9708399
    ],
    [
      138.6609654,
      -34.9724147
    ],
    [
      138.6657458,
      -34.9768927
    ],
    [
      138.6645157,
      -34.9777723
    ],
    [
      138.6659011,
      -34.9789396
    ],
    [
      138.6643874,
      -34.9799768
    ],
    [
      138.6657423,
      -34.981269
    ],
    [
      138.6670082,
      -34.9803714
    ],
    [
      138.6674253,
      -34.9807859
    ],
    [
      138.6699728,
      -34.9789984
    ],
    [
      138.6700506,
      -34.9782239
    ],
    [
      138.6719679,
      -34.976873
    ],
    [
      138.6709337,
      -34.9765638
    ],
    [
      138.6710152,
      -34.9763984
    ],
    [
      138.6712768,
      -34.9764949
    ],
    [
      138.6724506,
      -34.9756622
    ],
    [
      138.6728914,
      -34.9749235
    ],
    [
      138.6731182,
      -34.9747148
    ],
    [
      138.6732634,
      -34.9743937
    ],
    [
      138.6735434,
      -34.9742464
    ],
    [
      138.6739111,
      -34.9742276
    ],
    [
      138.6741656,
      -34.9742751
    ],
    [
      138.6749885,
      -34.9747446
    ],
    [
      138.675369,
      -34.974504
    ],
    [
      138.6778932,
      -34.9754472
    ],
    [
      138.6800929,
      -34.9757292
    ],
    [
      138.6818327,
      -34.9760862
    ],
    [
      138.6817982,
      -34.975887
    ],
    [
      138.6817845,
      -34.9758077
    ],
    [
      138.6813993,
      -34.9754197
    ],
    [
      138.6808286,
      -34.9746488
    ],
    [
      138.6780747,
      -34.9716164
    ],
    [
      138.677209,
      -34.9705403
    ],
    [
      138.6758503,
      -34.9682997
    ],
    [
      138.674559,
      -34.9662861
    ],
    [
      138.6715582,
      -34.962362
    ],
    [
      138.6709093,
      -34.9623911
    ],
    [
      138.6698106,
      -34.9624403
    ],
    [
      138.6697469,
      -34.9624431
    ],
    [
      138.6696105,
      -34.9624486
    ],
    [
      138.669455,
      -34.9624548
    ],
    [
      138.6667739,
      -34.9625729
    ],
    [
      138.6667602,
      -34.9636048
    ],
    [
      138.667109,
      -34.9668241
    ],
    [
      138.6671237,
      -34.96696
    ],
    [
      138.6662209,
      -34.9670162
    ],
    [
      138.6659341,
      -34.9671134
    ],
    [
      138.6650613,
      -34.9678358
    ],
    [
      138.6620885,
      -34.9689332
    ],
    [
      138.6612221,
      -34.9691775
    ],
    [
      138.6605378,
      -34.969479
    ],
    [
      138.6601506,
      -34.9697446
    ],
    [
      138.6598042,
      -34.9699823
    ],
    [
      138.6590248,
      -34.9705169
    ],
    [
      138.658971,
      -34.9705394
    ]
  ]
]