[
  [
    [
      138.6298517,
      -34.907225
    ],
    [
      138.6319216,
      -34.9084181
    ],
    [
      138.6320169,
      -34.9085752
    ],
    [
      138.6328376,
      -34.9081336
    ],
    [
      138.6338623,
      -34.9080909
    ],
    [
      138.6338493,
      -34.9079255
    ],
    [
      138.6337136,
      -34.9076809
    ],
    [
      138.6377293,
      -34.9074829
    ],
    [
      138.639982,
      -34.9073758
    ],
    [
      138.6396901,
      -34.9033287
    ],
    [
      138.6396578,
      -34.902881
    ],
    [
      138.6383002,
      -34.9029489
    ],
    [
      138.6382253,
      -34.902995
    ],
    [
      138.6376761,
      -34.902925
    ],
    [
      138.6352166,
      -34.90305
    ],
    [
      138.6339883,
      -34.9023364
    ],
    [
      138.6329263,
      -34.9035915
    ],
    [
      138.6319769,
      -34.9047136
    ],
    [
      138.630503,
      -34.9064552
    ],
    [
      138.6298517,
      -34.907225
    ]
  ]
]