[
  [
    [
      138.6659504,
      -34.8970703
    ],
    [
      138.6660206,
      -34.897971
    ],
    [
      138.6662079,
      -34.9005158
    ],
    [
      138.6661843,
      -34.9013508
    ],
    [
      138.6663444,
      -34.9037522
    ],
    [
      138.6664531,
      -34.9037375
    ],
    [
      138.6671479,
      -34.9134755
    ],
    [
      138.667233,
      -34.913471
    ],
    [
      138.6672741,
      -34.9139684
    ],
    [
      138.6673378,
      -34.9139645
    ],
    [
      138.6674049,
      -34.9152911
    ],
    [
      138.66745,
      -34.9152888
    ],
    [
      138.6674967,
      -34.9158989
    ],
    [
      138.6673194,
      -34.915909
    ],
    [
      138.6675967,
      -34.9195465
    ],
    [
      138.6676077,
      -34.9196316
    ],
    [
      138.6749251,
      -34.9192675
    ],
    [
      138.6765038,
      -34.9192501
    ],
    [
      138.6809199,
      -34.9190417
    ],
    [
      138.6826728,
      -34.9189301
    ],
    [
      138.6829212,
      -34.9187643
    ],
    [
      138.6831556,
      -34.9185615
    ],
    [
      138.6839777,
      -34.9173942
    ],
    [
      138.6841795,
      -34.9169959
    ],
    [
      138.6842145,
      -34.9168126
    ],
    [
      138.6842687,
      -34.915879
    ],
    [
      138.6843136,
      -34.915522
    ],
    [
      138.6846203,
      -34.9149494
    ],
    [
      138.6848254,
      -34.914689
    ],
    [
      138.6850481,
      -34.9145222
    ],
    [
      138.6852021,
      -34.9143963
    ],
    [
      138.6851737,
      -34.9141871
    ],
    [
      138.6851417,
      -34.9137188
    ],
    [
      138.6850756,
      -34.9129812
    ],
    [
      138.685069,
      -34.912905
    ],
    [
      138.6849639,
      -34.9114347
    ],
    [
      138.684861,
      -34.9099959
    ],
    [
      138.6848598,
      -34.9099238
    ],
    [
      138.6844063,
      -34.9038861
    ],
    [
      138.6842869,
      -34.9022657
    ],
    [
      138.68288,
      -34.9023365
    ],
    [
      138.6752989,
      -34.9027314
    ],
    [
      138.674845,
      -34.896629
    ],
    [
      138.6736437,
      -34.8966845
    ],
    [
      138.6659504,
      -34.8970703
    ]
  ]
]