[
  [
    [
      138.5221089,
      -34.8914721
    ],
    [
      138.5222022,
      -34.8928078
    ],
    [
      138.5221119,
      -34.8943246
    ],
    [
      138.522204,
      -34.8956101
    ],
    [
      138.5228299,
      -34.8955805
    ],
    [
      138.5228868,
      -34.8964046
    ],
    [
      138.5230522,
      -34.8965648
    ],
    [
      138.5233409,
      -34.9005082
    ],
    [
      138.5232135,
      -34.90051
    ],
    [
      138.5232273,
      -34.9008003
    ],
    [
      138.5235919,
      -34.9059478
    ],
    [
      138.5325609,
      -34.9054879
    ],
    [
      138.5477271,
      -34.904711
    ],
    [
      138.5476106,
      -34.9031445
    ],
    [
      138.5415994,
      -34.8991987
    ],
    [
      138.5415864,
      -34.89919
    ],
    [
      138.535706,
      -34.8952587
    ],
    [
      138.5357521,
      -34.8951973
    ],
    [
      138.5335078,
      -34.8937075
    ],
    [
      138.5332115,
      -34.8936061
    ],
    [
      138.5327861,
      -34.8936213
    ],
    [
      138.5328032,
      -34.8939041
    ],
    [
      138.5326113,
      -34.8941173
    ],
    [
      138.5320436,
      -34.893745
    ],
    [
      138.5317501,
      -34.8937566
    ],
    [
      138.5315383,
      -34.8910058
    ],
    [
      138.5308883,
      -34.8910375
    ],
    [
      138.5225477,
      -34.8914518
    ],
    [
      138.5221089,
      -34.8914721
    ]
  ]
]