[
  [
    [
      138.6502868,
      -34.92647
    ],
    [
      138.6503087,
      -34.9267509
    ],
    [
      138.6503102,
      -34.9267699
    ],
    [
      138.650317,
      -34.926858
    ],
    [
      138.6505271,
      -34.9295321
    ],
    [
      138.6505277,
      -34.9295357
    ],
    [
      138.6505362,
      -34.929591
    ],
    [
      138.6507686,
      -34.9325769
    ],
    [
      138.6526842,
      -34.9325079
    ],
    [
      138.6527636,
      -34.9335055
    ],
    [
      138.6527705,
      -34.9335949
    ],
    [
      138.6561871,
      -34.9334195
    ],
    [
      138.6565018,
      -34.9331587
    ],
    [
      138.6582388,
      -34.9330744
    ],
    [
      138.6597631,
      -34.9329987
    ],
    [
      138.6597318,
      -34.9325908
    ],
    [
      138.6597037,
      -34.9322245
    ],
    [
      138.6596365,
      -34.9313491
    ],
    [
      138.6592268,
      -34.9260074
    ],
    [
      138.6585156,
      -34.926067
    ],
    [
      138.6502868,
      -34.92647
    ]
  ]
]