[
  [
    [
      138.7002049,
      -34.8064725
    ],
    [
      138.7175235,
      -34.8056311
    ],
    [
      138.7175379,
      -34.8056303
    ],
    [
      138.7168586,
      -34.796127
    ],
    [
      138.7167768,
      -34.7950823
    ],
    [
      138.7167074,
      -34.7940624
    ],
    [
      138.7165055,
      -34.7910963
    ],
    [
      138.7161246,
      -34.7871151
    ],
    [
      138.7157448,
      -34.7875428
    ],
    [
      138.7154626,
      -34.7878664
    ],
    [
      138.7154107,
      -34.7879182
    ],
    [
      138.7151485,
      -34.7882124
    ],
    [
      138.7150871,
      -34.7882813
    ],
    [
      138.7134588,
      -34.7901143
    ],
    [
      138.7101761,
      -34.7935513
    ],
    [
      138.7092235,
      -34.7947045
    ],
    [
      138.7089602,
      -34.7951608
    ],
    [
      138.7088673,
      -34.7954923
    ],
    [
      138.7084343,
      -34.7959098
    ],
    [
      138.7081467,
      -34.796633
    ],
    [
      138.707678,
      -34.7973873
    ],
    [
      138.7054977,
      -34.8009543
    ],
    [
      138.7046367,
      -34.8024032
    ],
    [
      138.704005,
      -34.8030706
    ],
    [
      138.7029376,
      -34.8040247
    ],
    [
      138.7025941,
      -34.8043387
    ],
    [
      138.7021183,
      -34.8047637
    ],
    [
      138.7002059,
      -34.8064716
    ],
    [
      138.7002049,
      -34.8064725
    ]
  ]
]