[
  [
    [
      138.6592268,
      -34.9260074
    ],
    [
      138.6596365,
      -34.9313491
    ],
    [
      138.6597037,
      -34.9322245
    ],
    [
      138.6614442,
      -34.9321368
    ],
    [
      138.661438,
      -34.9320588
    ],
    [
      138.6643028,
      -34.9319138
    ],
    [
      138.6643101,
      -34.9320014
    ],
    [
      138.6666792,
      -34.9318868
    ],
    [
      138.6667444,
      -34.9319699
    ],
    [
      138.6684563,
      -34.9318862
    ],
    [
      138.6685276,
      -34.9318815
    ],
    [
      138.6685044,
      -34.9317039
    ],
    [
      138.6682881,
      -34.9288966
    ],
    [
      138.6682276,
      -34.92807
    ],
    [
      138.6680425,
      -34.9255739
    ],
    [
      138.6592423,
      -34.9260067
    ],
    [
      138.6592268,
      -34.9260074
    ]
  ]
]