[
  [
    [
      138.5822221,
      -34.9041687
    ],
    [
      138.5878336,
      -34.8992756
    ],
    [
      138.5879223,
      -34.8991982
    ],
    [
      138.5878196,
      -34.8991358
    ],
    [
      138.5878123,
      -34.8990416
    ],
    [
      138.5875412,
      -34.8955432
    ],
    [
      138.5868749,
      -34.8955748
    ],
    [
      138.5855709,
      -34.8956044
    ],
    [
      138.5854465,
      -34.893817
    ],
    [
      138.5839876,
      -34.8938809
    ],
    [
      138.5842215,
      -34.8955848
    ],
    [
      138.5842682,
      -34.8969791
    ],
    [
      138.5823184,
      -34.903835
    ],
    [
      138.5822221,
      -34.9041687
    ]
  ]
]