[
  [
    [
      138.7310496,
      -34.5924075
    ],
    [
      138.731214,
      -34.592643
    ],
    [
      138.7326546,
      -34.5945607
    ],
    [
      138.7348141,
      -34.5974551
    ],
    [
      138.7364769,
      -34.5996717
    ],
    [
      138.7365467,
      -34.5997601
    ],
    [
      138.7368132,
      -34.5988427
    ],
    [
      138.7368437,
      -34.5984726
    ],
    [
      138.7369183,
      -34.5983237
    ],
    [
      138.7371501,
      -34.5981017
    ],
    [
      138.7371688,
      -34.5980934
    ],
    [
      138.7371074,
      -34.5979306
    ],
    [
      138.7368718,
      -34.5976287
    ],
    [
      138.7368689,
      -34.5975337
    ],
    [
      138.7371286,
      -34.5972435
    ],
    [
      138.7373805,
      -34.5970902
    ],
    [
      138.7375157,
      -34.5969128
    ],
    [
      138.7375385,
      -34.5967864
    ],
    [
      138.7372243,
      -34.5961794
    ],
    [
      138.7369314,
      -34.59584
    ],
    [
      138.7368843,
      -34.5957072
    ],
    [
      138.7369337,
      -34.5956001
    ],
    [
      138.7371395,
      -34.595438
    ],
    [
      138.7372551,
      -34.5951762
    ],
    [
      138.7373685,
      -34.5950513
    ],
    [
      138.7377656,
      -34.5947729
    ],
    [
      138.7379199,
      -34.5947246
    ],
    [
      138.7380927,
      -34.5947649
    ],
    [
      138.7392761,
      -34.5952769
    ],
    [
      138.7396122,
      -34.5952669
    ],
    [
      138.739786,
      -34.5951072
    ],
    [
      138.7398739,
      -34.5949492
    ],
    [
      138.7399337,
      -34.5947593
    ],
    [
      138.7399278,
      -34.5943244
    ],
    [
      138.7400208,
      -34.5941819
    ],
    [
      138.7402725,
      -34.5941329
    ],
    [
      138.7404474,
      -34.5941526
    ],
    [
      138.7410169,
      -34.5943418
    ],
    [
      138.7412851,
      -34.5942282
    ],
    [
      138.7417512,
      -34.5938979
    ],
    [
      138.7420083,
      -34.5938639
    ],
    [
      138.7424161,
      -34.5939086
    ],
    [
      138.7428126,
      -34.5937528
    ],
    [
      138.7429331,
      -34.5936194
    ],
    [
      138.7429436,
      -34.5935366
    ],
    [
      138.7420939,
      -34.5929185
    ],
    [
      138.7420834,
      -34.5926091
    ],
    [
      138.7422578,
      -34.5924728
    ],
    [
      138.7426414,
      -34.5923284
    ],
    [
      138.7433324,
      -34.5924155
    ],
    [
      138.743478,
      -34.5925979
    ],
    [
      138.7436454,
      -34.5926597
    ],
    [
      138.7437975,
      -34.5926579
    ],
    [
      138.7440464,
      -34.5925813
    ],
    [
      138.7441373,
      -34.5924984
    ],
    [
      138.744209,
      -34.592281
    ],
    [
      138.7439113,
      -34.591574
    ],
    [
      138.743956,
      -34.5914357
    ],
    [
      138.7443288,
      -34.5912691
    ],
    [
      138.7454635,
      -34.5904595
    ],
    [
      138.7459646,
      -34.5904082
    ],
    [
      138.7461984,
      -34.5905909
    ],
    [
      138.7464362,
      -34.5909594
    ],
    [
      138.7467607,
      -34.5918683
    ],
    [
      138.7471295,
      -34.592586
    ],
    [
      138.7472689,
      -34.5926378
    ],
    [
      138.7474911,
      -34.5926179
    ],
    [
      138.7481731,
      -34.5921277
    ],
    [
      138.7482965,
      -34.5920658
    ],
    [
      138.7484483,
      -34.5920692
    ],
    [
      138.7487839,
      -34.5922112
    ],
    [
      138.7493272,
      -34.5927662
    ],
    [
      138.7494121,
      -34.5929305
    ],
    [
      138.7495028,
      -34.5931062
    ],
    [
      138.7495657,
      -34.5931636
    ],
    [
      138.7499814,
      -34.5932041
    ],
    [
      138.7501736,
      -34.5931294
    ],
    [
      138.7504022,
      -34.5929344
    ],
    [
      138.7505155,
      -34.5925853
    ],
    [
      138.7507329,
      -34.5921952
    ],
    [
      138.7515283,
      -34.5912949
    ],
    [
      138.7518434,
      -34.5915607
    ],
    [
      138.7524415,
      -34.5909647
    ],
    [
      138.7528055,
      -34.5907071
    ],
    [
      138.7533694,
      -34.5904205
    ],
    [
      138.7542334,
      -34.5901735
    ],
    [
      138.7548982,
      -34.5900935
    ],
    [
      138.7554419,
      -34.5901228
    ],
    [
      138.7554492,
      -34.5900127
    ],
    [
      138.7555723,
      -34.5881611
    ],
    [
      138.7547786,
      -34.5876921
    ],
    [
      138.7540001,
      -34.5874247
    ],
    [
      138.7536173,
      -34.5874253
    ],
    [
      138.7526441,
      -34.5877386
    ],
    [
      138.7516509,
      -34.5878064
    ],
    [
      138.751019,
      -34.5877351
    ],
    [
      138.7503177,
      -34.5873607
    ],
    [
      138.749957,
      -34.5874594
    ],
    [
      138.7492718,
      -34.5873117
    ],
    [
      138.7483255,
      -34.5871033
    ],
    [
      138.7474222,
      -34.5794438
    ],
    [
      138.7465871,
      -34.5730739
    ],
    [
      138.7464965,
      -34.572242
    ],
    [
      138.7464833,
      -34.5716497
    ],
    [
      138.7464358,
      -34.5716931
    ],
    [
      138.7440932,
      -34.5738324
    ],
    [
      138.7416654,
      -34.5758342
    ],
    [
      138.7415821,
      -34.575904
    ],
    [
      138.7390915,
      -34.5779909
    ],
    [
      138.7370489,
      -34.5797728
    ],
    [
      138.7352404,
      -34.5812266
    ],
    [
      138.7338005,
      -34.5824112
    ],
    [
      138.732119,
      -34.5838269
    ],
    [
      138.7314753,
      -34.5858755
    ],
    [
      138.7311832,
      -34.5875577
    ],
    [
      138.7310746,
      -34.5890214
    ],
    [
      138.7312774,
      -34.5906285
    ],
    [
      138.7313972,
      -34.5914507
    ],
    [
      138.7311117,
      -34.5922367
    ],
    [
      138.7310496,
      -34.5924075
    ]
  ]
]