[
  [
    [
      138.5350691,
      -34.7709787
    ],
    [
      138.5354326,
      -34.7713659
    ],
    [
      138.5356857,
      -34.7717246
    ],
    [
      138.535959,
      -34.7723894
    ],
    [
      138.536104,
      -34.7729687
    ],
    [
      138.5363686,
      -34.7732254
    ],
    [
      138.5363436,
      -34.7736431
    ],
    [
      138.5364111,
      -34.7737998
    ],
    [
      138.5363821,
      -34.7739394
    ],
    [
      138.5365085,
      -34.7741456
    ],
    [
      138.5364405,
      -34.7743197
    ],
    [
      138.536483,
      -34.7744495
    ],
    [
      138.5367123,
      -34.7747183
    ],
    [
      138.5371446,
      -34.7750029
    ],
    [
      138.5373384,
      -34.7749967
    ],
    [
      138.5377103,
      -34.7755589
    ],
    [
      138.5378351,
      -34.7756271
    ],
    [
      138.5380464,
      -34.7756576
    ],
    [
      138.5381581,
      -34.775909
    ],
    [
      138.5383051,
      -34.7759978
    ],
    [
      138.5388423,
      -34.7765073
    ],
    [
      138.5391697,
      -34.7766735
    ],
    [
      138.539416,
      -34.7767069
    ],
    [
      138.539629,
      -34.7768049
    ],
    [
      138.5400068,
      -34.7772593
    ],
    [
      138.5403883,
      -34.7775855
    ],
    [
      138.5407868,
      -34.7780513
    ],
    [
      138.5410582,
      -34.778469
    ],
    [
      138.5410463,
      -34.7787345
    ],
    [
      138.5410979,
      -34.7788476
    ],
    [
      138.5414718,
      -34.7792852
    ],
    [
      138.5416999,
      -34.7794239
    ],
    [
      138.5417885,
      -34.7797799
    ],
    [
      138.5420679,
      -34.7799776
    ],
    [
      138.5421616,
      -34.7801022
    ],
    [
      138.5423111,
      -34.7803572
    ],
    [
      138.5423528,
      -34.780532
    ],
    [
      138.5425602,
      -34.7807985
    ],
    [
      138.5429997,
      -34.7815839
    ],
    [
      138.5436796,
      -34.7826248
    ],
    [
      138.5437444,
      -34.7828083
    ],
    [
      138.5442233,
      -34.7833889
    ],
    [
      138.5442169,
      -34.7834935
    ],
    [
      138.5440307,
      -34.7834317
    ],
    [
      138.5439793,
      -34.7834594
    ],
    [
      138.5441764,
      -34.7837437
    ],
    [
      138.5452392,
      -34.7845546
    ],
    [
      138.5458372,
      -34.7852648
    ],
    [
      138.5460765,
      -34.7853911
    ],
    [
      138.5466296,
      -34.7853204
    ],
    [
      138.5470831,
      -34.7851654
    ],
    [
      138.5473143,
      -34.7849429
    ],
    [
      138.5474049,
      -34.7847523
    ],
    [
      138.5474829,
      -34.784889
    ],
    [
      138.5478235,
      -34.7849631
    ],
    [
      138.5473389,
      -34.785265
    ],
    [
      138.5467321,
      -34.7855372
    ],
    [
      138.546268,
      -34.7856112
    ],
    [
      138.5458728,
      -34.7856069
    ],
    [
      138.5456568,
      -34.7855173
    ],
    [
      138.5455137,
      -34.7853855
    ],
    [
      138.5451795,
      -34.7847349
    ],
    [
      138.5447538,
      -34.784398
    ],
    [
      138.5444968,
      -34.78432
    ],
    [
      138.5445151,
      -34.7844168
    ],
    [
      138.5448813,
      -34.7849033
    ],
    [
      138.5448547,
      -34.7854855
    ],
    [
      138.5450621,
      -34.7859543
    ],
    [
      138.5566337,
      -34.7861486
    ],
    [
      138.5722878,
      -34.7861685
    ],
    [
      138.5753074,
      -34.7880103
    ],
    [
      138.5754022,
      -34.7879705
    ],
    [
      138.5756833,
      -34.7878483
    ],
    [
      138.5757791,
      -34.7878241
    ],
    [
      138.5758671,
      -34.7880746
    ],
    [
      138.5760611,
      -34.788051
    ],
    [
      138.576092,
      -34.7879476
    ],
    [
      138.5759849,
      -34.7877059
    ],
    [
      138.5762063,
      -34.7876712
    ],
    [
      138.5761999,
      -34.7874639
    ],
    [
      138.576333,
      -34.7875458
    ],
    [
      138.5765056,
      -34.7874679
    ],
    [
      138.5764,
      -34.787375
    ],
    [
      138.5764688,
      -34.7873033
    ],
    [
      138.576594,
      -34.7873468
    ],
    [
      138.5766876,
      -34.787255
    ],
    [
      138.5765351,
      -34.7872113
    ],
    [
      138.5765339,
      -34.7870334
    ],
    [
      138.5766488,
      -34.7870093
    ],
    [
      138.5767079,
      -34.7871222
    ],
    [
      138.5767959,
      -34.7870417
    ],
    [
      138.5767506,
      -34.7869175
    ],
    [
      138.5768543,
      -34.7869249
    ],
    [
      138.5769718,
      -34.786912
    ],
    [
      138.5770394,
      -34.7869868
    ],
    [
      138.5777872,
      -34.7867005
    ],
    [
      138.5784749,
      -34.7860896
    ],
    [
      138.5786342,
      -34.7858388
    ],
    [
      138.5789425,
      -34.7853535
    ],
    [
      138.5797231,
      -34.7847386
    ],
    [
      138.5805267,
      -34.7843017
    ],
    [
      138.5811045,
      -34.7841304
    ],
    [
      138.5815995,
      -34.7839836
    ],
    [
      138.5821451,
      -34.7837187
    ],
    [
      138.5831318,
      -34.7832559
    ],
    [
      138.5841001,
      -34.7827163
    ],
    [
      138.5852326,
      -34.7821124
    ],
    [
      138.5857445,
      -34.7816198
    ],
    [
      138.5861907,
      -34.7814782
    ],
    [
      138.5867011,
      -34.7814901
    ],
    [
      138.5872875,
      -34.7815543
    ],
    [
      138.5876483,
      -34.7815045
    ],
    [
      138.5879864,
      -34.781556
    ],
    [
      138.5883254,
      -34.7814994
    ],
    [
      138.5886096,
      -34.7814824
    ],
    [
      138.5889809,
      -34.7814603
    ],
    [
      138.5892164,
      -34.781367
    ],
    [
      138.5894837,
      -34.7813979
    ],
    [
      138.5899305,
      -34.7815063
    ],
    [
      138.5902238,
      -34.7813705
    ],
    [
      138.5905953,
      -34.7813411
    ],
    [
      138.5907248,
      -34.7811977
    ],
    [
      138.5911688,
      -34.7809952
    ],
    [
      138.5911784,
      -34.7808218
    ],
    [
      138.5915009,
      -34.7807741
    ],
    [
      138.5916384,
      -34.7806555
    ],
    [
      138.591901,
      -34.7805984
    ],
    [
      138.5922067,
      -34.7802645
    ],
    [
      138.5923251,
      -34.7801526
    ],
    [
      138.5922999,
      -34.7799002
    ],
    [
      138.592471,
      -34.7796692
    ],
    [
      138.5924178,
      -34.7794885
    ],
    [
      138.5921995,
      -34.779154
    ],
    [
      138.5918237,
      -34.7787103
    ],
    [
      138.5918491,
      -34.7782848
    ],
    [
      138.5920105,
      -34.7782452
    ],
    [
      138.5921785,
      -34.7780614
    ],
    [
      138.5921352,
      -34.7776985
    ],
    [
      138.5919768,
      -34.7773688
    ],
    [
      138.5918393,
      -34.777172
    ],
    [
      138.5917247,
      -34.776838
    ],
    [
      138.5915796,
      -34.7765512
    ],
    [
      138.5916005,
      -34.7763395
    ],
    [
      138.5916139,
      -34.77604
    ],
    [
      138.5916059,
      -34.7756976
    ],
    [
      138.5915155,
      -34.7754043
    ],
    [
      138.5916672,
      -34.7752182
    ],
    [
      138.5917651,
      -34.774935
    ],
    [
      138.5917698,
      -34.7747007
    ],
    [
      138.5915748,
      -34.7745104
    ],
    [
      138.5917039,
      -34.7744098
    ],
    [
      138.5917077,
      -34.7742792
    ],
    [
      138.5917884,
      -34.7740972
    ],
    [
      138.5918964,
      -34.7739086
    ],
    [
      138.5919939,
      -34.7736772
    ],
    [
      138.591974,
      -34.7734383
    ],
    [
      138.5921355,
      -34.7733896
    ],
    [
      138.5923892,
      -34.7734069
    ],
    [
      138.5925929,
      -34.7732053
    ],
    [
      138.5928142,
      -34.7731773
    ],
    [
      138.5928536,
      -34.7730401
    ],
    [
      138.5928545,
      -34.772932
    ],
    [
      138.5931554,
      -34.7728594
    ],
    [
      138.5933263,
      -34.7726621
    ],
    [
      138.5935206,
      -34.7726024
    ],
    [
      138.5936905,
      -34.7725155
    ],
    [
      138.593694,
      -34.7724232
    ],
    [
      138.5934872,
      -34.772341
    ],
    [
      138.5932817,
      -34.7721123
    ],
    [
      138.5933207,
      -34.7720156
    ],
    [
      138.5933092,
      -34.7717633
    ],
    [
      138.5933879,
      -34.77148
    ],
    [
      138.5936111,
      -34.7712289
    ],
    [
      138.5937984,
      -34.771025
    ],
    [
      138.5940554,
      -34.7709837
    ],
    [
      138.5942747,
      -34.7708768
    ],
    [
      138.5945046,
      -34.7707733
    ],
    [
      138.5941361,
      -34.7672943
    ],
    [
      138.5941094,
      -34.767157
    ],
    [
      138.5939264,
      -34.7663435
    ],
    [
      138.5929589,
      -34.7634551
    ],
    [
      138.5886146,
      -34.7505717
    ],
    [
      138.5886079,
      -34.7505518
    ],
    [
      138.5885457,
      -34.750366
    ],
    [
      138.5885453,
      -34.7503647
    ],
    [
      138.5885434,
      -34.750359
    ],
    [
      138.5867692,
      -34.7450513
    ],
    [
      138.5865,
      -34.7439227
    ],
    [
      138.5864972,
      -34.7439235
    ],
    [
      138.5862723,
      -34.743976
    ],
    [
      138.5861461,
      -34.7440048
    ],
    [
      138.5834654,
      -34.7446175
    ],
    [
      138.5834391,
      -34.7446236
    ],
    [
      138.5830697,
      -34.7447083
    ],
    [
      138.5803319,
      -34.7453363
    ],
    [
      138.5800418,
      -34.74535
    ],
    [
      138.5767641,
      -34.746107
    ],
    [
      138.5760993,
      -34.746263
    ],
    [
      138.5743973,
      -34.7466623
    ],
    [
      138.5791596,
      -34.7609619
    ],
    [
      138.569675,
      -34.7715275
    ],
    [
      138.5697642,
      -34.771575
    ],
    [
      138.5660141,
      -34.7719668
    ],
    [
      138.5520356,
      -34.7734272
    ],
    [
      138.5506819,
      -34.7732072
    ],
    [
      138.5449261,
      -34.7722716
    ],
    [
      138.5350691,
      -34.7709787
    ]
  ]
]