[
  [
    [
      138.6694227,
      -34.7085033
    ],
    [
      138.6703022,
      -34.7086842
    ],
    [
      138.6718899,
      -34.7089717
    ],
    [
      138.6729214,
      -34.7094124
    ],
    [
      138.6740015,
      -34.7098787
    ],
    [
      138.6750348,
      -34.7103199
    ],
    [
      138.6760648,
      -34.7107573
    ],
    [
      138.6762672,
      -34.710847
    ],
    [
      138.6785465,
      -34.7072244
    ],
    [
      138.678597,
      -34.7071418
    ],
    [
      138.6805369,
      -34.7039649
    ],
    [
      138.680979,
      -34.7032409
    ],
    [
      138.6833301,
      -34.6995054
    ],
    [
      138.6853807,
      -34.696268
    ],
    [
      138.6857714,
      -34.6957585
    ],
    [
      138.6861957,
      -34.6950896
    ],
    [
      138.6859563,
      -34.6949816
    ],
    [
      138.6850357,
      -34.694584
    ],
    [
      138.6847681,
      -34.6944685
    ],
    [
      138.6844789,
      -34.6943435
    ],
    [
      138.6842553,
      -34.6942469
    ],
    [
      138.6842084,
      -34.6942267
    ],
    [
      138.6840347,
      -34.6941516
    ],
    [
      138.6838112,
      -34.6940551
    ],
    [
      138.6835049,
      -34.6939228
    ],
    [
      138.6833022,
      -34.6938354
    ],
    [
      138.681978,
      -34.6932647
    ],
    [
      138.6817872,
      -34.6931824
    ],
    [
      138.6791134,
      -34.6920295
    ],
    [
      138.6774995,
      -34.6913337
    ],
    [
      138.6774819,
      -34.6913262
    ],
    [
      138.6773837,
      -34.6912828
    ],
    [
      138.6769106,
      -34.6919427
    ],
    [
      138.674618,
      -34.6951407
    ],
    [
      138.67427,
      -34.6956047
    ],
    [
      138.6726617,
      -34.697878
    ],
    [
      138.6724312,
      -34.6982149
    ],
    [
      138.672214,
      -34.6985615
    ],
    [
      138.6709865,
      -34.7009405
    ],
    [
      138.6709429,
      -34.7010808
    ],
    [
      138.6701873,
      -34.7035127
    ],
    [
      138.6701704,
      -34.7036091
    ],
    [
      138.6701701,
      -34.7036107
    ],
    [
      138.6701423,
      -34.703745
    ],
    [
      138.670142,
      -34.7037465
    ],
    [
      138.6700711,
      -34.7040888
    ],
    [
      138.6700708,
      -34.7040904
    ],
    [
      138.6700074,
      -34.7045734
    ],
    [
      138.6700072,
      -34.704575
    ],
    [
      138.6699735,
      -34.7048313
    ],
    [
      138.6699733,
      -34.704833
    ],
    [
      138.669911,
      -34.7053071
    ],
    [
      138.6699109,
      -34.7053087
    ],
    [
      138.6698262,
      -34.7062724
    ],
    [
      138.669826,
      -34.706274
    ],
    [
      138.669803,
      -34.7065352
    ],
    [
      138.6698028,
      -34.7065368
    ],
    [
      138.6697426,
      -34.706939
    ],
    [
      138.6697423,
      -34.7069406
    ],
    [
      138.6696611,
      -34.7074853
    ],
    [
      138.6696608,
      -34.7074869
    ],
    [
      138.6695231,
      -34.7080748
    ],
    [
      138.6695227,
      -34.7080763
    ],
    [
      138.6694227,
      -34.7085033
    ]
  ]
]