[
  [
    [
      138.587604,
      -34.6920699
    ],
    [
      138.5876296,
      -34.6920895
    ],
    [
      138.5876393,
      -34.6920961
    ],
    [
      138.5929756,
      -34.6980096
    ],
    [
      138.6000929,
      -34.7060683
    ],
    [
      138.6042323,
      -34.7106774
    ],
    [
      138.6042514,
      -34.7106822
    ],
    [
      138.604325,
      -34.7107637
    ],
    [
      138.6121819,
      -34.6984822
    ],
    [
      138.6131776,
      -34.6967541
    ],
    [
      138.616047,
      -34.6922233
    ],
    [
      138.6330331,
      -34.6995788
    ],
    [
      138.6443724,
      -34.7044358
    ],
    [
      138.644409,
      -34.7042296
    ],
    [
      138.6445032,
      -34.704083
    ],
    [
      138.6472799,
      -34.699662
    ],
    [
      138.6488084,
      -34.6972292
    ],
    [
      138.6488555,
      -34.697151
    ],
    [
      138.650161,
      -34.6950761
    ],
    [
      138.6502173,
      -34.6949859
    ],
    [
      138.6502627,
      -34.6949154
    ],
    [
      138.6446845,
      -34.6924926
    ],
    [
      138.6475129,
      -34.6879123
    ],
    [
      138.6362488,
      -34.6830539
    ],
    [
      138.636862,
      -34.6820731
    ],
    [
      138.6360531,
      -34.6819408
    ],
    [
      138.630957,
      -34.6808787
    ],
    [
      138.6307533,
      -34.6808363
    ],
    [
      138.6249488,
      -34.67963
    ],
    [
      138.6241317,
      -34.679498
    ],
    [
      138.6239027,
      -34.6794609
    ],
    [
      138.6221674,
      -34.679178
    ],
    [
      138.6193499,
      -34.6789783
    ],
    [
      138.6180085,
      -34.6789998
    ],
    [
      138.616516,
      -34.6790202
    ],
    [
      138.6163658,
      -34.6790355
    ],
    [
      138.6163108,
      -34.6790411
    ],
    [
      138.614019,
      -34.6792983
    ],
    [
      138.6137093,
      -34.6793246
    ],
    [
      138.6109824,
      -34.6798391
    ],
    [
      138.6091132,
      -34.6804175
    ],
    [
      138.6090063,
      -34.6804493
    ],
    [
      138.6089971,
      -34.6804576
    ],
    [
      138.6082955,
      -34.6806642
    ],
    [
      138.6057432,
      -34.6816729
    ],
    [
      138.6033459,
      -34.6829028
    ],
    [
      138.6003034,
      -34.6846763
    ],
    [
      138.5998187,
      -34.6849477
    ],
    [
      138.5997127,
      -34.6850089
    ],
    [
      138.5949769,
      -34.687758
    ],
    [
      138.5948871,
      -34.6878096
    ],
    [
      138.5947974,
      -34.6878612
    ],
    [
      138.59471,
      -34.6879131
    ],
    [
      138.5946206,
      -34.6879647
    ],
    [
      138.5945312,
      -34.6880164
    ],
    [
      138.5944418,
      -34.6880681
    ],
    [
      138.5943524,
      -34.6881197
    ],
    [
      138.5942603,
      -34.6881707
    ],
    [
      138.5941708,
      -34.6882224
    ],
    [
      138.5940806,
      -34.6882751
    ],
    [
      138.5939912,
      -34.6883268
    ],
    [
      138.5939018,
      -34.6883785
    ],
    [
      138.5938124,
      -34.6884301
    ],
    [
      138.5937229,
      -34.6884818
    ],
    [
      138.5936352,
      -34.688532
    ],
    [
      138.5935458,
      -34.6885837
    ],
    [
      138.5934563,
      -34.6886354
    ],
    [
      138.5933669,
      -34.6886871
    ],
    [
      138.5932775,
      -34.6887388
    ],
    [
      138.593188,
      -34.6887904
    ],
    [
      138.5930977,
      -34.6888384
    ],
    [
      138.5930082,
      -34.6888899
    ],
    [
      138.5929187,
      -34.6889415
    ],
    [
      138.5928744,
      -34.6889669
    ],
    [
      138.5928291,
      -34.688993
    ],
    [
      138.5927719,
      -34.6890257
    ],
    [
      138.5927395,
      -34.6890444
    ],
    [
      138.5926513,
      -34.6890971
    ],
    [
      138.5925617,
      -34.6891485
    ],
    [
      138.5924721,
      -34.6891998
    ],
    [
      138.5923809,
      -34.6892501
    ],
    [
      138.5922904,
      -34.6893006
    ],
    [
      138.5922032,
      -34.6893539
    ],
    [
      138.5921134,
      -34.6894054
    ],
    [
      138.5920238,
      -34.6894568
    ],
    [
      138.5919341,
      -34.6895083
    ],
    [
      138.5918445,
      -34.6895597
    ],
    [
      138.5917562,
      -34.6896067
    ],
    [
      138.5917526,
      -34.6896088
    ],
    [
      138.59175,
      -34.6896103
    ],
    [
      138.5916632,
      -34.6896601
    ],
    [
      138.5915735,
      -34.6897115
    ],
    [
      138.5914863,
      -34.6897646
    ],
    [
      138.5913968,
      -34.689816
    ],
    [
      138.5913073,
      -34.6898675
    ],
    [
      138.5912177,
      -34.6899196
    ],
    [
      138.5912073,
      -34.6899256
    ],
    [
      138.5911283,
      -34.6899713
    ],
    [
      138.5910389,
      -34.690023
    ],
    [
      138.5909495,
      -34.6900747
    ],
    [
      138.5908602,
      -34.6901264
    ],
    [
      138.5907708,
      -34.690178
    ],
    [
      138.5906815,
      -34.6902297
    ],
    [
      138.5905922,
      -34.6902814
    ],
    [
      138.5905028,
      -34.6903331
    ],
    [
      138.5904135,
      -34.6903847
    ],
    [
      138.5903242,
      -34.6904364
    ],
    [
      138.5902349,
      -34.6904881
    ],
    [
      138.5901456,
      -34.6905397
    ],
    [
      138.5900562,
      -34.6905914
    ],
    [
      138.589971,
      -34.6906407
    ],
    [
      138.5899666,
      -34.6906431
    ],
    [
      138.5899639,
      -34.6906447
    ],
    [
      138.5898771,
      -34.6906949
    ],
    [
      138.5897878,
      -34.6907465
    ],
    [
      138.5896984,
      -34.6907981
    ],
    [
      138.5896089,
      -34.6908497
    ],
    [
      138.5895195,
      -34.6909014
    ],
    [
      138.5894301,
      -34.690953
    ],
    [
      138.5893409,
      -34.6910057
    ],
    [
      138.5892515,
      -34.6910573
    ],
    [
      138.5891622,
      -34.691109
    ],
    [
      138.5890719,
      -34.6911596
    ],
    [
      138.5889835,
      -34.6912111
    ],
    [
      138.5888946,
      -34.6912628
    ],
    [
      138.5888053,
      -34.6913146
    ],
    [
      138.5887158,
      -34.6913666
    ],
    [
      138.5886275,
      -34.6914187
    ],
    [
      138.5885417,
      -34.6914713
    ],
    [
      138.5884524,
      -34.6915231
    ],
    [
      138.588363,
      -34.6915748
    ],
    [
      138.5882737,
      -34.6916266
    ],
    [
      138.5881843,
      -34.6916783
    ],
    [
      138.5880968,
      -34.6917304
    ],
    [
      138.5880731,
      -34.6917442
    ],
    [
      138.5880075,
      -34.6917822
    ],
    [
      138.5879177,
      -34.6918337
    ],
    [
      138.5878283,
      -34.6918835
    ],
    [
      138.587737,
      -34.6919375
    ],
    [
      138.5876545,
      -34.6919962
    ],
    [
      138.587651,
      -34.6919982
    ],
    [
      138.5876293,
      -34.6920328
    ],
    [
      138.587604,
      -34.6920699
    ]
  ]
]