[
  [
    [
      138.5632471,
      -34.9585365
    ],
    [
      138.5633452,
      -34.9600779
    ],
    [
      138.563569,
      -34.9629107
    ],
    [
      138.5635832,
      -34.963076
    ],
    [
      138.5639231,
      -34.967721
    ],
    [
      138.5640464,
      -34.9677179
    ],
    [
      138.5640481,
      -34.9677179
    ],
    [
      138.5729192,
      -34.9672699
    ],
    [
      138.5727655,
      -34.9650322
    ],
    [
      138.5728071,
      -34.9649619
    ],
    [
      138.5723,
      -34.9584873
    ],
    [
      138.5722894,
      -34.9583519
    ],
    [
      138.571867,
      -34.952958
    ],
    [
      138.5632471,
      -34.9585365
    ]
  ]
]