[
  [
    [
      138.5143432,
      -35.1710439
    ],
    [
      138.514356,
      -35.1711939
    ],
    [
      138.5146597,
      -35.174766
    ],
    [
      138.5148464,
      -35.1747386
    ],
    [
      138.5149656,
      -35.1746896
    ],
    [
      138.5151742,
      -35.1746831
    ],
    [
      138.5153916,
      -35.1746811
    ],
    [
      138.5155492,
      -35.1746789
    ],
    [
      138.5157086,
      -35.1746587
    ],
    [
      138.5157922,
      -35.1746395
    ],
    [
      138.5158639,
      -35.1746445
    ],
    [
      138.515922,
      -35.1746486
    ],
    [
      138.5160904,
      -35.1746674
    ],
    [
      138.5162394,
      -35.1747055
    ],
    [
      138.5163809,
      -35.1747477
    ],
    [
      138.5165591,
      -35.1747349
    ],
    [
      138.5167173,
      -35.1747124
    ],
    [
      138.5168557,
      -35.1746858
    ],
    [
      138.5169974,
      -35.1746613
    ],
    [
      138.5171095,
      -35.1746102
    ],
    [
      138.5172227,
      -35.1745577
    ],
    [
      138.5173241,
      -35.1745225
    ],
    [
      138.5174548,
      -35.1744716
    ],
    [
      138.5176074,
      -35.1744118
    ],
    [
      138.5177332,
      -35.1743596
    ],
    [
      138.5178809,
      -35.1743049
    ],
    [
      138.5179859,
      -35.174257
    ],
    [
      138.5181362,
      -35.1741964
    ],
    [
      138.518288,
      -35.1741537
    ],
    [
      138.5184167,
      -35.1741389
    ],
    [
      138.5185099,
      -35.1740772
    ],
    [
      138.5185951,
      -35.1740292
    ],
    [
      138.5186721,
      -35.1739772
    ],
    [
      138.5187265,
      -35.1739003
    ],
    [
      138.5187705,
      -35.1738231
    ],
    [
      138.5188856,
      -35.1737585
    ],
    [
      138.5189515,
      -35.1737575
    ],
    [
      138.5190261,
      -35.1737543
    ],
    [
      138.5190716,
      -35.1737482
    ],
    [
      138.5191457,
      -35.1737211
    ],
    [
      138.5191808,
      -35.1736909
    ],
    [
      138.5193034,
      -35.1736468
    ],
    [
      138.5194308,
      -35.1736189
    ],
    [
      138.5195571,
      -35.1735911
    ],
    [
      138.5196974,
      -35.1735747
    ],
    [
      138.5198138,
      -35.1735519
    ],
    [
      138.5199031,
      -35.1735408
    ],
    [
      138.519974,
      -35.1734915
    ],
    [
      138.5200731,
      -35.1734161
    ],
    [
      138.5201876,
      -35.1733375
    ],
    [
      138.5202747,
      -35.173267
    ],
    [
      138.5203793,
      -35.1731573
    ],
    [
      138.520451,
      -35.173068
    ],
    [
      138.5204681,
      -35.1730402
    ],
    [
      138.5205231,
      -35.1729511
    ],
    [
      138.5205913,
      -35.1728208
    ],
    [
      138.5206233,
      -35.1726891
    ],
    [
      138.5206307,
      -35.1725612
    ],
    [
      138.5206094,
      -35.1724108
    ],
    [
      138.5205739,
      -35.1722968
    ],
    [
      138.5205406,
      -35.1721892
    ],
    [
      138.520504,
      -35.1720451
    ],
    [
      138.5204667,
      -35.1719015
    ],
    [
      138.5203982,
      -35.1717507
    ],
    [
      138.5203479,
      -35.171649
    ],
    [
      138.5203314,
      -35.1716156
    ],
    [
      138.5202343,
      -35.1714708
    ],
    [
      138.5201548,
      -35.1713303
    ],
    [
      138.5200605,
      -35.1711823
    ],
    [
      138.5199646,
      -35.1710334
    ],
    [
      138.519873,
      -35.1708898
    ],
    [
      138.5197753,
      -35.1707314
    ],
    [
      138.5197207,
      -35.170618
    ],
    [
      138.5196614,
      -35.1704262
    ],
    [
      138.5196552,
      -35.170404
    ],
    [
      138.5196242,
      -35.1702911
    ],
    [
      138.5195765,
      -35.170129
    ],
    [
      138.5195408,
      -35.1699673
    ],
    [
      138.5195072,
      -35.1698953
    ],
    [
      138.5194942,
      -35.1697696
    ],
    [
      138.5194871,
      -35.169625
    ],
    [
      138.5194945,
      -35.1695196
    ],
    [
      138.5195305,
      -35.1694357
    ],
    [
      138.5195759,
      -35.1693622
    ],
    [
      138.5196371,
      -35.1692692
    ],
    [
      138.5196829,
      -35.1691741
    ],
    [
      138.5197216,
      -35.1690816
    ],
    [
      138.5197577,
      -35.169023
    ],
    [
      138.5198217,
      -35.168949
    ],
    [
      138.5198902,
      -35.1688948
    ],
    [
      138.5199663,
      -35.1688288
    ],
    [
      138.5200881,
      -35.1687777
    ],
    [
      138.520245,
      -35.1687404
    ],
    [
      138.520369,
      -35.1687086
    ],
    [
      138.5204475,
      -35.1686918
    ],
    [
      138.5205177,
      -35.1686768
    ],
    [
      138.5206297,
      -35.1686513
    ],
    [
      138.5207537,
      -35.1686393
    ],
    [
      138.520907,
      -35.1686279
    ],
    [
      138.521131,
      -35.168618
    ],
    [
      138.5213254,
      -35.1686124
    ],
    [
      138.5214783,
      -35.1686155
    ],
    [
      138.5215783,
      -35.1686175
    ],
    [
      138.5216837,
      -35.1686342
    ],
    [
      138.5218006,
      -35.1686607
    ],
    [
      138.522034,
      -35.1687284
    ],
    [
      138.5222558,
      -35.1688105
    ],
    [
      138.5223827,
      -35.1688757
    ],
    [
      138.5224873,
      -35.168946
    ],
    [
      138.5225512,
      -35.168992
    ],
    [
      138.5225901,
      -35.1690201
    ],
    [
      138.5226832,
      -35.1690559
    ],
    [
      138.5228235,
      -35.1690878
    ],
    [
      138.5232397,
      -35.1691446
    ],
    [
      138.5239977,
      -35.1692311
    ],
    [
      138.5240102,
      -35.1692325
    ],
    [
      138.5243351,
      -35.1692635
    ],
    [
      138.5243742,
      -35.1692683
    ],
    [
      138.5245713,
      -35.1692926
    ],
    [
      138.524867,
      -35.1693108
    ],
    [
      138.5248958,
      -35.1693097
    ],
    [
      138.5250747,
      -35.1693029
    ],
    [
      138.5253556,
      -35.1693208
    ],
    [
      138.525608,
      -35.1693016
    ],
    [
      138.5257568,
      -35.1692803
    ],
    [
      138.525936,
      -35.1692354
    ],
    [
      138.5261465,
      -35.1691301
    ],
    [
      138.5263131,
      -35.1690118
    ],
    [
      138.5264503,
      -35.1688808
    ],
    [
      138.5265591,
      -35.1687127
    ],
    [
      138.5266369,
      -35.1685926
    ],
    [
      138.5267449,
      -35.1684488
    ],
    [
      138.5270351,
      -35.1681627
    ],
    [
      138.5273499,
      -35.1680554
    ],
    [
      138.5274791,
      -35.1680791
    ],
    [
      138.5275998,
      -35.1681012
    ],
    [
      138.5278918,
      -35.168241
    ],
    [
      138.5281525,
      -35.1684411
    ],
    [
      138.5283868,
      -35.168531
    ],
    [
      138.5286536,
      -35.1685243
    ],
    [
      138.528743,
      -35.1685161
    ],
    [
      138.5289804,
      -35.1684945
    ],
    [
      138.5293521,
      -35.1684534
    ],
    [
      138.5293874,
      -35.1684478
    ],
    [
      138.5293901,
      -35.1684473
    ],
    [
      138.5298284,
      -35.1683779
    ],
    [
      138.5300674,
      -35.1683098
    ],
    [
      138.5302332,
      -35.1682158
    ],
    [
      138.5304146,
      -35.1680979
    ],
    [
      138.5304426,
      -35.1679783
    ],
    [
      138.5304486,
      -35.1679525
    ],
    [
      138.5304684,
      -35.1678781
    ],
    [
      138.530402,
      -35.1675896
    ],
    [
      138.5302428,
      -35.1673464
    ],
    [
      138.5301192,
      -35.1671405
    ],
    [
      138.5300578,
      -35.1670381
    ],
    [
      138.5299947,
      -35.1669329
    ],
    [
      138.5299793,
      -35.1668881
    ],
    [
      138.5299067,
      -35.1666768
    ],
    [
      138.5298783,
      -35.1665942
    ],
    [
      138.5298387,
      -35.1663122
    ],
    [
      138.529708,
      -35.1661086
    ],
    [
      138.5294929,
      -35.1659257
    ],
    [
      138.5294457,
      -35.1658068
    ],
    [
      138.5294512,
      -35.1655987
    ],
    [
      138.52951,
      -35.1654721
    ],
    [
      138.5295597,
      -35.1653653
    ],
    [
      138.5300029,
      -35.1651913
    ],
    [
      138.5304988,
      -35.1651038
    ],
    [
      138.5308664,
      -35.1651244
    ],
    [
      138.5311286,
      -35.1650856
    ],
    [
      138.5312699,
      -35.1650134
    ],
    [
      138.5314741,
      -35.1649089
    ],
    [
      138.5316748,
      -35.1646071
    ],
    [
      138.5318777,
      -35.1643511
    ],
    [
      138.5320218,
      -35.1642738
    ],
    [
      138.532254,
      -35.1641492
    ],
    [
      138.5327335,
      -35.1640554
    ],
    [
      138.5332601,
      -35.1639913
    ],
    [
      138.5336342,
      -35.1639083
    ],
    [
      138.5339797,
      -35.1637965
    ],
    [
      138.5344942,
      -35.1635513
    ],
    [
      138.5347673,
      -35.1633206
    ],
    [
      138.5348851,
      -35.1631989
    ],
    [
      138.5348947,
      -35.1631889
    ],
    [
      138.5349713,
      -35.1631097
    ],
    [
      138.5349843,
      -35.1630781
    ],
    [
      138.5350766,
      -35.1628529
    ],
    [
      138.5350962,
      -35.162533
    ],
    [
      138.5350489,
      -35.1622033
    ],
    [
      138.5350213,
      -35.1618168
    ],
    [
      138.5351156,
      -35.1616221
    ],
    [
      138.5351521,
      -35.1615665
    ],
    [
      138.5353108,
      -35.1613247
    ],
    [
      138.5356168,
      -35.1611688
    ],
    [
      138.5359536,
      -35.1611164
    ],
    [
      138.5364002,
      -35.1611479
    ],
    [
      138.5367655,
      -35.1611847
    ],
    [
      138.5371693,
      -35.1612278
    ],
    [
      138.5376795,
      -35.1612484
    ],
    [
      138.5381161,
      -35.1612411
    ],
    [
      138.5385407,
      -35.161232
    ],
    [
      138.5389949,
      -35.16123
    ],
    [
      138.5393592,
      -35.1612894
    ],
    [
      138.5397916,
      -35.161474
    ],
    [
      138.5401768,
      -35.1616937
    ],
    [
      138.540494,
      -35.1618657
    ],
    [
      138.5407946,
      -35.1620503
    ],
    [
      138.5411294,
      -35.1622358
    ],
    [
      138.5414312,
      -35.1624735
    ],
    [
      138.5416485,
      -35.1626591
    ],
    [
      138.5419547,
      -35.1628924
    ],
    [
      138.5422609,
      -35.1630896
    ],
    [
      138.5425232,
      -35.1632283
    ],
    [
      138.5427493,
      -35.1633615
    ],
    [
      138.5431147,
      -35.1635281
    ],
    [
      138.5435153,
      -35.1636658
    ],
    [
      138.5438785,
      -35.1637801
    ],
    [
      138.5442713,
      -35.1638187
    ],
    [
      138.5446948,
      -35.1638069
    ],
    [
      138.5449955,
      -35.1638023
    ],
    [
      138.5455693,
      -35.1637336
    ],
    [
      138.5460685,
      -35.1636667
    ],
    [
      138.5465205,
      -35.1636305
    ],
    [
      138.5468266,
      -35.1636737
    ],
    [
      138.5470911,
      -35.1638195
    ],
    [
      138.547337,
      -35.1639798
    ],
    [
      138.5474115,
      -35.1640114
    ],
    [
      138.5476196,
      -35.1640996
    ],
    [
      138.5477046,
      -35.1641356
    ],
    [
      138.5480612,
      -35.1640877
    ],
    [
      138.5480972,
      -35.1640675
    ],
    [
      138.5481906,
      -35.1640152
    ],
    [
      138.5483847,
      -35.1639065
    ],
    [
      138.5485679,
      -35.1636749
    ],
    [
      138.5486154,
      -35.1635853
    ],
    [
      138.5487575,
      -35.163318
    ],
    [
      138.5489076,
      -35.1629863
    ],
    [
      138.5490391,
      -35.1626935
    ],
    [
      138.5492002,
      -35.1623402
    ],
    [
      138.5493591,
      -35.1620798
    ],
    [
      138.5494382,
      -35.1619309
    ],
    [
      138.5495148,
      -35.1617869
    ],
    [
      138.5495891,
      -35.1616172
    ],
    [
      138.549621,
      -35.1615445
    ],
    [
      138.5499097,
      -35.1610454
    ],
    [
      138.5499734,
      -35.1609687
    ],
    [
      138.5500254,
      -35.160909
    ],
    [
      138.5500863,
      -35.1608412
    ],
    [
      138.5501498,
      -35.1607735
    ],
    [
      138.5502382,
      -35.1606987
    ],
    [
      138.5502913,
      -35.1606394
    ],
    [
      138.550368,
      -35.1605758
    ],
    [
      138.5504537,
      -35.160491
    ],
    [
      138.5505196,
      -35.1604116
    ],
    [
      138.5505733,
      -35.1603537
    ],
    [
      138.5506408,
      -35.1602725
    ],
    [
      138.5506985,
      -35.1601948
    ],
    [
      138.5507417,
      -35.1601337
    ],
    [
      138.5507833,
      -35.1600699
    ],
    [
      138.5508399,
      -35.1599873
    ],
    [
      138.5508904,
      -35.1599042
    ],
    [
      138.5509362,
      -35.1597971
    ],
    [
      138.5509591,
      -35.1597432
    ],
    [
      138.5509793,
      -35.1596756
    ],
    [
      138.5509821,
      -35.1596656
    ],
    [
      138.5510063,
      -35.1595794
    ],
    [
      138.5510325,
      -35.15952
    ],
    [
      138.5510665,
      -35.1594445
    ],
    [
      138.5511311,
      -35.1593186
    ],
    [
      138.551216,
      -35.1591762
    ],
    [
      138.5512834,
      -35.1591152
    ],
    [
      138.55137,
      -35.1590579
    ],
    [
      138.551399,
      -35.159048
    ],
    [
      138.5514469,
      -35.1590225
    ],
    [
      138.5515168,
      -35.1589853
    ],
    [
      138.5515559,
      -35.1589652
    ],
    [
      138.5515871,
      -35.1589567
    ],
    [
      138.5516868,
      -35.1589296
    ],
    [
      138.5517814,
      -35.1588984
    ],
    [
      138.5518672,
      -35.1588726
    ],
    [
      138.5519843,
      -35.1588293
    ],
    [
      138.5520739,
      -35.1588071
    ],
    [
      138.5521526,
      -35.1587844
    ],
    [
      138.5522569,
      -35.1587772
    ],
    [
      138.5523691,
      -35.1587528
    ],
    [
      138.5525101,
      -35.1587564
    ],
    [
      138.5526678,
      -35.1587422
    ],
    [
      138.5527969,
      -35.1587341
    ],
    [
      138.5529419,
      -35.1587384
    ],
    [
      138.5529829,
      -35.1587397
    ],
    [
      138.5531081,
      -35.1587406
    ],
    [
      138.5532579,
      -35.1587686
    ],
    [
      138.5534098,
      -35.1587917
    ],
    [
      138.5535721,
      -35.1588319
    ],
    [
      138.5536707,
      -35.1588801
    ],
    [
      138.5537753,
      -35.1589309
    ],
    [
      138.5538616,
      -35.1589984
    ],
    [
      138.553959,
      -35.1590636
    ],
    [
      138.5540475,
      -35.159136
    ],
    [
      138.5541192,
      -35.1591989
    ],
    [
      138.5541934,
      -35.159266
    ],
    [
      138.5542656,
      -35.1593207
    ],
    [
      138.5543625,
      -35.1593886
    ],
    [
      138.5544812,
      -35.1594512
    ],
    [
      138.5545173,
      -35.1594669
    ],
    [
      138.5545574,
      -35.1594844
    ],
    [
      138.5546895,
      -35.1595299
    ],
    [
      138.5548389,
      -35.1596075
    ],
    [
      138.5548902,
      -35.1596699
    ],
    [
      138.5550221,
      -35.1597555
    ],
    [
      138.555138,
      -35.1598461
    ],
    [
      138.5552056,
      -35.1599225
    ],
    [
      138.5552536,
      -35.1599866
    ],
    [
      138.555319,
      -35.1600752
    ],
    [
      138.5554266,
      -35.1601873
    ],
    [
      138.5554843,
      -35.1602673
    ],
    [
      138.5555507,
      -35.1603842
    ],
    [
      138.55561,
      -35.1604705
    ],
    [
      138.5556618,
      -35.1605572
    ],
    [
      138.5556644,
      -35.1605653
    ],
    [
      138.555699,
      -35.1606722
    ],
    [
      138.5557709,
      -35.1607757
    ],
    [
      138.5558495,
      -35.1608616
    ],
    [
      138.5559123,
      -35.1609321
    ],
    [
      138.5560128,
      -35.1610439
    ],
    [
      138.5560647,
      -35.1610919
    ],
    [
      138.5561311,
      -35.1611551
    ],
    [
      138.5562347,
      -35.1612055
    ],
    [
      138.5563449,
      -35.1612536
    ],
    [
      138.5564699,
      -35.1612958
    ],
    [
      138.5565783,
      -35.1613277
    ],
    [
      138.5567059,
      -35.1613631
    ],
    [
      138.5568517,
      -35.1613957
    ],
    [
      138.5569914,
      -35.1614261
    ],
    [
      138.5571174,
      -35.161457
    ],
    [
      138.5572273,
      -35.1614758
    ],
    [
      138.5573373,
      -35.1614965
    ],
    [
      138.557462,
      -35.1614981
    ],
    [
      138.5576021,
      -35.1615163
    ],
    [
      138.5578109,
      -35.1615315
    ],
    [
      138.5579449,
      -35.1615309
    ],
    [
      138.5580861,
      -35.1615324
    ],
    [
      138.5582272,
      -35.161533
    ],
    [
      138.5583898,
      -35.1615417
    ],
    [
      138.5585628,
      -35.1615399
    ],
    [
      138.5587011,
      -35.1615379
    ],
    [
      138.5588264,
      -35.1615449
    ],
    [
      138.55894,
      -35.1615358
    ],
    [
      138.5591002,
      -35.1615201
    ],
    [
      138.5592248,
      -35.1615073
    ],
    [
      138.5593494,
      -35.1614968
    ],
    [
      138.5594821,
      -35.1614767
    ],
    [
      138.5595798,
      -35.161469
    ],
    [
      138.5597016,
      -35.1614608
    ],
    [
      138.5598318,
      -35.1614592
    ],
    [
      138.5599645,
      -35.1614378
    ],
    [
      138.560072,
      -35.1614228
    ],
    [
      138.5602415,
      -35.1614012
    ],
    [
      138.5604402,
      -35.1613818
    ],
    [
      138.5605768,
      -35.1613675
    ],
    [
      138.5606784,
      -35.1613666
    ],
    [
      138.56078,
      -35.1613665
    ],
    [
      138.5609003,
      -35.1613708
    ],
    [
      138.561015,
      -35.1613703
    ],
    [
      138.5611827,
      -35.1613848
    ],
    [
      138.5613755,
      -35.1613982
    ],
    [
      138.5614822,
      -35.1614197
    ],
    [
      138.5615844,
      -35.1614328
    ],
    [
      138.5616574,
      -35.1614337
    ],
    [
      138.5617514,
      -35.1614445
    ],
    [
      138.5618788,
      -35.1614484
    ],
    [
      138.5620392,
      -35.1614494
    ],
    [
      138.562209,
      -35.1614562
    ],
    [
      138.5623365,
      -35.1614794
    ],
    [
      138.5624701,
      -35.1615013
    ],
    [
      138.562623,
      -35.1615289
    ],
    [
      138.5627769,
      -35.1615538
    ],
    [
      138.5628918,
      -35.1615722
    ],
    [
      138.5629127,
      -35.1615755
    ],
    [
      138.5630326,
      -35.1615949
    ],
    [
      138.5631368,
      -35.1616241
    ],
    [
      138.5631746,
      -35.1616347
    ],
    [
      138.5633105,
      -35.1616705
    ],
    [
      138.5634557,
      -35.1616996
    ],
    [
      138.5635597,
      -35.1617306
    ],
    [
      138.5636665,
      -35.1617638
    ],
    [
      138.5637016,
      -35.161774
    ],
    [
      138.5637628,
      -35.1617917
    ],
    [
      138.5638496,
      -35.1618075
    ],
    [
      138.5639294,
      -35.1618274
    ],
    [
      138.5640512,
      -35.1618741
    ],
    [
      138.5641151,
      -35.1619035
    ],
    [
      138.5641954,
      -35.1619238
    ],
    [
      138.5642799,
      -35.1619126
    ],
    [
      138.5643605,
      -35.1618933
    ],
    [
      138.5644592,
      -35.1618779
    ],
    [
      138.5645342,
      -35.1618482
    ],
    [
      138.5646377,
      -35.1618076
    ],
    [
      138.5647198,
      -35.161767
    ],
    [
      138.5648022,
      -35.161704
    ],
    [
      138.5648819,
      -35.1616432
    ],
    [
      138.5649588,
      -35.1615802
    ],
    [
      138.5650101,
      -35.1615396
    ],
    [
      138.5650755,
      -35.1614877
    ],
    [
      138.5650819,
      -35.1614826
    ],
    [
      138.5652993,
      -35.1613104
    ],
    [
      138.5654271,
      -35.1611069
    ],
    [
      138.5655244,
      -35.1609521
    ],
    [
      138.5655382,
      -35.1609301
    ],
    [
      138.5656576,
      -35.1606309
    ],
    [
      138.5656757,
      -35.1605579
    ],
    [
      138.5657236,
      -35.1603647
    ],
    [
      138.5657331,
      -35.1603263
    ],
    [
      138.5657161,
      -35.160278
    ],
    [
      138.5656389,
      -35.1600585
    ],
    [
      138.5655648,
      -35.159848
    ],
    [
      138.5654701,
      -35.1594182
    ],
    [
      138.5655151,
      -35.1590708
    ],
    [
      138.5655203,
      -35.1590308
    ],
    [
      138.5655555,
      -35.1589833
    ],
    [
      138.5657086,
      -35.1587764
    ],
    [
      138.5657593,
      -35.1587081
    ],
    [
      138.5658459,
      -35.1586524
    ],
    [
      138.5661047,
      -35.1584862
    ],
    [
      138.5663219,
      -35.158392
    ],
    [
      138.5664809,
      -35.158323
    ],
    [
      138.5671775,
      -35.1583208
    ],
    [
      138.5676713,
      -35.1583575
    ],
    [
      138.5676991,
      -35.1583619
    ],
    [
      138.5682212,
      -35.1584448
    ],
    [
      138.5682309,
      -35.1584464
    ],
    [
      138.5683016,
      -35.1584673
    ],
    [
      138.5684613,
      -35.1585147
    ],
    [
      138.568683,
      -35.1585804
    ],
    [
      138.5691593,
      -35.1587315
    ],
    [
      138.5696553,
      -35.1588321
    ],
    [
      138.5699688,
      -35.1588597
    ],
    [
      138.5700624,
      -35.158868
    ],
    [
      138.5704298,
      -35.158802
    ],
    [
      138.570795,
      -35.1585846
    ],
    [
      138.5711732,
      -35.1582519
    ],
    [
      138.5715307,
      -35.1579959
    ],
    [
      138.5718925,
      -35.1577136
    ],
    [
      138.5723103,
      -35.1575034
    ],
    [
      138.5726671,
      -35.1574512
    ],
    [
      138.5727359,
      -35.1574411
    ],
    [
      138.57321,
      -35.1575327
    ],
    [
      138.573404,
      -35.1576065
    ],
    [
      138.573526,
      -35.157653
    ],
    [
      138.5736424,
      -35.1576973
    ],
    [
      138.5737095,
      -35.1577444
    ],
    [
      138.5739937,
      -35.157944
    ],
    [
      138.5741361,
      -35.158103
    ],
    [
      138.5744011,
      -35.1583988
    ],
    [
      138.5744666,
      -35.1584744
    ],
    [
      138.574657,
      -35.1586942
    ],
    [
      138.5749611,
      -35.158948
    ],
    [
      138.5752598,
      -35.1592272
    ],
    [
      138.5753178,
      -35.1592686
    ],
    [
      138.5756056,
      -35.1594739
    ],
    [
      138.575844,
      -35.1596871
    ],
    [
      138.5758483,
      -35.1596909
    ],
    [
      138.5758554,
      -35.1596936
    ],
    [
      138.576397,
      -35.1599014
    ],
    [
      138.5768601,
      -35.1600137
    ],
    [
      138.5774033,
      -35.1601341
    ],
    [
      138.5778632,
      -35.16026
    ],
    [
      138.5781797,
      -35.1604187
    ],
    [
      138.5783549,
      -35.1605066
    ],
    [
      138.5788762,
      -35.1606666
    ],
    [
      138.5790016,
      -35.160658
    ],
    [
      138.5792005,
      -35.1606444
    ],
    [
      138.5793798,
      -35.1606321
    ],
    [
      138.5796814,
      -35.1604697
    ],
    [
      138.5797557,
      -35.1602173
    ],
    [
      138.5797606,
      -35.160177
    ],
    [
      138.5797915,
      -35.1599185
    ],
    [
      138.5797971,
      -35.1598722
    ],
    [
      138.5797851,
      -35.1597187
    ],
    [
      138.5797693,
      -35.1595173
    ],
    [
      138.5797104,
      -35.1593448
    ],
    [
      138.5796043,
      -35.1590344
    ],
    [
      138.5795567,
      -35.1586335
    ],
    [
      138.5794696,
      -35.1581055
    ],
    [
      138.5794348,
      -35.1576428
    ],
    [
      138.5794329,
      -35.1576181
    ],
    [
      138.5794518,
      -35.1571034
    ],
    [
      138.5794522,
      -35.1570937
    ],
    [
      138.57947,
      -35.1568216
    ],
    [
      138.5794919,
      -35.1564866
    ],
    [
      138.5795086,
      -35.1564051
    ],
    [
      138.5795088,
      -35.1563577
    ],
    [
      138.5795288,
      -35.1563001
    ],
    [
      138.5795686,
      -35.1562187
    ],
    [
      138.5796004,
      -35.1561138
    ],
    [
      138.5796452,
      -35.1560368
    ],
    [
      138.5797158,
      -35.1559402
    ],
    [
      138.5798018,
      -35.1558719
    ],
    [
      138.5798947,
      -35.1558226
    ],
    [
      138.579987,
      -35.1558129
    ],
    [
      138.5800841,
      -35.1558262
    ],
    [
      138.5801511,
      -35.1558323
    ],
    [
      138.5802533,
      -35.1558159
    ],
    [
      138.5803626,
      -35.1557999
    ],
    [
      138.5804544,
      -35.1557767
    ],
    [
      138.5805773,
      -35.1557807
    ],
    [
      138.5806574,
      -35.1557792
    ],
    [
      138.5806839,
      -35.1557787
    ],
    [
      138.5807821,
      -35.1557844
    ],
    [
      138.5809183,
      -35.1557573
    ],
    [
      138.5809877,
      -35.1557398
    ],
    [
      138.5810244,
      -35.1557305
    ],
    [
      138.5811272,
      -35.155715
    ],
    [
      138.5812556,
      -35.1557176
    ],
    [
      138.5814044,
      -35.1557198
    ],
    [
      138.5815147,
      -35.1557282
    ],
    [
      138.5816239,
      -35.1557492
    ],
    [
      138.5817198,
      -35.1557891
    ],
    [
      138.5817583,
      -35.155811
    ],
    [
      138.5818211,
      -35.1558466
    ],
    [
      138.5819131,
      -35.155919
    ],
    [
      138.5819892,
      -35.1559683
    ],
    [
      138.5820858,
      -35.1559915
    ],
    [
      138.5822258,
      -35.1559847
    ],
    [
      138.5823368,
      -35.1559597
    ],
    [
      138.5824292,
      -35.155914
    ],
    [
      138.582492,
      -35.1558673
    ],
    [
      138.5825604,
      -35.15579
    ],
    [
      138.5825871,
      -35.1557188
    ],
    [
      138.5826037,
      -35.1556748
    ],
    [
      138.5826234,
      -35.155532
    ],
    [
      138.5826235,
      -35.1553837
    ],
    [
      138.5826157,
      -35.155262
    ],
    [
      138.582575,
      -35.1551371
    ],
    [
      138.5825568,
      -35.1550105
    ],
    [
      138.5825299,
      -35.1548707
    ],
    [
      138.582525,
      -35.1547441
    ],
    [
      138.5825061,
      -35.1546521
    ],
    [
      138.5825148,
      -35.1545223
    ],
    [
      138.5825263,
      -35.1544607
    ],
    [
      138.5825389,
      -35.1543922
    ],
    [
      138.5825583,
      -35.1542797
    ],
    [
      138.5825597,
      -35.1542715
    ],
    [
      138.5825865,
      -35.1542221
    ],
    [
      138.5826266,
      -35.1541482
    ],
    [
      138.5826946,
      -35.154047
    ],
    [
      138.5827631,
      -35.1539286
    ],
    [
      138.5828278,
      -35.153804
    ],
    [
      138.5828601,
      -35.1537085
    ],
    [
      138.5829005,
      -35.153619
    ],
    [
      138.5829646,
      -35.1535124
    ],
    [
      138.5830073,
      -35.1534142
    ],
    [
      138.5830411,
      -35.1533264
    ],
    [
      138.5830859,
      -35.1532261
    ],
    [
      138.5831153,
      -35.1531604
    ],
    [
      138.5831216,
      -35.1530978
    ],
    [
      138.5831113,
      -35.15305
    ],
    [
      138.5831066,
      -35.1529968
    ],
    [
      138.5831054,
      -35.1528886
    ],
    [
      138.5830915,
      -35.1528288
    ],
    [
      138.5830876,
      -35.152812
    ],
    [
      138.5830747,
      -35.1527304
    ],
    [
      138.583079,
      -35.152624
    ],
    [
      138.5830788,
      -35.152538
    ],
    [
      138.5830884,
      -35.1524619
    ],
    [
      138.5831052,
      -35.1523853
    ],
    [
      138.5831488,
      -35.1523102
    ],
    [
      138.5831925,
      -35.1522269
    ],
    [
      138.5832429,
      -35.1521311
    ],
    [
      138.5833124,
      -35.1520389
    ],
    [
      138.5833819,
      -35.1519606
    ],
    [
      138.5834617,
      -35.1519018
    ],
    [
      138.5835343,
      -35.1518696
    ],
    [
      138.5836415,
      -35.1518311
    ],
    [
      138.5836789,
      -35.1518169
    ],
    [
      138.5839779,
      -35.1517036
    ],
    [
      138.5842982,
      -35.1516349
    ],
    [
      138.5847073,
      -35.1515679
    ],
    [
      138.5851559,
      -35.1514919
    ],
    [
      138.5854575,
      -35.1513728
    ],
    [
      138.5857778,
      -35.1513411
    ],
    [
      138.5859304,
      -35.1513932
    ],
    [
      138.5860259,
      -35.1515076
    ],
    [
      138.5860755,
      -35.1517796
    ],
    [
      138.5861043,
      -35.1520112
    ],
    [
      138.58612,
      -35.1520679
    ],
    [
      138.5861314,
      -35.1521091
    ],
    [
      138.5861605,
      -35.1522148
    ],
    [
      138.5862077,
      -35.1522623
    ],
    [
      138.5862813,
      -35.1523363
    ],
    [
      138.5862966,
      -35.1523517
    ],
    [
      138.5863195,
      -35.1523596
    ],
    [
      138.5864187,
      -35.1523942
    ],
    [
      138.5865392,
      -35.1524362
    ],
    [
      138.5868342,
      -35.1523558
    ],
    [
      138.5868399,
      -35.1523534
    ],
    [
      138.5871051,
      -35.1522411
    ],
    [
      138.5871623,
      -35.1522074
    ],
    [
      138.5873802,
      -35.1520788
    ],
    [
      138.5875248,
      -35.1518291
    ],
    [
      138.5875574,
      -35.1517304
    ],
    [
      138.5876025,
      -35.1515939
    ],
    [
      138.5877141,
      -35.151319
    ],
    [
      138.5878136,
      -35.1510144
    ],
    [
      138.587992,
      -35.1507052
    ],
    [
      138.588128,
      -35.150479
    ],
    [
      138.5882198,
      -35.1502978
    ],
    [
      138.588266,
      -35.150174
    ],
    [
      138.588303,
      -35.1500752
    ],
    [
      138.588311,
      -35.1500699
    ],
    [
      138.588485,
      -35.1499561
    ],
    [
      138.588514,
      -35.1499191
    ],
    [
      138.5886263,
      -35.1497758
    ],
    [
      138.5885986,
      -35.1495235
    ],
    [
      138.5885945,
      -35.1494978
    ],
    [
      138.5885511,
      -35.1492199
    ],
    [
      138.5885096,
      -35.1491244
    ],
    [
      138.588473,
      -35.1490403
    ],
    [
      138.5884356,
      -35.1489542
    ],
    [
      138.588149,
      -35.148712
    ],
    [
      138.5881162,
      -35.1486915
    ],
    [
      138.5878669,
      -35.1485356
    ],
    [
      138.5877451,
      -35.1484801
    ],
    [
      138.5876411,
      -35.1484242
    ],
    [
      138.587628,
      -35.1484172
    ],
    [
      138.5875157,
      -35.1483815
    ],
    [
      138.5873484,
      -35.1483493
    ],
    [
      138.5873098,
      -35.1483461
    ],
    [
      138.5871704,
      -35.1483349
    ],
    [
      138.5870781,
      -35.1483065
    ],
    [
      138.586988,
      -35.1482788
    ],
    [
      138.5868366,
      -35.1482436
    ],
    [
      138.5866577,
      -35.1482089
    ],
    [
      138.5865086,
      -35.1481872
    ],
    [
      138.5863873,
      -35.1481547
    ],
    [
      138.5862825,
      -35.1481213
    ],
    [
      138.5861772,
      -35.1480536
    ],
    [
      138.5861047,
      -35.1479639
    ],
    [
      138.5860418,
      -35.1478726
    ],
    [
      138.5859972,
      -35.147767
    ],
    [
      138.5859576,
      -35.1476266
    ],
    [
      138.5859502,
      -35.1475098
    ],
    [
      138.5859483,
      -35.147423
    ],
    [
      138.5859603,
      -35.147302
    ],
    [
      138.5860248,
      -35.1471679
    ],
    [
      138.586098,
      -35.1470412
    ],
    [
      138.5861775,
      -35.1469383
    ],
    [
      138.5862481,
      -35.1468617
    ],
    [
      138.5863369,
      -35.1467697
    ],
    [
      138.5864633,
      -35.1466552
    ],
    [
      138.5865514,
      -35.1465609
    ],
    [
      138.5866728,
      -35.1464841
    ],
    [
      138.5867975,
      -35.1464361
    ],
    [
      138.5869232,
      -35.146405
    ],
    [
      138.5870002,
      -35.1463697
    ],
    [
      138.5871771,
      -35.1463221
    ],
    [
      138.5873661,
      -35.1462531
    ],
    [
      138.5875323,
      -35.1462205
    ],
    [
      138.5876344,
      -35.1461997
    ],
    [
      138.587779,
      -35.146205
    ],
    [
      138.5879596,
      -35.1462267
    ],
    [
      138.5881746,
      -35.146271
    ],
    [
      138.5882915,
      -35.1462888
    ],
    [
      138.5883974,
      -35.1463047
    ],
    [
      138.5885246,
      -35.1463204
    ],
    [
      138.5887044,
      -35.146346
    ],
    [
      138.5888741,
      -35.1463669
    ],
    [
      138.5890212,
      -35.1463825
    ],
    [
      138.5891488,
      -35.1463818
    ],
    [
      138.5893294,
      -35.1464052
    ],
    [
      138.5894554,
      -35.1463854
    ],
    [
      138.5895822,
      -35.1463656
    ],
    [
      138.589702,
      -35.1463761
    ],
    [
      138.5898186,
      -35.1464282
    ],
    [
      138.5899091,
      -35.1464873
    ],
    [
      138.5900039,
      -35.1465374
    ],
    [
      138.5901053,
      -35.1465419
    ],
    [
      138.5902404,
      -35.1464924
    ],
    [
      138.5903358,
      -35.1464095
    ],
    [
      138.5904096,
      -35.1463133
    ],
    [
      138.590488,
      -35.1461721
    ],
    [
      138.5905458,
      -35.1460564
    ],
    [
      138.5905891,
      -35.1459461
    ],
    [
      138.5905967,
      -35.1458071
    ],
    [
      138.5905919,
      -35.1456695
    ],
    [
      138.5905908,
      -35.1456373
    ],
    [
      138.5905495,
      -35.1454771
    ],
    [
      138.5905159,
      -35.1453982
    ],
    [
      138.5905173,
      -35.145312
    ],
    [
      138.5905249,
      -35.1451935
    ],
    [
      138.590539,
      -35.1451403
    ],
    [
      138.5905519,
      -35.1450919
    ],
    [
      138.5906273,
      -35.1450199
    ],
    [
      138.5907189,
      -35.1449924
    ],
    [
      138.5908607,
      -35.1449443
    ],
    [
      138.5909807,
      -35.1448885
    ],
    [
      138.5910994,
      -35.1448488
    ],
    [
      138.5912345,
      -35.1448554
    ],
    [
      138.5913733,
      -35.144856
    ],
    [
      138.5914776,
      -35.1448733
    ],
    [
      138.591602,
      -35.1448904
    ],
    [
      138.5916725,
      -35.1448898
    ],
    [
      138.5918019,
      -35.1449004
    ],
    [
      138.5919318,
      -35.1449334
    ],
    [
      138.5920851,
      -35.144935
    ],
    [
      138.5922418,
      -35.1449272
    ],
    [
      138.5924362,
      -35.1449412
    ],
    [
      138.5925629,
      -35.1449374
    ],
    [
      138.5927081,
      -35.1449284
    ],
    [
      138.5928617,
      -35.1449048
    ],
    [
      138.592986,
      -35.1448789
    ],
    [
      138.5931116,
      -35.1448535
    ],
    [
      138.5932313,
      -35.1447993
    ],
    [
      138.5933069,
      -35.1447614
    ],
    [
      138.5933536,
      -35.144738
    ],
    [
      138.5933604,
      -35.1447345
    ],
    [
      138.5934641,
      -35.1446576
    ],
    [
      138.5935739,
      -35.1445782
    ],
    [
      138.5936564,
      -35.1444885
    ],
    [
      138.5936604,
      -35.1444843
    ],
    [
      138.5937516,
      -35.1443873
    ],
    [
      138.593874,
      -35.1442805
    ],
    [
      138.5939852,
      -35.144175
    ],
    [
      138.5940789,
      -35.1440828
    ],
    [
      138.5941353,
      -35.1440334
    ],
    [
      138.5941886,
      -35.1439866
    ],
    [
      138.5942963,
      -35.1438945
    ],
    [
      138.594404,
      -35.1437797
    ],
    [
      138.5944647,
      -35.1437069
    ],
    [
      138.5945016,
      -35.1436626
    ],
    [
      138.594591,
      -35.143563
    ],
    [
      138.5946587,
      -35.1435
    ],
    [
      138.5947956,
      -35.1434222
    ],
    [
      138.5948945,
      -35.1433571
    ],
    [
      138.5950133,
      -35.143255
    ],
    [
      138.5951022,
      -35.1431536
    ],
    [
      138.595175,
      -35.1430701
    ],
    [
      138.5952546,
      -35.1429871
    ],
    [
      138.5953307,
      -35.1429059
    ],
    [
      138.595392,
      -35.1428417
    ],
    [
      138.5954007,
      -35.1428326
    ],
    [
      138.5954675,
      -35.1427629
    ],
    [
      138.5954744,
      -35.1427557
    ],
    [
      138.5955056,
      -35.1427109
    ],
    [
      138.5955573,
      -35.1426428
    ],
    [
      138.5956095,
      -35.1425769
    ],
    [
      138.5956882,
      -35.1425003
    ],
    [
      138.5957832,
      -35.1424494
    ],
    [
      138.5958882,
      -35.1423852
    ],
    [
      138.595979,
      -35.1423371
    ],
    [
      138.5960566,
      -35.1422915
    ],
    [
      138.5961168,
      -35.1422562
    ],
    [
      138.5961846,
      -35.1421996
    ],
    [
      138.5962396,
      -35.1421547
    ],
    [
      138.5963236,
      -35.142081
    ],
    [
      138.5963742,
      -35.1420241
    ],
    [
      138.5964638,
      -35.1420103
    ],
    [
      138.5965598,
      -35.1420327
    ],
    [
      138.5967082,
      -35.1420901
    ],
    [
      138.5968188,
      -35.1421495
    ],
    [
      138.5969765,
      -35.1421733
    ],
    [
      138.5971169,
      -35.1422001
    ],
    [
      138.5972558,
      -35.1422155
    ],
    [
      138.5973946,
      -35.1422294
    ],
    [
      138.5975074,
      -35.1422397
    ],
    [
      138.5976325,
      -35.1422324
    ],
    [
      138.5978296,
      -35.1422272
    ],
    [
      138.5979743,
      -35.1422095
    ],
    [
      138.5980887,
      -35.1421737
    ],
    [
      138.59819,
      -35.1421196
    ],
    [
      138.5983186,
      -35.142047
    ],
    [
      138.5984328,
      -35.1419745
    ],
    [
      138.5985292,
      -35.1419243
    ],
    [
      138.5986432,
      -35.1418552
    ],
    [
      138.5988117,
      -35.1417823
    ],
    [
      138.5989671,
      -35.1416871
    ],
    [
      138.5990976,
      -35.1416421
    ],
    [
      138.599222,
      -35.1415733
    ],
    [
      138.5993513,
      -35.1415424
    ],
    [
      138.5994786,
      -35.1415317
    ],
    [
      138.5996364,
      -35.1415729
    ],
    [
      138.599755,
      -35.1415964
    ],
    [
      138.5998456,
      -35.1416576
    ],
    [
      138.5999256,
      -35.1417304
    ],
    [
      138.6000216,
      -35.1417939
    ],
    [
      138.6001288,
      -35.1418724
    ],
    [
      138.6002415,
      -35.1419713
    ],
    [
      138.6003084,
      -35.142046
    ],
    [
      138.6003968,
      -35.1421303
    ],
    [
      138.6005216,
      -35.1421939
    ],
    [
      138.6006182,
      -35.1422439
    ],
    [
      138.6007245,
      -35.1422858
    ],
    [
      138.6008357,
      -35.142326
    ],
    [
      138.600983,
      -35.142354
    ],
    [
      138.6011277,
      -35.1423764
    ],
    [
      138.6013317,
      -35.1423674
    ],
    [
      138.6014722,
      -35.1423697
    ],
    [
      138.6017041,
      -35.1423501
    ],
    [
      138.6019048,
      -35.1423276
    ],
    [
      138.6021369,
      -35.1422987
    ],
    [
      138.6023958,
      -35.1422739
    ],
    [
      138.6026273,
      -35.1422371
    ],
    [
      138.6028844,
      -35.1421879
    ],
    [
      138.6031332,
      -35.1421543
    ],
    [
      138.6033713,
      -35.1421005
    ],
    [
      138.6036142,
      -35.1420582
    ],
    [
      138.6037995,
      -35.1419969
    ],
    [
      138.6040431,
      -35.1419303
    ],
    [
      138.6042147,
      -35.1418623
    ],
    [
      138.6043939,
      -35.1417709
    ],
    [
      138.604596,
      -35.1416971
    ],
    [
      138.6047734,
      -35.1416364
    ],
    [
      138.6049442,
      -35.1415648
    ],
    [
      138.6051008,
      -35.1414722
    ],
    [
      138.6052479,
      -35.1413494
    ],
    [
      138.6053969,
      -35.141221
    ],
    [
      138.6055236,
      -35.14108
    ],
    [
      138.605643,
      -35.1409516
    ],
    [
      138.6057274,
      -35.1408319
    ],
    [
      138.6058169,
      -35.1406851
    ],
    [
      138.6058322,
      -35.1406538
    ],
    [
      138.6058984,
      -35.1405175
    ],
    [
      138.6059275,
      -35.1403581
    ],
    [
      138.6059291,
      -35.1401839
    ],
    [
      138.6058801,
      -35.1399887
    ],
    [
      138.605863,
      -35.139945
    ],
    [
      138.6058267,
      -35.1398527
    ],
    [
      138.6057057,
      -35.1396832
    ],
    [
      138.6056045,
      -35.1395176
    ],
    [
      138.605513,
      -35.1393479
    ],
    [
      138.6054154,
      -35.1391796
    ],
    [
      138.6053545,
      -35.1390048
    ],
    [
      138.6053339,
      -35.1387888
    ],
    [
      138.6053353,
      -35.1385909
    ],
    [
      138.6053576,
      -35.1384257
    ],
    [
      138.6054053,
      -35.1382531
    ],
    [
      138.6054848,
      -35.1380933
    ],
    [
      138.6055878,
      -35.1379311
    ],
    [
      138.6057429,
      -35.137802
    ],
    [
      138.6059318,
      -35.1377073
    ],
    [
      138.6062023,
      -35.1376127
    ],
    [
      138.6063694,
      -35.1375189
    ],
    [
      138.6065521,
      -35.1373682
    ],
    [
      138.6067219,
      -35.137238
    ],
    [
      138.6068814,
      -35.1370791
    ],
    [
      138.6070209,
      -35.1369162
    ],
    [
      138.6070469,
      -35.1368488
    ],
    [
      138.6070887,
      -35.1367405
    ],
    [
      138.6071472,
      -35.1365538
    ],
    [
      138.6071605,
      -35.1364715
    ],
    [
      138.6071802,
      -35.1363495
    ],
    [
      138.6071838,
      -35.1361967
    ],
    [
      138.6071564,
      -35.1360427
    ],
    [
      138.6071001,
      -35.1358928
    ],
    [
      138.6070376,
      -35.135789
    ],
    [
      138.6069799,
      -35.1356733
    ],
    [
      138.6069304,
      -35.1355676
    ],
    [
      138.6068678,
      -35.1354326
    ],
    [
      138.606815,
      -35.1353184
    ],
    [
      138.606798,
      -35.1352238
    ],
    [
      138.6067848,
      -35.1351121
    ],
    [
      138.6067504,
      -35.1350513
    ],
    [
      138.6067094,
      -35.134983
    ],
    [
      138.6066905,
      -35.1349549
    ],
    [
      138.6066458,
      -35.1348886
    ],
    [
      138.6065906,
      -35.1348275
    ],
    [
      138.6065442,
      -35.1347673
    ],
    [
      138.6065183,
      -35.1346592
    ],
    [
      138.6065095,
      -35.1345466
    ],
    [
      138.6065162,
      -35.1344569
    ],
    [
      138.6065373,
      -35.1344041
    ],
    [
      138.6065756,
      -35.1343859
    ],
    [
      138.606605,
      -35.1344062
    ],
    [
      138.606612,
      -35.1344111
    ],
    [
      138.6066826,
      -35.1344703
    ],
    [
      138.6067167,
      -35.1344891
    ],
    [
      138.6067474,
      -35.1344781
    ],
    [
      138.6067813,
      -35.1344528
    ],
    [
      138.6068111,
      -35.1343869
    ],
    [
      138.6068434,
      -35.1342534
    ],
    [
      138.6068607,
      -35.1341077
    ],
    [
      138.6068916,
      -35.1339251
    ],
    [
      138.6069427,
      -35.1337239
    ],
    [
      138.6069516,
      -35.1335383
    ],
    [
      138.6069965,
      -35.1332938
    ],
    [
      138.606996,
      -35.1331329
    ],
    [
      138.6069696,
      -35.1330273
    ],
    [
      138.6069041,
      -35.1329214
    ],
    [
      138.6068188,
      -35.132823
    ],
    [
      138.6068121,
      -35.1328183
    ],
    [
      138.6067131,
      -35.1327484
    ],
    [
      138.6065685,
      -35.132665
    ],
    [
      138.6065634,
      -35.1326629
    ],
    [
      138.6064426,
      -35.1326142
    ],
    [
      138.6063064,
      -35.1325792
    ],
    [
      138.6061207,
      -35.1325595
    ],
    [
      138.6059634,
      -35.1325725
    ],
    [
      138.6057962,
      -35.1325934
    ],
    [
      138.6056672,
      -35.1326472
    ],
    [
      138.605537,
      -35.1327413
    ],
    [
      138.6054357,
      -35.132852
    ],
    [
      138.6053837,
      -35.1329557
    ],
    [
      138.6053505,
      -35.133084
    ],
    [
      138.6053175,
      -35.1332324
    ],
    [
      138.6052857,
      -35.1334121
    ],
    [
      138.6052822,
      -35.1335167
    ],
    [
      138.6052609,
      -35.1336497
    ],
    [
      138.6052445,
      -35.1337575
    ],
    [
      138.6052291,
      -35.1338693
    ],
    [
      138.6052227,
      -35.1339111
    ],
    [
      138.6052084,
      -35.1340028
    ],
    [
      138.6051636,
      -35.1341435
    ],
    [
      138.605125,
      -35.1342189
    ],
    [
      138.6050282,
      -35.134277
    ],
    [
      138.6048686,
      -35.1343091
    ],
    [
      138.6046953,
      -35.1343435
    ],
    [
      138.6045992,
      -35.1343456
    ],
    [
      138.604389,
      -35.1343414
    ],
    [
      138.6042825,
      -35.1343477
    ],
    [
      138.6040752,
      -35.1343781
    ],
    [
      138.6039381,
      -35.1343922
    ],
    [
      138.6038151,
      -35.1343953
    ],
    [
      138.603758,
      -35.1343878
    ],
    [
      138.6036913,
      -35.1343434
    ],
    [
      138.6036345,
      -35.1342832
    ],
    [
      138.6035501,
      -35.1342056
    ],
    [
      138.60349,
      -35.1341562
    ],
    [
      138.6034451,
      -35.1340861
    ],
    [
      138.6034262,
      -35.1340347
    ],
    [
      138.6034028,
      -35.1339713
    ],
    [
      138.6033844,
      -35.1339052
    ],
    [
      138.6033578,
      -35.1338884
    ],
    [
      138.603299,
      -35.1338514
    ],
    [
      138.6032734,
      -35.1338333
    ],
    [
      138.6031591,
      -35.1337528
    ],
    [
      138.6030207,
      -35.1336514
    ],
    [
      138.6028974,
      -35.1335525
    ],
    [
      138.6028107,
      -35.1335575
    ],
    [
      138.6010412,
      -35.1336615
    ],
    [
      138.5983187,
      -35.1338214
    ],
    [
      138.5970706,
      -35.1338947
    ],
    [
      138.5961061,
      -35.1339514
    ],
    [
      138.5959894,
      -35.1339582
    ],
    [
      138.5958795,
      -35.1339647
    ],
    [
      138.5946755,
      -35.1340354
    ],
    [
      138.5946611,
      -35.1338608
    ],
    [
      138.5935493,
      -35.1339264
    ],
    [
      138.5923261,
      -35.1339979
    ],
    [
      138.5903822,
      -35.1341119
    ],
    [
      138.5885299,
      -35.1342204
    ],
    [
      138.5884191,
      -35.1342269
    ],
    [
      138.5883083,
      -35.1342335
    ],
    [
      138.586813,
      -35.134321
    ],
    [
      138.5867165,
      -35.1343266
    ],
    [
      138.5856238,
      -35.1323592
    ],
    [
      138.5860896,
      -35.1293085
    ],
    [
      138.58609,
      -35.1293055
    ],
    [
      138.5863529,
      -35.1275214
    ],
    [
      138.5868134,
      -35.1261131
    ],
    [
      138.5870546,
      -35.1257077
    ],
    [
      138.5872339,
      -35.125284
    ],
    [
      138.5871739,
      -35.1248316
    ],
    [
      138.5871733,
      -35.1248289
    ],
    [
      138.5867589,
      -35.1232995
    ],
    [
      138.5867594,
      -35.1232962
    ],
    [
      138.5868404,
      -35.1227024
    ],
    [
      138.5872557,
      -35.1218702
    ],
    [
      138.5875813,
      -35.1212795
    ],
    [
      138.5881553,
      -35.1206679
    ],
    [
      138.5892432,
      -35.1197251
    ],
    [
      138.5900112,
      -35.1193072
    ],
    [
      138.5907213,
      -35.1187474
    ],
    [
      138.5932688,
      -35.1158103
    ],
    [
      138.5932975,
      -35.1157003
    ],
    [
      138.5941568,
      -35.1124053
    ],
    [
      138.5941652,
      -35.1122292
    ],
    [
      138.5942767,
      -35.1098947
    ],
    [
      138.5943066,
      -35.1096403
    ],
    [
      138.5948088,
      -35.1091568
    ],
    [
      138.5953416,
      -35.1086439
    ],
    [
      138.5945108,
      -35.1068771
    ],
    [
      138.5944871,
      -35.1068269
    ],
    [
      138.5931159,
      -35.105437
    ],
    [
      138.5923854,
      -35.1048744
    ],
    [
      138.592346,
      -35.1048441
    ],
    [
      138.5923011,
      -35.1048093
    ],
    [
      138.5915858,
      -35.1044222
    ],
    [
      138.5908217,
      -35.104019
    ],
    [
      138.5908176,
      -35.1040168
    ],
    [
      138.5907349,
      -35.1039729
    ],
    [
      138.5905531,
      -35.1038431
    ],
    [
      138.590081,
      -35.103506
    ],
    [
      138.5898903,
      -35.1033698
    ],
    [
      138.589859,
      -35.1033473
    ],
    [
      138.5892669,
      -35.1027788
    ],
    [
      138.5892788,
      -35.1021029
    ],
    [
      138.5880466,
      -35.1006082
    ],
    [
      138.5869099,
      -35.0999919
    ],
    [
      138.5860527,
      -35.0998807
    ],
    [
      138.5856844,
      -35.0998328
    ],
    [
      138.5855731,
      -35.0998183
    ],
    [
      138.5857592,
      -35.102032
    ],
    [
      138.5857603,
      -35.1020456
    ],
    [
      138.5840351,
      -35.1021409
    ],
    [
      138.5824005,
      -35.1022313
    ],
    [
      138.5819125,
      -35.1022582
    ],
    [
      138.5816541,
      -35.1022725
    ],
    [
      138.5806958,
      -35.1023255
    ],
    [
      138.580545,
      -35.1023338
    ],
    [
      138.5794253,
      -35.1023957
    ],
    [
      138.5782344,
      -35.1024615
    ],
    [
      138.5764621,
      -35.1025593
    ],
    [
      138.5745967,
      -35.1026623
    ],
    [
      138.5731874,
      -35.1027401
    ],
    [
      138.5730766,
      -35.1027462
    ],
    [
      138.5735019,
      -35.1081098
    ],
    [
      138.5733903,
      -35.1081151
    ],
    [
      138.5695788,
      -35.1083024
    ],
    [
      138.5683237,
      -35.1083633
    ],
    [
      138.5673745,
      -35.1084094
    ],
    [
      138.5670688,
      -35.1084242
    ],
    [
      138.5668925,
      -35.1084317
    ],
    [
      138.5665569,
      -35.108446
    ],
    [
      138.5663022,
      -35.1084568
    ],
    [
      138.5660474,
      -35.1084677
    ],
    [
      138.5657926,
      -35.1084785
    ],
    [
      138.5655378,
      -35.1084893
    ],
    [
      138.565283,
      -35.1085001
    ],
    [
      138.5652013,
      -35.1085035
    ],
    [
      138.5648099,
      -35.1088371
    ],
    [
      138.5645825,
      -35.1090308
    ],
    [
      138.564103,
      -35.1094394
    ],
    [
      138.5638365,
      -35.1096664
    ],
    [
      138.5636537,
      -35.1098222
    ],
    [
      138.5634766,
      -35.1099731
    ],
    [
      138.5632995,
      -35.110124
    ],
    [
      138.5631224,
      -35.1102749
    ],
    [
      138.5629453,
      -35.1104258
    ],
    [
      138.5627682,
      -35.1105767
    ],
    [
      138.5625911,
      -35.1107276
    ],
    [
      138.562414,
      -35.1108785
    ],
    [
      138.5621703,
      -35.1110861
    ],
    [
      138.5617145,
      -35.1114744
    ],
    [
      138.5610039,
      -35.1120817
    ],
    [
      138.5587656,
      -35.113994
    ],
    [
      138.5586645,
      -35.1141712
    ],
    [
      138.557876,
      -35.1155743
    ],
    [
      138.5577626,
      -35.1156888
    ],
    [
      138.5577658,
      -35.1157364
    ],
    [
      138.557646,
      -35.115941
    ],
    [
      138.5574249,
      -35.1163164
    ],
    [
      138.5572604,
      -35.1165975
    ],
    [
      138.5571218,
      -35.1168538
    ],
    [
      138.5556244,
      -35.119385
    ],
    [
      138.5551182,
      -35.1202502
    ],
    [
      138.5523609,
      -35.1249795
    ],
    [
      138.5523555,
      -35.1250655
    ],
    [
      138.549213,
      -35.1252254
    ],
    [
      138.5490708,
      -35.1252326
    ],
    [
      138.5491769,
      -35.1266492
    ],
    [
      138.5492552,
      -35.1277227
    ],
    [
      138.5493457,
      -35.1290156
    ],
    [
      138.5482718,
      -35.1301877
    ],
    [
      138.5482129,
      -35.1302503
    ],
    [
      138.5469729,
      -35.1311581
    ],
    [
      138.5456186,
      -35.1319118
    ],
    [
      138.5433648,
      -35.1332727
    ],
    [
      138.5407122,
      -35.1351886
    ],
    [
      138.5395056,
      -35.1356341
    ],
    [
      138.5386896,
      -35.1357202
    ],
    [
      138.5375692,
      -35.1359267
    ],
    [
      138.537144,
      -35.1360719
    ],
    [
      138.5371878,
      -35.1366832
    ],
    [
      138.5372657,
      -35.137699
    ],
    [
      138.537356,
      -35.1389908
    ],
    [
      138.5374504,
      -35.140208
    ],
    [
      138.5375097,
      -35.1409013
    ],
    [
      138.5375739,
      -35.1416961
    ],
    [
      138.537783,
      -35.1441045
    ],
    [
      138.5378704,
      -35.1453654
    ],
    [
      138.5379331,
      -35.1465175
    ],
    [
      138.5381067,
      -35.14854
    ],
    [
      138.5382307,
      -35.1500388
    ],
    [
      138.5383775,
      -35.151787
    ],
    [
      138.532495,
      -35.1572806
    ],
    [
      138.5318947,
      -35.160022
    ],
    [
      138.5318431,
      -35.1600326
    ],
    [
      138.5313388,
      -35.1602928
    ],
    [
      138.5287426,
      -35.162627
    ],
    [
      138.526552,
      -35.1643295
    ],
    [
      138.5231536,
      -35.1641436
    ],
    [
      138.5221423,
      -35.1643306
    ],
    [
      138.5213992,
      -35.1652652
    ],
    [
      138.5206336,
      -35.1661119
    ],
    [
      138.5176664,
      -35.1686755
    ],
    [
      138.5153674,
      -35.170314
    ],
    [
      138.5143432,
      -35.1710439
    ]
  ]
]