[
  [
    [
      138.4655845,
      -35.1778475
    ],
    [
      138.4656586,
      -35.1781114
    ],
    [
      138.4657271,
      -35.1783552
    ],
    [
      138.4657831,
      -35.1785546
    ],
    [
      138.4658724,
      -35.178873
    ],
    [
      138.4660211,
      -35.1791893
    ],
    [
      138.4661806,
      -35.1795071
    ],
    [
      138.4662997,
      -35.1797264
    ],
    [
      138.4664027,
      -35.1799552
    ],
    [
      138.4664511,
      -35.1800872
    ],
    [
      138.4665363,
      -35.1803362
    ],
    [
      138.4666249,
      -35.1806051
    ],
    [
      138.4666751,
      -35.1808477
    ],
    [
      138.4667041,
      -35.1810656
    ],
    [
      138.466722,
      -35.1812486
    ],
    [
      138.4667147,
      -35.1813212
    ],
    [
      138.4667044,
      -35.1814229
    ],
    [
      138.4667037,
      -35.1814301
    ],
    [
      138.4666739,
      -35.1816333
    ],
    [
      138.4666235,
      -35.1818009
    ],
    [
      138.4665571,
      -35.1820215
    ],
    [
      138.4664899,
      -35.1822449
    ],
    [
      138.4664294,
      -35.1824457
    ],
    [
      138.466404,
      -35.1825301
    ],
    [
      138.4663562,
      -35.182689
    ],
    [
      138.4663129,
      -35.1829465
    ],
    [
      138.4663076,
      -35.1829785
    ],
    [
      138.4662673,
      -35.1832179
    ],
    [
      138.4662322,
      -35.1834268
    ],
    [
      138.4661744,
      -35.1836308
    ],
    [
      138.4661448,
      -35.183735
    ],
    [
      138.4660923,
      -35.18392
    ],
    [
      138.466027,
      -35.1842809
    ],
    [
      138.4660318,
      -35.1845142
    ],
    [
      138.4660332,
      -35.1845829
    ],
    [
      138.4660439,
      -35.1848231
    ],
    [
      138.4660866,
      -35.1851203
    ],
    [
      138.4661355,
      -35.185321
    ],
    [
      138.4661536,
      -35.1853957
    ],
    [
      138.4662131,
      -35.1856047
    ],
    [
      138.4662843,
      -35.1858549
    ],
    [
      138.4664067,
      -35.1861016
    ],
    [
      138.4664392,
      -35.1861545
    ],
    [
      138.4665457,
      -35.186328
    ],
    [
      138.4667001,
      -35.1865374
    ],
    [
      138.4667827,
      -35.1867198
    ],
    [
      138.4669324,
      -35.186974
    ],
    [
      138.4670086,
      -35.1871034
    ],
    [
      138.4670837,
      -35.1872696
    ],
    [
      138.4671322,
      -35.1873771
    ],
    [
      138.4671505,
      -35.1875081
    ],
    [
      138.4671834,
      -35.187744
    ],
    [
      138.4671942,
      -35.1880172
    ],
    [
      138.4672675,
      -35.1883309
    ],
    [
      138.467344,
      -35.1885403
    ],
    [
      138.4674472,
      -35.1888226
    ],
    [
      138.4675907,
      -35.1891074
    ],
    [
      138.4677179,
      -35.18936
    ],
    [
      138.4678163,
      -35.1896267
    ],
    [
      138.467936,
      -35.1899512
    ],
    [
      138.4680886,
      -35.1902686
    ],
    [
      138.4681516,
      -35.1905301
    ],
    [
      138.4682551,
      -35.1908732
    ],
    [
      138.4683305,
      -35.1910771
    ],
    [
      138.4683717,
      -35.1912502
    ],
    [
      138.4683922,
      -35.1915054
    ],
    [
      138.46839,
      -35.1917968
    ],
    [
      138.4684238,
      -35.1921076
    ],
    [
      138.4684948,
      -35.1924611
    ],
    [
      138.4685499,
      -35.1927358
    ],
    [
      138.4685788,
      -35.1930308
    ],
    [
      138.4686392,
      -35.1933518
    ],
    [
      138.468693,
      -35.193637
    ],
    [
      138.4687293,
      -35.1939886
    ],
    [
      138.4694401,
      -35.193953
    ],
    [
      138.4695565,
      -35.1939472
    ],
    [
      138.4697595,
      -35.1939371
    ],
    [
      138.4701163,
      -35.1939192
    ],
    [
      138.4702954,
      -35.1939103
    ],
    [
      138.4705039,
      -35.1938962
    ],
    [
      138.4719703,
      -35.1938255
    ],
    [
      138.4726324,
      -35.1937938
    ],
    [
      138.4742074,
      -35.1937247
    ],
    [
      138.4753924,
      -35.1936685
    ],
    [
      138.4760933,
      -35.1936349
    ],
    [
      138.4775533,
      -35.1935701
    ],
    [
      138.4776821,
      -35.1935667
    ],
    [
      138.4782501,
      -35.1933962
    ],
    [
      138.4792813,
      -35.1930196
    ],
    [
      138.4817438,
      -35.192119
    ],
    [
      138.4827291,
      -35.191807
    ],
    [
      138.4835058,
      -35.1915596
    ],
    [
      138.4842539,
      -35.1913452
    ],
    [
      138.4849448,
      -35.191189
    ],
    [
      138.4855633,
      -35.1910588
    ],
    [
      138.4856473,
      -35.1910412
    ],
    [
      138.4863429,
      -35.1909718
    ],
    [
      138.4872708,
      -35.1908809
    ],
    [
      138.4903211,
      -35.1907149
    ],
    [
      138.4901945,
      -35.1890349
    ],
    [
      138.4901261,
      -35.1884512
    ],
    [
      138.4900601,
      -35.1876013
    ],
    [
      138.4896401,
      -35.1822001
    ],
    [
      138.4894987,
      -35.1804109
    ],
    [
      138.4881924,
      -35.1804223
    ],
    [
      138.4872534,
      -35.1804255
    ],
    [
      138.486699,
      -35.1803724
    ],
    [
      138.4861973,
      -35.1804775
    ],
    [
      138.4766417,
      -35.1809245
    ],
    [
      138.4764229,
      -35.1773016
    ],
    [
      138.4762576,
      -35.1772995
    ],
    [
      138.4753549,
      -35.1773383
    ],
    [
      138.4737834,
      -35.1774191
    ],
    [
      138.4730073,
      -35.177459
    ],
    [
      138.47187,
      -35.1775212
    ],
    [
      138.4711998,
      -35.1775559
    ],
    [
      138.4686679,
      -35.177689
    ],
    [
      138.4683392,
      -35.1777033
    ],
    [
      138.4671862,
      -35.1777713
    ],
    [
      138.4664191,
      -35.1778078
    ],
    [
      138.4663542,
      -35.1778109
    ],
    [
      138.4662955,
      -35.1778137
    ],
    [
      138.4655845,
      -35.1778475
    ]
  ]
]