[
  [
    [
      138.6742363,
      -34.8886046
    ],
    [
      138.6742372,
      -34.8886084
    ],
    [
      138.674845,
      -34.896629
    ],
    [
      138.6752989,
      -34.9027314
    ],
    [
      138.68288,
      -34.9023365
    ],
    [
      138.6842869,
      -34.9022657
    ],
    [
      138.6841535,
      -34.9004376
    ],
    [
      138.6911251,
      -34.9001037
    ],
    [
      138.690752,
      -34.895265
    ],
    [
      138.6916709,
      -34.8958039
    ],
    [
      138.6922875,
      -34.8964608
    ],
    [
      138.6923627,
      -34.8963949
    ],
    [
      138.6931044,
      -34.896714
    ],
    [
      138.6944723,
      -34.897071
    ],
    [
      138.6944964,
      -34.8972536
    ],
    [
      138.6950804,
      -34.8974001
    ],
    [
      138.6957947,
      -34.8976893
    ],
    [
      138.6957754,
      -34.897745
    ],
    [
      138.6962698,
      -34.8979218
    ],
    [
      138.6969869,
      -34.8983806
    ],
    [
      138.6978331,
      -34.8992306
    ],
    [
      138.6985321,
      -34.8997976
    ],
    [
      138.6995849,
      -34.9003109
    ],
    [
      138.700188,
      -34.9005473
    ],
    [
      138.7011012,
      -34.9016457
    ],
    [
      138.7017857,
      -34.9028532
    ],
    [
      138.7055814,
      -34.9009709
    ],
    [
      138.7074472,
      -34.8981679
    ],
    [
      138.7127352,
      -34.8942383
    ],
    [
      138.7124666,
      -34.8939027
    ],
    [
      138.707889,
      -34.894079
    ],
    [
      138.7075893,
      -34.8899234
    ],
    [
      138.7073994,
      -34.8873881
    ],
    [
      138.7073711,
      -34.8869903
    ],
    [
      138.7073687,
      -34.8869565
    ],
    [
      138.7069762,
      -34.8864629
    ],
    [
      138.7058834,
      -34.8858052
    ],
    [
      138.7040873,
      -34.8848854
    ],
    [
      138.7009579,
      -34.8860574
    ],
    [
      138.7008804,
      -34.8859935
    ],
    [
      138.692512,
      -34.886445
    ],
    [
      138.6919493,
      -34.8864987
    ],
    [
      138.6912294,
      -34.8865457
    ],
    [
      138.6904068,
      -34.8867478
    ],
    [
      138.6884886,
      -34.8878783
    ],
    [
      138.6747747,
      -34.8885815
    ],
    [
      138.6742363,
      -34.8886046
    ]
  ]
]