[
  [
    [
      138.6212914,
      -34.8941263
    ],
    [
      138.6213943,
      -34.8943751
    ],
    [
      138.6215795,
      -34.8945951
    ],
    [
      138.6221045,
      -34.8948144
    ],
    [
      138.6223349,
      -34.8949564
    ],
    [
      138.6226092,
      -34.8952407
    ],
    [
      138.6226723,
      -34.8953433
    ],
    [
      138.622834,
      -34.8954243
    ],
    [
      138.6341517,
      -34.9021433
    ],
    [
      138.6369889,
      -34.8987898
    ],
    [
      138.6376889,
      -34.8979552
    ],
    [
      138.6376812,
      -34.8979526
    ],
    [
      138.6249011,
      -34.89358
    ],
    [
      138.6245402,
      -34.89356
    ],
    [
      138.6231383,
      -34.8931348
    ],
    [
      138.6222568,
      -34.8932083
    ],
    [
      138.6218462,
      -34.8933839
    ],
    [
      138.6215384,
      -34.8935768
    ],
    [
      138.6213474,
      -34.893773
    ],
    [
      138.6212955,
      -34.8939503
    ],
    [
      138.6212914,
      -34.8941263
    ]
  ]
]