[
  [
    [
      138.7399927,
      -34.6396265
    ],
    [
      138.7421262,
      -34.6422499
    ],
    [
      138.7435911,
      -34.6435954
    ],
    [
      138.7445495,
      -34.6447526
    ],
    [
      138.7448046,
      -34.6467111
    ],
    [
      138.7450315,
      -34.6476546
    ],
    [
      138.7463351,
      -34.6487549
    ],
    [
      138.747542,
      -34.6491143
    ],
    [
      138.7476504,
      -34.649148
    ],
    [
      138.7604196,
      -34.6531129
    ],
    [
      138.7609567,
      -34.6542318
    ],
    [
      138.7607909,
      -34.6550689
    ],
    [
      138.7619656,
      -34.6610973
    ],
    [
      138.763597,
      -34.6623817
    ],
    [
      138.7673478,
      -34.6627672
    ],
    [
      138.7697214,
      -34.6660968
    ],
    [
      138.7719516,
      -34.6671348
    ],
    [
      138.7716886,
      -34.6664632
    ],
    [
      138.7714289,
      -34.664786
    ],
    [
      138.7705887,
      -34.6615615
    ],
    [
      138.7708981,
      -34.6608301
    ],
    [
      138.771544,
      -34.6596541
    ],
    [
      138.7716748,
      -34.6589117
    ],
    [
      138.7719199,
      -34.657135
    ],
    [
      138.7721427,
      -34.6567013
    ],
    [
      138.7739479,
      -34.6525288
    ],
    [
      138.773938,
      -34.6515373
    ],
    [
      138.7738399,
      -34.65113
    ],
    [
      138.776924,
      -34.6507669
    ],
    [
      138.7772001,
      -34.6497832
    ],
    [
      138.7793243,
      -34.6483705
    ],
    [
      138.7793547,
      -34.6484317
    ],
    [
      138.7804656,
      -34.6479193
    ],
    [
      138.7839622,
      -34.6480666
    ],
    [
      138.7885977,
      -34.6441978
    ],
    [
      138.7907062,
      -34.6438337
    ],
    [
      138.7914154,
      -34.6434297
    ],
    [
      138.7916016,
      -34.6420189
    ],
    [
      138.7916454,
      -34.6407071
    ],
    [
      138.7919422,
      -34.6388307
    ],
    [
      138.7918421,
      -34.6387568
    ],
    [
      138.7894216,
      -34.6368887
    ],
    [
      138.7893419,
      -34.6368209
    ],
    [
      138.7873092,
      -34.6375692
    ],
    [
      138.7872708,
      -34.6374848
    ],
    [
      138.786986,
      -34.6369393
    ],
    [
      138.7869948,
      -34.6371203
    ],
    [
      138.786929,
      -34.6378356
    ],
    [
      138.7868546,
      -34.6379892
    ],
    [
      138.7867588,
      -34.6380649
    ],
    [
      138.7863827,
      -34.6381162
    ],
    [
      138.7857816,
      -34.6378148
    ],
    [
      138.7851661,
      -34.6371839
    ],
    [
      138.7837283,
      -34.6346574
    ],
    [
      138.783487,
      -34.6344406
    ],
    [
      138.7832361,
      -34.6343039
    ],
    [
      138.7826884,
      -34.6343144
    ],
    [
      138.7821606,
      -34.6341858
    ],
    [
      138.781604,
      -34.634138
    ],
    [
      138.7810397,
      -34.6342129
    ],
    [
      138.7808425,
      -34.6342773
    ],
    [
      138.7805728,
      -34.6346214
    ],
    [
      138.7805368,
      -34.6348245
    ],
    [
      138.7805763,
      -34.6354523
    ],
    [
      138.780368,
      -34.6361476
    ],
    [
      138.7802244,
      -34.6362613
    ],
    [
      138.7798703,
      -34.6363711
    ],
    [
      138.7790212,
      -34.6359474
    ],
    [
      138.7778788,
      -34.6351497
    ],
    [
      138.7767183,
      -34.6340046
    ],
    [
      138.7763378,
      -34.6335567
    ],
    [
      138.7762477,
      -34.6332568
    ],
    [
      138.7759459,
      -34.6327111
    ],
    [
      138.7759281,
      -34.6325143
    ],
    [
      138.7759699,
      -34.6320735
    ],
    [
      138.7761316,
      -34.6315777
    ],
    [
      138.7769095,
      -34.6308136
    ],
    [
      138.7769741,
      -34.6306354
    ],
    [
      138.776957,
      -34.6305095
    ],
    [
      138.7765737,
      -34.6298984
    ],
    [
      138.7757926,
      -34.6290475
    ],
    [
      138.7755916,
      -34.6285274
    ],
    [
      138.7755179,
      -34.6279109
    ],
    [
      138.7752994,
      -34.627489
    ],
    [
      138.7751395,
      -34.6273921
    ],
    [
      138.774522,
      -34.6272973
    ],
    [
      138.7739948,
      -34.6271293
    ],
    [
      138.7736698,
      -34.6268854
    ],
    [
      138.773502,
      -34.6266371
    ],
    [
      138.7735043,
      -34.6265506
    ],
    [
      138.7737743,
      -34.6259135
    ],
    [
      138.7740874,
      -34.6256235
    ],
    [
      138.7742291,
      -34.6255467
    ],
    [
      138.7750367,
      -34.6253523
    ],
    [
      138.7753851,
      -34.6253731
    ],
    [
      138.7765563,
      -34.6259498
    ],
    [
      138.7774661,
      -34.6261757
    ],
    [
      138.7777366,
      -34.6261733
    ],
    [
      138.7778429,
      -34.6261175
    ],
    [
      138.7784323,
      -34.6256018
    ],
    [
      138.7786995,
      -34.6250657
    ],
    [
      138.7785156,
      -34.6237459
    ],
    [
      138.7783029,
      -34.6233749
    ],
    [
      138.7780942,
      -34.6231679
    ],
    [
      138.7776042,
      -34.6229918
    ],
    [
      138.7769491,
      -34.6229009
    ],
    [
      138.775882,
      -34.623101
    ],
    [
      138.7754555,
      -34.6232581
    ],
    [
      138.7745789,
      -34.6237265
    ],
    [
      138.7740422,
      -34.6239547
    ],
    [
      138.7734479,
      -34.624067
    ],
    [
      138.7730545,
      -34.6240603
    ],
    [
      138.7725086,
      -34.6239648
    ],
    [
      138.7717178,
      -34.6237498
    ],
    [
      138.7714761,
      -34.623605
    ],
    [
      138.7711178,
      -34.623189
    ],
    [
      138.7710012,
      -34.6228637
    ],
    [
      138.7710255,
      -34.622522
    ],
    [
      138.7711423,
      -34.6223327
    ],
    [
      138.7715803,
      -34.6219732
    ],
    [
      138.772055,
      -34.6214792
    ],
    [
      138.7730521,
      -34.6202044
    ],
    [
      138.7733164,
      -34.6196953
    ],
    [
      138.7734628,
      -34.6192116
    ],
    [
      138.7733954,
      -34.6191064
    ],
    [
      138.7732191,
      -34.6190211
    ],
    [
      138.772609,
      -34.6189401
    ],
    [
      138.771292,
      -34.6193872
    ],
    [
      138.770695,
      -34.6194544
    ],
    [
      138.7702609,
      -34.619316
    ],
    [
      138.7699809,
      -34.6191449
    ],
    [
      138.7697407,
      -34.6188711
    ],
    [
      138.7691295,
      -34.6177079
    ],
    [
      138.7690714,
      -34.61765
    ],
    [
      138.7689008,
      -34.6175302
    ],
    [
      138.7687322,
      -34.6174244
    ],
    [
      138.7685772,
      -34.6174157
    ],
    [
      138.7683791,
      -34.6174681
    ],
    [
      138.7675734,
      -34.6181971
    ],
    [
      138.7668415,
      -34.6184572
    ],
    [
      138.7658297,
      -34.6183175
    ],
    [
      138.7655238,
      -34.6182261
    ],
    [
      138.7652631,
      -34.6183345
    ],
    [
      138.7621286,
      -34.6196367
    ],
    [
      138.7603802,
      -34.6199206
    ],
    [
      138.7602708,
      -34.6198856
    ],
    [
      138.7596342,
      -34.6205568
    ],
    [
      138.7553759,
      -34.6224174
    ],
    [
      138.7556764,
      -34.6225658
    ],
    [
      138.7560963,
      -34.622789
    ],
    [
      138.7601633,
      -34.6246846
    ],
    [
      138.7622626,
      -34.6276011
    ],
    [
      138.7624611,
      -34.6277928
    ],
    [
      138.7640399,
      -34.6293277
    ],
    [
      138.759855,
      -34.6343507
    ],
    [
      138.7563711,
      -34.6385323
    ],
    [
      138.7563089,
      -34.6386069
    ],
    [
      138.7527807,
      -34.6428452
    ],
    [
      138.7457905,
      -34.6388449
    ],
    [
      138.7422601,
      -34.6368236
    ],
    [
      138.7399927,
      -34.6396265
    ]
  ]
]