[
  [
    [
      138.5378826,
      -34.8510149
    ],
    [
      138.5378883,
      -34.8511048
    ],
    [
      138.5382372,
      -34.8558996
    ],
    [
      138.5385001,
      -34.8598747
    ],
    [
      138.5405598,
      -34.8597847
    ],
    [
      138.5407061,
      -34.8619081
    ],
    [
      138.5474497,
      -34.86159
    ],
    [
      138.5467229,
      -34.8506881
    ],
    [
      138.5467174,
      -34.8505951
    ],
    [
      138.538628,
      -34.8509685
    ],
    [
      138.5378826,
      -34.8510149
    ]
  ]
]