[
  [
    [
      138.5749001,
      -34.9927991
    ],
    [
      138.5756536,
      -35.0037916
    ],
    [
      138.5759102,
      -35.0077223
    ],
    [
      138.5761687,
      -35.0110275
    ],
    [
      138.5761737,
      -35.0110919
    ],
    [
      138.5761762,
      -35.0111233
    ],
    [
      138.5761786,
      -35.0111547
    ],
    [
      138.5761788,
      -35.0111571
    ],
    [
      138.576187,
      -35.0112204
    ],
    [
      138.5763443,
      -35.0124333
    ],
    [
      138.5763905,
      -35.0127897
    ],
    [
      138.5765344,
      -35.0148632
    ],
    [
      138.5765389,
      -35.0149272
    ],
    [
      138.5765542,
      -35.0149264
    ],
    [
      138.5804997,
      -35.0147228
    ],
    [
      138.5805486,
      -35.0146535
    ],
    [
      138.5854684,
      -35.0144291
    ],
    [
      138.5854046,
      -35.0136126
    ],
    [
      138.5851744,
      -35.01062
    ],
    [
      138.5850841,
      -35.0106182
    ],
    [
      138.5845434,
      -35.0036426
    ],
    [
      138.5842965,
      -35.0036549
    ],
    [
      138.5840448,
      -35.0034934
    ],
    [
      138.5838995,
      -35.0025737
    ],
    [
      138.5836441,
      -35.0016479
    ],
    [
      138.5832671,
      -35.0009563
    ],
    [
      138.582677,
      -35.0002892
    ],
    [
      138.5820535,
      -34.9924903
    ],
    [
      138.5815435,
      -34.9925174
    ],
    [
      138.577746,
      -34.9927096
    ],
    [
      138.5776268,
      -34.9926636
    ],
    [
      138.5749001,
      -34.9927991
    ]
  ]
]