[
  [
    [
      138.693813,
      -34.8147995
    ],
    [
      138.6938454,
      -34.814948
    ],
    [
      138.6939369,
      -34.8153675
    ],
    [
      138.6943922,
      -34.8164163
    ],
    [
      138.6948251,
      -34.8172309
    ],
    [
      138.694998,
      -34.8172201
    ],
    [
      138.6970622,
      -34.8170906
    ],
    [
      138.6976279,
      -34.816993
    ],
    [
      138.6979914,
      -34.8168778
    ],
    [
      138.6993837,
      -34.8161115
    ],
    [
      138.700009,
      -34.8159146
    ],
    [
      138.7004372,
      -34.8158798
    ],
    [
      138.7012488,
      -34.8159273
    ],
    [
      138.7037644,
      -34.8165606
    ],
    [
      138.7054147,
      -34.8166509
    ],
    [
      138.7182795,
      -34.8160035
    ],
    [
      138.7181724,
      -34.8144635
    ],
    [
      138.7175379,
      -34.8056303
    ],
    [
      138.7175235,
      -34.8056311
    ],
    [
      138.7002049,
      -34.8064725
    ],
    [
      138.6999778,
      -34.8066587
    ],
    [
      138.6989793,
      -34.8074851
    ],
    [
      138.6986111,
      -34.807781
    ],
    [
      138.6973929,
      -34.8093099
    ],
    [
      138.6949185,
      -34.8125888
    ],
    [
      138.6940269,
      -34.8138791
    ],
    [
      138.6938515,
      -34.8143288
    ],
    [
      138.693813,
      -34.8147995
    ]
  ]
]