[
  [
    [
      138.7001158,
      -34.8348418
    ],
    [
      138.7002629,
      -34.8366266
    ],
    [
      138.7003503,
      -34.8377045
    ],
    [
      138.7010426,
      -34.8376621
    ],
    [
      138.7015178,
      -34.8377298
    ],
    [
      138.7017024,
      -34.8378346
    ],
    [
      138.7020436,
      -34.8381428
    ],
    [
      138.7022973,
      -34.8382807
    ],
    [
      138.7027826,
      -34.8383467
    ],
    [
      138.7074999,
      -34.8380801
    ],
    [
      138.7074523,
      -34.8376686
    ],
    [
      138.7104528,
      -34.8375031
    ],
    [
      138.7136775,
      -34.8373179
    ],
    [
      138.7184935,
      -34.8370498
    ],
    [
      138.72005,
      -34.8369626
    ],
    [
      138.7199877,
      -34.8367854
    ],
    [
      138.7196382,
      -34.8322296
    ],
    [
      138.7196027,
      -34.8318139
    ],
    [
      138.7190794,
      -34.8260498
    ],
    [
      138.7187745,
      -34.8219143
    ],
    [
      138.7187005,
      -34.8210129
    ],
    [
      138.7145542,
      -34.8212367
    ],
    [
      138.7140002,
      -34.8213223
    ],
    [
      138.7131288,
      -34.8215634
    ],
    [
      138.7123983,
      -34.8218733
    ],
    [
      138.7120168,
      -34.822081
    ],
    [
      138.7114922,
      -34.8224523
    ],
    [
      138.7069743,
      -34.8266004
    ],
    [
      138.7062378,
      -34.8270769
    ],
    [
      138.700369,
      -34.8274176
    ],
    [
      138.7002094,
      -34.8274272
    ],
    [
      138.7006568,
      -34.832764
    ],
    [
      138.7005566,
      -34.8327682
    ],
    [
      138.7005998,
      -34.8333312
    ],
    [
      138.7003148,
      -34.8338775
    ],
    [
      138.7001158,
      -34.8348418
    ]
  ]
]