[
  [
    [
      138.5329049,
      -35.0297727
    ],
    [
      138.5334722,
      -35.0371124
    ],
    [
      138.534557,
      -35.0511445
    ],
    [
      138.5347457,
      -35.0514516
    ],
    [
      138.5348268,
      -35.051889
    ],
    [
      138.5350268,
      -35.0550656
    ],
    [
      138.5350269,
      -35.0550677
    ],
    [
      138.535158,
      -35.0550609
    ],
    [
      138.5436562,
      -35.0546163
    ],
    [
      138.5437794,
      -35.0546099
    ],
    [
      138.543772,
      -35.0545441
    ],
    [
      138.5437439,
      -35.0542944
    ],
    [
      138.5437358,
      -35.0542243
    ],
    [
      138.5436184,
      -35.052709
    ],
    [
      138.5435686,
      -35.0520667
    ],
    [
      138.5435661,
      -35.0520344
    ],
    [
      138.54312,
      -35.0462762
    ],
    [
      138.5429221,
      -35.0437216
    ],
    [
      138.5426328,
      -35.039903
    ],
    [
      138.5425597,
      -35.0389535
    ],
    [
      138.5418192,
      -35.029228
    ],
    [
      138.5414359,
      -35.0293244
    ],
    [
      138.5394653,
      -35.0294279
    ],
    [
      138.5329803,
      -35.0297685
    ],
    [
      138.5329049,
      -35.0297727
    ]
  ]
]