[
  [
    [
      138.4757983,
      -35.1693038
    ],
    [
      138.4758774,
      -35.1703785
    ],
    [
      138.4758852,
      -35.1704731
    ],
    [
      138.4759519,
      -35.1715152
    ],
    [
      138.4761867,
      -35.1744404
    ],
    [
      138.4764229,
      -35.1773016
    ],
    [
      138.4766417,
      -35.1809245
    ],
    [
      138.4861973,
      -35.1804775
    ],
    [
      138.486699,
      -35.1803724
    ],
    [
      138.4872534,
      -35.1804255
    ],
    [
      138.4881924,
      -35.1804223
    ],
    [
      138.4894987,
      -35.1804109
    ],
    [
      138.4919469,
      -35.1802647
    ],
    [
      138.4939217,
      -35.1801644
    ],
    [
      138.4960137,
      -35.1799949
    ],
    [
      138.4961373,
      -35.1798181
    ],
    [
      138.4982794,
      -35.1767567
    ],
    [
      138.4984178,
      -35.1765595
    ],
    [
      138.4987618,
      -35.1759605
    ],
    [
      138.4982479,
      -35.1753964
    ],
    [
      138.4981098,
      -35.1752008
    ],
    [
      138.4976161,
      -35.1746394
    ],
    [
      138.4970268,
      -35.1739396
    ],
    [
      138.4969202,
      -35.1738144
    ],
    [
      138.496571,
      -35.1734751
    ],
    [
      138.4963329,
      -35.1732239
    ],
    [
      138.4960965,
      -35.1729959
    ],
    [
      138.495878,
      -35.1727676
    ],
    [
      138.4956295,
      -35.1724834
    ],
    [
      138.4954992,
      -35.1723238
    ],
    [
      138.4953981,
      -35.1721952
    ],
    [
      138.4953286,
      -35.1720762
    ],
    [
      138.4952693,
      -35.1719561
    ],
    [
      138.4952644,
      -35.1718078
    ],
    [
      138.4952874,
      -35.1716386
    ],
    [
      138.4952836,
      -35.1714688
    ],
    [
      138.495243,
      -35.1713126
    ],
    [
      138.495198,
      -35.1710204
    ],
    [
      138.4951747,
      -35.1707547
    ],
    [
      138.495215,
      -35.1704409
    ],
    [
      138.4952962,
      -35.1701624
    ],
    [
      138.4954021,
      -35.1697626
    ],
    [
      138.4954547,
      -35.169381
    ],
    [
      138.4954458,
      -35.1689871
    ],
    [
      138.4954093,
      -35.1684901
    ],
    [
      138.4953397,
      -35.1680173
    ],
    [
      138.4951344,
      -35.1675676
    ],
    [
      138.4949019,
      -35.16714
    ],
    [
      138.4946544,
      -35.166724
    ],
    [
      138.4943667,
      -35.1663269
    ],
    [
      138.4939808,
      -35.1658591
    ],
    [
      138.4936329,
      -35.1654575
    ],
    [
      138.4933635,
      -35.1651065
    ],
    [
      138.4931531,
      -35.1647898
    ],
    [
      138.4930227,
      -35.1644755
    ],
    [
      138.4929512,
      -35.1641947
    ],
    [
      138.4928822,
      -35.1638115
    ],
    [
      138.4929115,
      -35.1635425
    ],
    [
      138.4929811,
      -35.163232
    ],
    [
      138.4931501,
      -35.162939
    ],
    [
      138.4935652,
      -35.1624227
    ],
    [
      138.4939746,
      -35.1618823
    ],
    [
      138.4945086,
      -35.1609593
    ],
    [
      138.4948655,
      -35.1603205
    ],
    [
      138.4950619,
      -35.1600325
    ],
    [
      138.4953351,
      -35.1597001
    ],
    [
      138.4957016,
      -35.1593851
    ],
    [
      138.496086,
      -35.1591174
    ],
    [
      138.4965649,
      -35.1588525
    ],
    [
      138.4970019,
      -35.1586271
    ],
    [
      138.4976091,
      -35.158379
    ],
    [
      138.4980243,
      -35.1582317
    ],
    [
      138.4981966,
      -35.1581121
    ],
    [
      138.4983524,
      -35.157906
    ],
    [
      138.4984554,
      -35.1576003
    ],
    [
      138.4983904,
      -35.1572757
    ],
    [
      138.4982343,
      -35.1570314
    ],
    [
      138.4979033,
      -35.156891
    ],
    [
      138.4974375,
      -35.1567378
    ],
    [
      138.4967687,
      -35.1565703
    ],
    [
      138.4962311,
      -35.156457
    ],
    [
      138.4957602,
      -35.1564081
    ],
    [
      138.4951011,
      -35.1565393
    ],
    [
      138.4946465,
      -35.1566364
    ],
    [
      138.4941754,
      -35.1566725
    ],
    [
      138.4937596,
      -35.1567406
    ],
    [
      138.4931231,
      -35.1569181
    ],
    [
      138.4926758,
      -35.1571488
    ],
    [
      138.4921415,
      -35.1574722
    ],
    [
      138.4914904,
      -35.1579105
    ],
    [
      138.4910949,
      -35.1582026
    ],
    [
      138.4908256,
      -35.1584434
    ],
    [
      138.4905566,
      -35.1586688
    ],
    [
      138.4903982,
      -35.1589578
    ],
    [
      138.4902549,
      -35.159371
    ],
    [
      138.4901291,
      -35.1598314
    ],
    [
      138.4900205,
      -35.1603418
    ],
    [
      138.4898971,
      -35.1606918
    ],
    [
      138.4897244,
      -35.1608467
    ],
    [
      138.4894769,
      -35.1609819
    ],
    [
      138.4891566,
      -35.1610503
    ],
    [
      138.4887803,
      -35.1610742
    ],
    [
      138.4885039,
      -35.1610039
    ],
    [
      138.4883248,
      -35.1607672
    ],
    [
      138.4774029,
      -35.167557
    ],
    [
      138.4757983,
      -35.1693038
    ]
  ]
]