[
  [
    [
      138.5086852,
      -34.9914945
    ],
    [
      138.5092393,
      -34.9957835
    ],
    [
      138.5103169,
      -35.0023733
    ],
    [
      138.5107567,
      -35.0025227
    ],
    [
      138.5173944,
      -35.0021699
    ],
    [
      138.5174005,
      -35.0022291
    ],
    [
      138.5176015,
      -35.0022219
    ],
    [
      138.521823,
      -35.0020043
    ],
    [
      138.5218443,
      -35.0021462
    ],
    [
      138.527643,
      -35.0018469
    ],
    [
      138.5303757,
      -35.0016936
    ],
    [
      138.5300172,
      -34.9967248
    ],
    [
      138.530358,
      -34.996705
    ],
    [
      138.5304607,
      -34.9966989
    ],
    [
      138.5303509,
      -34.9965447
    ],
    [
      138.5297715,
      -34.9957317
    ],
    [
      138.5303642,
      -34.9957032
    ],
    [
      138.5303334,
      -34.9952776
    ],
    [
      138.5302675,
      -34.9952803
    ],
    [
      138.5300887,
      -34.9929337
    ],
    [
      138.530932,
      -34.99289
    ],
    [
      138.5308043,
      -34.9911488
    ],
    [
      138.5300681,
      -34.9911836
    ],
    [
      138.5298068,
      -34.991275
    ],
    [
      138.5267211,
      -34.9914378
    ],
    [
      138.5259961,
      -34.9904157
    ],
    [
      138.5237934,
      -34.9905239
    ],
    [
      138.5209614,
      -34.9906647
    ],
    [
      138.5209705,
      -34.9908633
    ],
    [
      138.5139781,
      -34.9912373
    ],
    [
      138.5139568,
      -34.9908871
    ],
    [
      138.5131802,
      -34.991129
    ],
    [
      138.5124606,
      -34.9909983
    ],
    [
      138.512475,
      -34.9913184
    ],
    [
      138.5086852,
      -34.9914945
    ]
  ]
]