[
  [
    [
      138.5680893,
      -34.9002952
    ],
    [
      138.5749372,
      -34.9055511
    ],
    [
      138.5780069,
      -34.9024575
    ],
    [
      138.5777574,
      -34.9022898
    ],
    [
      138.5779321,
      -34.9021168
    ],
    [
      138.5779977,
      -34.9021605
    ],
    [
      138.5786367,
      -34.9014998
    ],
    [
      138.5788304,
      -34.9016261
    ],
    [
      138.5798034,
      -34.9006417
    ],
    [
      138.5796906,
      -34.9005661
    ],
    [
      138.5797852,
      -34.9004713
    ],
    [
      138.5799017,
      -34.9005493
    ],
    [
      138.5808061,
      -34.8996291
    ],
    [
      138.580596,
      -34.8994874
    ],
    [
      138.5807351,
      -34.8993479
    ],
    [
      138.5809446,
      -34.8994889
    ],
    [
      138.581568,
      -34.8988579
    ],
    [
      138.5815334,
      -34.8988239
    ],
    [
      138.5817474,
      -34.8986091
    ],
    [
      138.5817868,
      -34.8986353
    ],
    [
      138.5823397,
      -34.8981041
    ],
    [
      138.5821843,
      -34.8980003
    ],
    [
      138.5835929,
      -34.8965687
    ],
    [
      138.5813667,
      -34.8952183
    ],
    [
      138.5812201,
      -34.895046
    ],
    [
      138.5795529,
      -34.8941184
    ],
    [
      138.5747453,
      -34.8912056
    ],
    [
      138.5718489,
      -34.8941835
    ],
    [
      138.5733649,
      -34.8950905
    ],
    [
      138.5726618,
      -34.8958001
    ],
    [
      138.5725166,
      -34.8959594
    ],
    [
      138.5721956,
      -34.8962123
    ],
    [
      138.568408,
      -34.9000767
    ],
    [
      138.5683464,
      -34.9000298
    ],
    [
      138.5680893,
      -34.9002952
    ]
  ]
]