[
  [
    [
      138.645294,
      -34.8360248
    ],
    [
      138.6455556,
      -34.8372739
    ],
    [
      138.6464994,
      -34.8411124
    ],
    [
      138.6465851,
      -34.8414611
    ],
    [
      138.647216,
      -34.8421629
    ],
    [
      138.6492808,
      -34.844824
    ],
    [
      138.6496302,
      -34.8456245
    ],
    [
      138.6494651,
      -34.8461072
    ],
    [
      138.6500424,
      -34.8460743
    ],
    [
      138.6596835,
      -34.845545
    ],
    [
      138.6694658,
      -34.845008
    ],
    [
      138.671155,
      -34.8449153
    ],
    [
      138.6712379,
      -34.8447825
    ],
    [
      138.6716634,
      -34.8440976
    ],
    [
      138.6730052,
      -34.8423101
    ],
    [
      138.6735661,
      -34.8417351
    ],
    [
      138.6757968,
      -34.8397902
    ],
    [
      138.6757033,
      -34.8388075
    ],
    [
      138.6756969,
      -34.8387403
    ],
    [
      138.6756807,
      -34.83857
    ],
    [
      138.6756526,
      -34.8382746
    ],
    [
      138.6756363,
      -34.8381032
    ],
    [
      138.6752831,
      -34.8342154
    ],
    [
      138.6685944,
      -34.8345829
    ],
    [
      138.6680983,
      -34.8346162
    ],
    [
      138.6543347,
      -34.835315
    ],
    [
      138.6455177,
      -34.8357196
    ],
    [
      138.6453495,
      -34.835727
    ],
    [
      138.645294,
      -34.8360248
    ]
  ]
]