[
  [
    [
      138.6399844,
      -34.9074151
    ],
    [
      138.6403303,
      -34.912237
    ],
    [
      138.6405172,
      -34.9148012
    ],
    [
      138.648735,
      -34.9143738
    ],
    [
      138.6494003,
      -34.9143373
    ],
    [
      138.6489817,
      -34.9085993
    ],
    [
      138.6489551,
      -34.908207
    ],
    [
      138.6487714,
      -34.9082157
    ],
    [
      138.6483064,
      -34.9082375
    ],
    [
      138.6483101,
      -34.9083079
    ],
    [
      138.643609,
      -34.9085442
    ],
    [
      138.6435216,
      -34.9072481
    ],
    [
      138.6399844,
      -34.9074151
    ]
  ]
]