[
  [
    [
      138.4969697,
      -34.8448117
    ],
    [
      138.4972619,
      -34.8478787
    ],
    [
      138.4978705,
      -34.8493526
    ],
    [
      138.4985608,
      -34.8508124
    ],
    [
      138.4984762,
      -34.8522685
    ],
    [
      138.5009447,
      -34.8524532
    ],
    [
      138.5018731,
      -34.8527659
    ],
    [
      138.5022064,
      -34.8531669
    ],
    [
      138.5025328,
      -34.8583389
    ],
    [
      138.5026359,
      -34.8589362
    ],
    [
      138.5028631,
      -34.859209
    ],
    [
      138.5043814,
      -34.8578542
    ],
    [
      138.5094788,
      -34.8535866
    ],
    [
      138.5094496,
      -34.8532946
    ],
    [
      138.509382,
      -34.8522972
    ],
    [
      138.5136635,
      -34.8521047
    ],
    [
      138.5140797,
      -34.852086
    ],
    [
      138.5136872,
      -34.851062
    ],
    [
      138.513714,
      -34.8509891
    ],
    [
      138.5135836,
      -34.8500169
    ],
    [
      138.5136132,
      -34.8496205
    ],
    [
      138.5139143,
      -34.8491459
    ],
    [
      138.5144029,
      -34.8491243
    ],
    [
      138.5143817,
      -34.8487127
    ],
    [
      138.5166834,
      -34.8480289
    ],
    [
      138.5166741,
      -34.8479365
    ],
    [
      138.5165709,
      -34.8459417
    ],
    [
      138.5164886,
      -34.8459448
    ],
    [
      138.5165459,
      -34.8447762
    ],
    [
      138.5165242,
      -34.8436974
    ],
    [
      138.5185533,
      -34.8436646
    ],
    [
      138.5208863,
      -34.8422839
    ],
    [
      138.5208357,
      -34.8422331
    ],
    [
      138.5252532,
      -34.8396032
    ],
    [
      138.5150103,
      -34.8357534
    ],
    [
      138.5149795,
      -34.8355617
    ],
    [
      138.5252573,
      -34.8167983
    ],
    [
      138.5252365,
      -34.813303
    ],
    [
      138.5252249,
      -34.811349
    ],
    [
      138.5230468,
      -34.8106062
    ],
    [
      138.5229533,
      -34.8105743
    ],
    [
      138.5205484,
      -34.8102482
    ],
    [
      138.5179186,
      -34.8097112
    ],
    [
      138.5157773,
      -34.8077149
    ],
    [
      138.5139791,
      -34.8069209
    ],
    [
      138.5137533,
      -34.811043
    ],
    [
      138.5137363,
      -34.8113541
    ],
    [
      138.5137241,
      -34.8115769
    ],
    [
      138.5139764,
      -34.8158319
    ],
    [
      138.5138069,
      -34.8174055
    ],
    [
      138.5116606,
      -34.8214777
    ],
    [
      138.5102673,
      -34.8230683
    ],
    [
      138.5099081,
      -34.8235865
    ],
    [
      138.5087052,
      -34.825322
    ],
    [
      138.5077068,
      -34.8269699
    ],
    [
      138.5076995,
      -34.8281259
    ],
    [
      138.5076804,
      -34.8311746
    ],
    [
      138.5075965,
      -34.832321
    ],
    [
      138.5075758,
      -34.8326045
    ],
    [
      138.5073679,
      -34.8354468
    ],
    [
      138.5066487,
      -34.8388649
    ],
    [
      138.5060836,
      -34.8402874
    ],
    [
      138.5046128,
      -34.8411049
    ],
    [
      138.5026148,
      -34.8419586
    ],
    [
      138.5016104,
      -34.8421463
    ],
    [
      138.5003497,
      -34.8423818
    ],
    [
      138.4973143,
      -34.8432169
    ],
    [
      138.4969697,
      -34.8448117
    ]
  ]
]