[
  [
    [
      138.6934575,
      -34.8260174
    ],
    [
      138.6936979,
      -34.8268858
    ],
    [
      138.6937611,
      -34.8277986
    ],
    [
      138.6938185,
      -34.8277956
    ],
    [
      138.7002094,
      -34.8274272
    ],
    [
      138.700369,
      -34.8274176
    ],
    [
      138.7062378,
      -34.8270769
    ],
    [
      138.7069743,
      -34.8266004
    ],
    [
      138.7114922,
      -34.8224523
    ],
    [
      138.7120168,
      -34.822081
    ],
    [
      138.7123983,
      -34.8218733
    ],
    [
      138.7131288,
      -34.8215634
    ],
    [
      138.7140002,
      -34.8213223
    ],
    [
      138.7145542,
      -34.8212367
    ],
    [
      138.7187005,
      -34.8210129
    ],
    [
      138.7183732,
      -34.8169014
    ],
    [
      138.7182795,
      -34.8160035
    ],
    [
      138.7054147,
      -34.8166509
    ],
    [
      138.7037644,
      -34.8165606
    ],
    [
      138.7012488,
      -34.8159273
    ],
    [
      138.7004372,
      -34.8158798
    ],
    [
      138.700009,
      -34.8159146
    ],
    [
      138.6993837,
      -34.8161115
    ],
    [
      138.6979914,
      -34.8168778
    ],
    [
      138.6976279,
      -34.816993
    ],
    [
      138.6970622,
      -34.8170906
    ],
    [
      138.694998,
      -34.8172201
    ],
    [
      138.6948251,
      -34.8172309
    ],
    [
      138.6948758,
      -34.8175746
    ],
    [
      138.6951067,
      -34.8182155
    ],
    [
      138.6953145,
      -34.8202921
    ],
    [
      138.6934575,
      -34.8260174
    ]
  ]
]